{
	"info": {
		"_postman_id": "33e281c7-4a80-4e76-a154-ae3546216b4b",
		"name": "quote-create",
		"schema": "https://schema.getpostman.com/json/collection/v2.1.0/collection.json"
	},
	"item": [
		{
			"name": "draft-quote",
			"item": [
				{
					"name": "Create a contact",
					"event": [
						{
							"listen": "test",
							"script": {
								"exec": [
									"pm.test(\"Create a contact of the type legal entity\", ()=>{\r",
									"    const res = pm.response.json(); \r",
									"    pm.expect(pm.response.code).to.eql(201);\r",
									"    pm.variables.set(\"externalID\", res.externalID)\r",
									"    tests[`Contact External ID: ${res.externalID}`] = true;\r",
									"});"
								],
								"type": "text/javascript"
							}
						}
					],
					"request": {
						"method": "POST",
						"header": [
							{
								"key": "username",
								"value": "{{username}}",
								"type": "default"
							},
							{
								"key": "password",
								"value": "{{password}}",
								"type": "default"
							},
							{
								"key": "Cookie",
								"value": "{{cookie}}",
								"type": "default"
							}
						],
						"body": {
							"mode": "raw",
							"raw": "{\r\n  \"addresses\": [\r\n    {\r\n      \"@type\": \"interfaces:AddressIBO\",\r\n      \"zipCode\": \"80807\",\r\n      \"country\": {\r\n        \"id\": 77,\r\n        \"desc\": \"GERMANY\"\r\n      },\r\n      \"streetName\": \"Walter-Gropius-Str.\",\r\n      \"cityName\": \"MÜNCHEN\",\r\n      \"houseNr\": \"5\",\r\n      \"districtName\": \"Schwabing-Freimann\",\r\n      \"addressType\": {\r\n        \"id\": 6,\r\n        \"desc\": \"Correspondence address - commercial\"\r\n      }\r\n    }\r\n  ],\r\n  \"telephones\": [\r\n    {\r\n      \"@type\": \"interfaces:TelephoneIBO\",\r\n      \"telephoneNumber\": \"08931760\",\r\n      \"telephoneType\": {\r\n        \"id\": 1000002,\r\n        \"desc\": \"General Telephone\"\r\n      },\r\n      \"countryDialCode\": {\r\n        \"id\": 77,\r\n        \"desc\": \"49\"\r\n      }\r\n    }\r\n  ],\r\n  \"language\": {\r\n    \"id\": 1000000,\r\n    \"desc\": \"German - DE\"\r\n  },\r\n  \"channelType\": {\r\n    \"id\": 1,\r\n    \"desc\": \"IDIT_UI\"\r\n  },\r\n  \"preferredDeliveryType\": {\r\n    \"id\": 3,\r\n    \"desc\": \"Email\"\r\n  },\r\n  \"emails\": [\r\n    {\r\n      \"@type\": \"interfaces:EmailIBO\",\r\n      \"emailType\": {\r\n        \"id\": 1000000,\r\n        \"desc\": \"General\"\r\n      },\r\n      \"isPreferredDeliveryAddress\": true,\r\n      \"email\": \"{{$randomEmail}}\"\r\n    }\r\n  ],\r\n\r\n  \"legalFormVO\": {\r\n    \"id\": 1000040,\r\n    \"desc\": \"GmbH\"\r\n  },\r\n  \"entityType\": {\r\n    \"id\": 101,\r\n    \"desc\": \"Legal entity\"\r\n  },\r\n  \"name\": \"{{$randomCompanyName}}\"\r\n}",
							"options": {
								"raw": {
									"language": "json"
								}
							}
						},
						"url": {
							"raw": "{{baseUrl}}/api/contact",
							"host": [
								"{{baseUrl}}"
							],
							"path": [
								"api",
								"contact"
							]
						}
					},
					"response": []
				},
				{
					"name": "Create Draft Quote",
					"event": [
						{
							"listen": "prerequest",
							"script": {
								"exec": [
									"pm.variables.set('proposalExternalID',   new Date().toJSON().replace(/[^0-9]/g,''));\r",
									""
								],
								"type": "text/javascript"
							}
						},
						{
							"listen": "test",
							"script": {
								"exec": [
									"pm.test('Create draft quote', ()=>{\r",
									"    const draftQuote = pm.response.json();\r",
									"    pm.expect(pm.response.code).to.eqls(200);\r",
									"    pm.variables.set('draftProposalExternalID', draftQuote.policyNumber);\r",
									"    tests[`Quote external ID: ${draftQuote.policyNumber}`] = true;\r",
									"});"
								],
								"type": "text/javascript"
							}
						}
					],
					"request": {
						"method": "PUT",
						"header": [
							{
								"key": "username",
								"value": "{{username}}",
								"type": "default"
							},
							{
								"key": "password",
								"value": "{{password}}",
								"type": "default"
							}
						],
						"body": {
							"mode": "raw",
							"raw": "{\r\n    \"endDate\": \"2023-03-31T23:59:59\",\r\n    \"channel\": {\r\n        \"id\": 1000001,\r\n        \"desc\": \"Direct\"\r\n    },\r\n    \"quoteValidUntil\": \"2022-05-31T00:00:00\",\r\n    \"endorsStartDate\": \"2022-04-01T00:00:00\",\r\n    \"statusReason\": {\r\n        \"id\": 1000000,\r\n        \"desc\": \"Missing information\"\r\n    },\r\n    \"umbIndustryClass\": {\r\n        \"id\": 1000002,\r\n        \"desc\": \"Consultancy\"\r\n    },\r\n    \"endOfCommitmentDate\": \"2023-03-31T23:59:59\",\r\n    \"umbTotalTurnover\": 100000.0,\r\n    \"paymentTerm\": {\r\n        \"id\": 1000018,\r\n        \"desc\": \"1000018\"\r\n    },\r\n    \"startDate\": \"2022-04-01T00:00:00\",\r\n    \"status\": {\r\n        \"id\": 10,\r\n        \"desc\": \"Quote\"\r\n    },\r\n    \"umbProposition\": {\r\n        \"id\": 1000026,\r\n        \"desc\": \"Consult\"\r\n    },\r\n    \"umbRiskDescriptionIVOs\": [\r\n        {\r\n            \"umbRiskDescription\": {\r\n                \"id\": 1000002,\r\n                \"desc\": \"Unternehmens- und Personalberatungen\"\r\n            },\r\n            \"umbRiskPrimary\": true,\r\n            \"umbDocumentRiskDescription\": \"Unternehmens- und Personalberatungen\"\r\n        }\r\n    ],\r\n    \"customerDecision\": {\r\n        \"id\": 3,\r\n        \"desc\": \"Save Quote\"\r\n    },\r\n    \"insuredObjects\": [\r\n        {\r\n            \"assetType\": {\r\n                \"id\": 7,\r\n                \"desc\": \"Other\"\r\n            },\r\n            \"asset\": {\r\n                \"@type\": \"interfaces:AssetOtherIVO\",\r\n                \"mortgageVO\": [],\r\n                \"assetTypeVO\": {\r\n                    \"id\": 7,\r\n                    \"desc\": \"Other\"\r\n                },\r\n                \"assetIdentifierIVOs\": [],\r\n                \"mortgageFlag\": 0,\r\n                \"updateVersion\": 1,\r\n                \"assetDescription\": \"Floating Covers\",\r\n                \"claimHistoryVOs\": [],\r\n                \"assetBeneficiaryVOs\": [],\r\n                \"assetAdditionalData\": [],\r\n                \"assetItemVOs\": [],\r\n                \"assetRiskVOs\": []\r\n            },\r\n            \"lob\": {\r\n                \"id\": 1,\r\n                \"desc\": \"Property\"\r\n            },\r\n            \"status\": {\r\n                \"id\": 10,\r\n                \"desc\": \"Quote\"\r\n            },\r\n            \"covers\": [\r\n                {\r\n                    \"productLineType\": 3,\r\n                    \"excessAmount\": 0.00,\r\n                    \"coverAdjustmentTypeIBOs\": [\r\n                        {\r\n                            \"defaultAdjustmentPercent\": 5.0000000000,\r\n                            \"applyAtRenewal\": false,\r\n                            \"productDiscountType\": {\r\n                                \"id\": 1000003,\r\n                                \"desc\": \"1000003\"\r\n                            },\r\n                            \"discountAmount\": 0,\r\n                            \"adjustmentPercent\": 5.0000000000\r\n                        }\r\n                    ],\r\n                    \"productLineOptionType\": {\r\n                        \"id\": 1000000,\r\n                        \"desc\": \"Professional Indemnity\"\r\n                    },\r\n                    \"coverOptions\": [\r\n                        {\r\n                            \"optionNumber\": 10,\r\n                            \"description\": \"Professional Indemnity\",\r\n                            \"id\": 1000000\r\n                        }\r\n                    ],\r\n                    \"insuranceAmount\": 0.00,\r\n                    \"cost\": 0.00,\r\n                    \"productLineGroup\": 1000000,\r\n                    \"coverOptionName\": \"Professional Indemnity\",\r\n                    \"status\": {\r\n                        \"id\": 10,\r\n                        \"desc\": \"Quote\"\r\n                    }\r\n                },\r\n                {\r\n                    \"insuranceAmountLevel\": 3,\r\n                    \"productLineType\": 3,\r\n                    \"commissionForColl\": 0.00,\r\n                    \"excessAmount\": 100.00,\r\n                    \"coverAdjustmentTypeIBOs\": [\r\n                        {\r\n                            \"defaultAdjustmentPercent\": 5.0000000000,\r\n                            \"applyAtRenewal\": false,\r\n                            \"updateVersion\": 1,\r\n                            \"productDiscountType\": {\r\n                                \"id\": 1000003,\r\n                                \"desc\": \"1000003\"\r\n                            },\r\n                            \"discountAmount\": 0,\r\n                            \"id\": 62883,\r\n                            \"adjustmentPercent\": 5.0000000000\r\n                        }\r\n                    ],\r\n                    \"productLineOptionType\": {\r\n                        \"id\": 1000001,\r\n                        \"desc\": \"Core Professional Indemnity\"\r\n                    },\r\n                    \"coverOptions\": [\r\n                        {\r\n                            \"optionNumber\": 20,\r\n                            \"description\": \"Core Professional Indemnity\",\r\n                            \"id\": 1000001\r\n                        }\r\n                    ],\r\n                    \"included\": false,\r\n                    \"insuranceAmount\": 100000.00,\r\n                    \"productLineGroup\": 1000001,\r\n                    \"coverOptionName\": \"Core Professional Indemnity\",\r\n                    \"excessLevel\": 5,\r\n                    \"parentCoverExternalNumber\": \"Professional Indemnity\",\r\n                    \"status\": {\r\n                        \"id\": 10,\r\n                        \"desc\": \"Quote\"\r\n                    }\r\n                },\r\n                {\r\n                    \"insuranceAmountLevel\": 1,\r\n                    \"productLineType\": 3,\r\n                    \"excessAmount\": 0.00,\r\n                    \"coverAdjustmentTypeIBOs\": [\r\n                        {\r\n                            \"defaultAdjustmentPercent\": 5.0000000000,\r\n                            \"applyAtRenewal\": false,\r\n                            \"updateVersion\": 1,\r\n                            \"productDiscountType\": {\r\n                                \"id\": 1000003,\r\n                                \"desc\": \"1000003\"\r\n                            },\r\n                            \"discountAmount\": 0,\r\n                            \"id\": 62884,\r\n                            \"adjustmentPercent\": 5.0000000000\r\n                        }\r\n                    ],\r\n                    \"productLineOptionType\": {\r\n                        \"id\": 1000002,\r\n                        \"desc\": \"Core Professional Indemnity Additional Perils\"\r\n                    },\r\n                    \"coverOptions\": [\r\n                        {\r\n                            \"updateVersion\": 274,\r\n                            \"optionNumber\": 30,\r\n                            \"description\": \"Core Professional Indemnity Additional Perils\",\r\n                            \"id\": 1000002\r\n                        }\r\n                    ],\r\n                    \"included\": false,\r\n                    \"insuranceAmount\": 100000.00,\r\n                    \"cost\": 0.00,\r\n                    \"productLineGroup\": 1000002,\r\n                    \"coverOptionName\": \"Core Professional Indemnity Additional Perils\",\r\n                    \"parentCoverExternalNumber\": \"Professional Indemnity\",\r\n                    \"status\": {\r\n                        \"id\": 10,\r\n                        \"desc\": \"Quote\"\r\n                    }\r\n                }\r\n            ]\r\n        }\r\n    ],\r\n    \"collectionMethodVO\": {\r\n        \"id\": 1,\r\n        \"desc\": \"Direct Transfer\"\r\n    },\r\n    \"umbPropositionVrs\": {\r\n        \"id\": 1000045,\r\n        \"desc\": \"A.MANG.PF.1903\"\r\n    },\r\n    \"currency\": {\r\n        \"id\": 1,\r\n        \"desc\": \"Euro\"\r\n    },\r\n    \"policyHolderExternalNumber\": \"{{externalID}}\",\r\n    \"collectionMethod\": {\r\n        \"id\": 1,\r\n        \"desc\": \"Direct Transfer\"\r\n    },\r\n    \"product\": {\r\n        \"id\": 1000000,\r\n        \"desc\": \"PSC\"\r\n    },\r\n    \"isThreeYearsPolicy\": false,\r\n    \"methodOfPlacementVO\": {\r\n        \"id\": 1000006,\r\n        \"desc\": \"Pre Defined - Hiscox API\"\r\n    },\r\n    \"wordingVersionVO\": {\r\n        \"id\": 1000001,\r\n        \"desc\": \"Allgemeine Bedingungen 01/19\"\r\n    }\r\n}",
							"options": {
								"raw": {
									"language": "json"
								}
							}
						},
						"url": {
							"raw": "{{baseUrl}}/api/draft-proposal/:proposalNumber",
							"host": [
								"{{baseUrl}}"
							],
							"path": [
								"api",
								"draft-proposal",
								":proposalNumber"
							],
							"variable": [
								{
									"key": "proposalNumber",
									"value": "{{proposalExternalID}}"
								}
							]
						}
					},
					"response": []
				}
			]
		},
		{
			"name": "anonymous - psc",
			"item": [
				{
					"name": "Create PSC Quote - Anonymous",
					"event": [
						{
							"listen": "test",
							"script": {
								"exec": [
									"pm.test(\"Create an anonymous quote - PSC\", ()=> {\r",
									"    const res = pm.response.json(); \r",
									"    pm.expect(pm.response.code).to.eql(200);\r",
									"    pm.variables.set(\"proposalExternalID\", res.externalID);\r",
									"    tests[`Quote External ID: ${res.externalID}`] = true;\r",
									"});"
								],
								"type": "text/javascript"
							}
						},
						{
							"listen": "prerequest",
							"script": {
								"exec": [
									"pm.variables.set('anonymousContactId', 7);"
								],
								"type": "text/javascript"
							}
						}
					],
					"request": {
						"method": "POST",
						"header": [
							{
								"key": "username",
								"value": "{{username}}",
								"type": "default"
							},
							{
								"key": "password",
								"value": "{{password}}",
								"type": "default"
							},
							{
								"key": "Cookie",
								"value": "{{cookie}}",
								"type": "default"
							}
						],
						"body": {
							"mode": "raw",
							"raw": "{\r\n    \"endDate\": \"2023-03-31T23:59:59\",\r\n    \"channel\": {\r\n        \"id\": 1000001,\r\n        \"desc\": \"Direct\"\r\n    },\r\n    \"quoteValidUntil\": \"2022-05-31T00:00:00\",\r\n    \"endorsStartDate\": \"2022-04-01T00:00:00\",\r\n    \"statusReason\": {\r\n        \"id\": 1000000,\r\n        \"desc\": \"Missing information\"\r\n    },\r\n    \"umbIndustryClass\": {\r\n        \"id\": 1000002,\r\n        \"desc\": \"Consultancy\"\r\n    },\r\n    \"endOfCommitmentDate\": \"2023-03-31T23:59:59\",\r\n    \"umbTotalTurnover\": 100000.0,\r\n    \"paymentTerm\": {\r\n        \"id\": 1000018,\r\n        \"desc\": \"1000018\"\r\n    },\r\n    \"startDate\": \"2022-04-01T00:00:00\",\r\n    \"status\": {\r\n        \"id\": 10,\r\n        \"desc\": \"Quote\"\r\n    },\r\n    \"umbProposition\": {\r\n        \"id\": 1000026,\r\n        \"desc\": \"Consult\"\r\n    },\r\n    \"umbRiskDescriptionIVOs\": [\r\n        {\r\n            \"umbRiskDescription\": {\r\n                \"id\": 1000002,\r\n                \"desc\": \"Unternehmens- und Personalberatungen\"\r\n            },\r\n            \"umbRiskPrimary\": true,\r\n            \"umbDocumentRiskDescription\": \"Unternehmens- und Personalberatungen\"\r\n        }\r\n    ],\r\n    \"customerDecision\": {\r\n        \"id\": 3,\r\n        \"desc\": \"Save Quote\"\r\n    },\r\n    \"insuredObjects\": [\r\n        {\r\n            \"assetType\": {\r\n                \"id\": 7,\r\n                \"desc\": \"Other\"\r\n            },\r\n            \"asset\": {\r\n                \"@type\": \"interfaces:AssetOtherIVO\",\r\n                \"mortgageVO\": [],\r\n                \"assetTypeVO\": {\r\n                    \"id\": 7,\r\n                    \"desc\": \"Other\"\r\n                },\r\n                \"assetIdentifierIVOs\": [],\r\n                \"mortgageFlag\": 0,\r\n                \"updateVersion\": 1,\r\n                \"assetDescription\": \"Floating Covers\",\r\n                \"claimHistoryVOs\": [],\r\n                \"assetBeneficiaryVOs\": [],\r\n                \"assetAdditionalData\": [],\r\n                \"assetItemVOs\": [],\r\n                \"assetRiskVOs\": []\r\n            },\r\n            \"lob\": {\r\n                \"id\": 1,\r\n                \"desc\": \"Property\"\r\n            },\r\n            \"status\": {\r\n                \"id\": 10,\r\n                \"desc\": \"Quote\"\r\n            },\r\n            \"covers\": [\r\n                {\r\n                    \"productLineType\": 3,\r\n                    \"excessAmount\": 0.00,\r\n                    \"coverAdjustmentTypeIBOs\": [\r\n                        {\r\n                            \"defaultAdjustmentPercent\": 5.0000000000,\r\n                            \"applyAtRenewal\": false,\r\n                            \"productDiscountType\": {\r\n                                \"id\": 1000003,\r\n                                \"desc\": \"1000003\"\r\n                            },\r\n                            \"discountAmount\": 0,\r\n                            \"adjustmentPercent\": 5.0000000000\r\n                        }\r\n                    ],\r\n                    \"productLineOptionType\": {\r\n                        \"id\": 1000000,\r\n                        \"desc\": \"Professional Indemnity\"\r\n                    },\r\n                    \"coverOptions\": [\r\n                        {\r\n                            \"optionNumber\": 10,\r\n                            \"description\": \"Professional Indemnity\",\r\n                            \"id\": 1000000\r\n                        }\r\n                    ],\r\n                    \"insuranceAmount\": 0.00,\r\n                    \"cost\": 0.00,\r\n                    \"productLineGroup\": 1000000,\r\n                    \"coverOptionName\": \"Professional Indemnity\",\r\n                    \"status\": {\r\n                        \"id\": 10,\r\n                        \"desc\": \"Quote\"\r\n                    }\r\n                },\r\n                {\r\n                    \"insuranceAmountLevel\": 3,\r\n                    \"productLineType\": 3,\r\n                    \"commissionForColl\": 0.00,\r\n                    \"excessAmount\": 100.00,\r\n                    \"coverAdjustmentTypeIBOs\": [\r\n                        {\r\n                            \"defaultAdjustmentPercent\": 5.0000000000,\r\n                            \"applyAtRenewal\": false,\r\n                            \"updateVersion\": 1,\r\n                            \"productDiscountType\": {\r\n                                \"id\": 1000003,\r\n                                \"desc\": \"1000003\"\r\n                            },\r\n                            \"discountAmount\": 0,\r\n                            \"id\": 62883,\r\n                            \"adjustmentPercent\": 5.0000000000\r\n                        }\r\n                    ],\r\n                    \"productLineOptionType\": {\r\n                        \"id\": 1000001,\r\n                        \"desc\": \"Core Professional Indemnity\"\r\n                    },\r\n                    \"coverOptions\": [\r\n                        {\r\n                            \"optionNumber\": 20,\r\n                            \"description\": \"Core Professional Indemnity\",\r\n                            \"id\": 1000001\r\n                        }\r\n                    ],\r\n                    \"included\": false,\r\n                    \"insuranceAmount\": 100000.00,\r\n                    \"productLineGroup\": 1000001,\r\n                    \"coverOptionName\": \"Core Professional Indemnity\",\r\n                    \"excessLevel\": 5,\r\n                    \"parentCoverExternalNumber\": \"Professional Indemnity\",\r\n                    \"status\": {\r\n                        \"id\": 10,\r\n                        \"desc\": \"Quote\"\r\n                    }\r\n                },\r\n                {\r\n                    \"insuranceAmountLevel\": 1,\r\n                    \"productLineType\": 3,\r\n                    \"excessAmount\": 0.00,\r\n                    \"coverAdjustmentTypeIBOs\": [\r\n                        {\r\n                            \"defaultAdjustmentPercent\": 5.0000000000,\r\n                            \"applyAtRenewal\": false,\r\n                            \"updateVersion\": 1,\r\n                            \"productDiscountType\": {\r\n                                \"id\": 1000003,\r\n                                \"desc\": \"1000003\"\r\n                            },\r\n                            \"discountAmount\": 0,\r\n                            \"id\": 62884,\r\n                            \"adjustmentPercent\": 5.0000000000\r\n                        }\r\n                    ],\r\n                    \"productLineOptionType\": {\r\n                        \"id\": 1000002,\r\n                        \"desc\": \"Core Professional Indemnity Additional Perils\"\r\n                    },\r\n                    \"coverOptions\": [\r\n                        {\r\n                            \"updateVersion\": 274,\r\n                            \"optionNumber\": 30,\r\n                            \"description\": \"Core Professional Indemnity Additional Perils\",\r\n                            \"id\": 1000002\r\n                        }\r\n                    ],\r\n                    \"included\": false,\r\n                    \"insuranceAmount\": 100000.00,\r\n                    \"cost\": 0.00,\r\n                    \"productLineGroup\": 1000002,\r\n                    \"coverOptionName\": \"Core Professional Indemnity Additional Perils\",\r\n                    \"parentCoverExternalNumber\": \"Professional Indemnity\",\r\n                    \"status\": {\r\n                        \"id\": 10,\r\n                        \"desc\": \"Quote\"\r\n                    }\r\n                }\r\n            ]\r\n        }\r\n    ],\r\n    \"collectionMethodVO\": {\r\n        \"id\": 1,\r\n        \"desc\": \"Direct Transfer\"\r\n    },\r\n    \"umbPropositionVrs\": {\r\n        \"id\": 1000045,\r\n        \"desc\": \"A.MANG.PF.1903\"\r\n    },\r\n    \"currency\": {\r\n        \"id\": 1,\r\n        \"desc\": \"Euro\"\r\n    },\r\n    \"policyHolderExternalNumber\": \"{{anonymousContactId}}\",\r\n    \"collectionMethod\": {\r\n        \"id\": 1,\r\n        \"desc\": \"Direct Transfer\"\r\n    },\r\n    \"product\": {\r\n        \"id\": 1000000,\r\n        \"desc\": \"PSC\"\r\n    },\r\n    \"isThreeYearsPolicy\": false,\r\n    \"methodOfPlacementVO\": {\r\n        \"id\": 1000006,\r\n        \"desc\": \"Pre Defined - Hiscox API\"\r\n    },\r\n    \"wordingVersionVO\": {\r\n        \"id\": 1000001,\r\n        \"desc\": \"Allgemeine Bedingungen 01/19\"\r\n    }\r\n}",
							"options": {
								"raw": {
									"language": "json"
								}
							}
						},
						"url": {
							"raw": "{{baseUrl}}/api/proposal",
							"host": [
								"{{baseUrl}}"
							],
							"path": [
								"api",
								"proposal"
							]
						}
					},
					"response": []
				}
			]
		},
		{
			"name": "anonymous - ghh",
			"item": [
				{
					"name": "Create Quote GHH- Anonymous",
					"event": [
						{
							"listen": "prerequest",
							"script": {
								"exec": [
									""
								],
								"type": "text/javascript"
							}
						},
						{
							"listen": "test",
							"script": {
								"exec": [
									"pm.test(\"Create an anonymous quote - GHH\", ()=> {\r",
									"    const res = pm.response.json(); \r",
									"    pm.expect(pm.response.code).to.eql(200);\r",
									"    pm.variables.set(\"proposalExternalID\", res.externalID);\r",
									"    tests[`Quote External ID: ${res.externalID}`] = true;\r",
									"});"
								],
								"type": "text/javascript"
							}
						}
					],
					"request": {
						"method": "POST",
						"header": [
							{
								"key": "",
								"value": "",
								"type": "default"
							},
							{
								"key": "username",
								"value": "{{username}}",
								"type": "default"
							},
							{
								"key": "password",
								"value": "{{password}}",
								"type": "default"
							}
						],
						"body": {
							"mode": "raw",
							"raw": "{\r\n    \"channel\": {\r\n        \"id\": 1000001\r\n    },\r\n    \"statusReason\": {\r\n        \"id\": 103\r\n    },\r\n    \"endorsementNumber\": 0,\r\n    \"paymentTerm\": {\r\n        \"id\": 1000114,\r\n        \"desc\": \"1000114\"\r\n    },\r\n    \"startDate\": \"2022-02-23T00:00:00\",\r\n    \"endOfCommitmentDate\": \"2023-03-31T23:59:59\",\r\n    \"status\": {\r\n        \"id\": 10,\r\n        \"desc\": \"Quote\"\r\n    },\r\n    \"customerDecision\": {\r\n        \"id\": 3,\r\n        \"desc\": \"Save Quote\"\r\n    },\r\n    \"insuredObjects\": [\r\n        {\r\n            \"insuranceAmount\": 100000.00,\r\n            \"policyItemUnderwritingAlertsIBO\": [],\r\n            \"clauseIBOs\": [],\r\n            \"riskObjectAdjustmentTypeIBOs\": [],\r\n            \"lob\": {\r\n                \"id\": 1,\r\n                \"desc\": \"Property\"\r\n            },\r\n            \"status\": {\r\n                \"id\": 10,\r\n                \"desc\": \"Quote\"\r\n            },\r\n            \"covers\": [\r\n                {\r\n                    \"productLineType\": 3,\r\n                    \"externalNumber\": \"Personal Liability\",\r\n                    \"coverAdjustmentTypeIBOs\": [],\r\n                    \"productLineOptionType\": {\r\n                        \"id\": 1000068,\r\n                        \"desc\": \"Personal Liability\"\r\n                    },\r\n                    \"coverOptions\": [\r\n                        {\r\n                            \"optionNumber\": 10,\r\n                            \"description\": \"Personal Liability\",\r\n                            \"id\": 1000068\r\n                        }\r\n                    ],\r\n                    \"included\": false,\r\n                    \"insuranceAmount\": 10000000.00,\r\n                    \"productLineGroup\": 1000067,\r\n                    \"excessOptions\": [],\r\n                    \"policyItemUnderwritingAlertsIBO\": [],\r\n                    \"coverOptionName\": \"Personal Liability\",\r\n                    \"clauseIBOs\": [\r\n                        {\r\n                            \"lobClauseVO\": {\r\n                                \"id\": 1000527,\r\n                                \"desc\": \"Gewässerschaden-Haftpflicht\"\r\n                            },\r\n                            \"isExistedClause\": false,\r\n                            \"clauseVersionVO\": {\r\n                                \"id\": 1000723,\r\n                                \"desc\": \"Gewässerschaden-Haftpflicht\"\r\n                            },\r\n                            \"clauseTypeVO\": {\r\n                                \"id\": 1,\r\n                                \"desc\": \"Mandatory\"\r\n                            }\r\n                        },\r\n                        {\r\n                            \"lobClauseVO\": {\r\n                                \"id\": 1000526,\r\n                                \"desc\": \"Erweiterung Tierhalterhaftpflicht\"\r\n                            },\r\n                            \"isExistedClause\": false,\r\n                            \"clauseVersionVO\": {\r\n                                \"id\": 1000725,\r\n                                \"desc\": \"Erweiterung Tierhalterhaftpflicht\"\r\n                            },\r\n                            \"clauseTypeVO\": {\r\n                                \"id\": 1,\r\n                                \"desc\": \"Mandatory\"\r\n                            }\r\n                        }\r\n                    ],\r\n                    \"insuranceAmountOptions\": [],\r\n                    \"status\": {\r\n                        \"id\": 10,\r\n                        \"desc\": \"Quote\"\r\n                    }\r\n                },\r\n                {\r\n                    \"productLineType\": 3,\r\n                    \"externalNumber\": \"Personal Liability -\",\r\n                    \"excessAmount\": 0.00,\r\n                    \"coverAdjustmentTypeIBOs\": [],\r\n                    \"productLineOptionType\": {\r\n                        \"id\": 1000071,\r\n                        \"desc\": \"Personal Liability\"\r\n                    },\r\n                    \"coverOptions\": [\r\n                        {\r\n                            \"optionNumber\": 10,\r\n                            \"description\": \"Personal Liability\",\r\n                            \"id\": 1000071\r\n                        }\r\n                    ],\r\n                    \"included\": false,\r\n                    \"insuranceAmount\": 10000000.00,\r\n                    \"productLineGroup\": 1000068,\r\n                    \"excessOptions\": [],\r\n                    \"policyItemUnderwritingAlertsIBO\": [],\r\n                    \"coverOptionName\": \"Personal Liability\",\r\n                    \"clauseIBOs\": [],\r\n                    \"parentCoverExternalNumber\": \"Personal Liability\",\r\n                    \"insuranceAmountOptions\": [],\r\n                    \"status\": {\r\n                        \"id\": 10,\r\n                        \"desc\": \"Quote\"\r\n                    }\r\n                },\r\n                {\r\n                    \"productLineType\": 3,\r\n                    \"externalNumber\": \"Property Owner's Liability\",\r\n                    \"excessAmount\": 0.00,\r\n                    \"coverAdjustmentTypeIBOs\": [],\r\n                    \"productLineOptionType\": {\r\n                        \"id\": 1000072,\r\n                        \"desc\": \"Property Owner's Liability\"\r\n                    },\r\n                    \"coverOptions\": [\r\n                        {\r\n                            \"optionNumber\": 20,\r\n                            \"description\": \"Property Owner's Liability\",\r\n                            \"id\": 1000072\r\n                        }\r\n                    ],\r\n                    \"included\": false,\r\n                    \"insuranceAmount\": 10000000.00,\r\n                    \"productLineGroup\": 1000069,\r\n                    \"excessOptions\": [],\r\n                    \"policyItemUnderwritingAlertsIBO\": [],\r\n                    \"coverOptionName\": \"Property Owner's Liability\",\r\n                    \"clauseIBOs\": [],\r\n                    \"parentCoverExternalNumber\": \"Personal Liability\",\r\n                    \"insuranceAmountOptions\": [],\r\n                    \"status\": {\r\n                        \"id\": 10,\r\n                        \"desc\": \"Quote\"\r\n                    }\r\n                },\r\n                {\r\n                    \"productLineType\": 3,\r\n                    \"externalNumber\": \"Animals Owner's Liability\",\r\n                    \"excessAmount\": 0.00,\r\n                    \"coverAdjustmentTypeIBOs\": [],\r\n                    \"productLineOptionType\": {\r\n                        \"id\": 1000073,\r\n                        \"desc\": \"Animals Owner's Liability\"\r\n                    },\r\n                    \"coverOptions\": [\r\n                        {\r\n                            \"optionNumber\": 30,\r\n                            \"description\": \"Animals Owner's Liability\",\r\n                            \"id\": 1000073\r\n                        }\r\n                    ],\r\n                    \"included\": false,\r\n                    \"insuranceAmount\": 10000000.00,\r\n                    \"productLineGroup\": 1000070,\r\n                    \"excessOptions\": [],\r\n                    \"policyItemUnderwritingAlertsIBO\": [],\r\n                    \"coverOptionName\": \"Animals Owner's Liability\",\r\n                    \"clauseIBOs\": [],\r\n                    \"parentCoverExternalNumber\": \"Personal Liability\",\r\n                    \"insuranceAmountOptions\": [],\r\n                    \"status\": {\r\n                        \"id\": 10,\r\n                        \"desc\": \"Quote\"\r\n                    }\r\n                },\r\n                {\r\n                    \"productLineType\": 3,\r\n                    \"externalNumber\": \"Pollution\",\r\n                    \"excessAmount\": 0.00,\r\n                    \"coverAdjustmentTypeIBOs\": [],\r\n                    \"productLineOptionType\": {\r\n                        \"id\": 1000074,\r\n                        \"desc\": \"Pollution\"\r\n                    },\r\n                    \"coverOptions\": [\r\n                        {\r\n                            \"optionNumber\": 40,\r\n                            \"description\": \"Pollution\",\r\n                            \"id\": 1000074\r\n                        }\r\n                    ],\r\n                    \"included\": false,\r\n                    \"insuranceAmount\": 10000000.00,\r\n                    \"productLineGroup\": 1000071,\r\n                    \"excessOptions\": [],\r\n                    \"policyItemUnderwritingAlertsIBO\": [],\r\n                    \"coverOptionName\": \"Pollution\",\r\n                    \"clauseIBOs\": [],\r\n                    \"parentCoverExternalNumber\": \"Personal Liability\",\r\n                    \"insuranceAmountOptions\": [],\r\n                    \"status\": {\r\n                        \"id\": 10,\r\n                        \"desc\": \"Quote\"\r\n                    }\r\n                },\r\n                {\r\n                    \"productLineType\": 3,\r\n                    \"externalNumber\": \"Building Work's Liability\",\r\n                    \"excessAmount\": 0.00,\r\n                    \"coverAdjustmentTypeIBOs\": [],\r\n                    \"productLineOptionType\": {\r\n                        \"id\": 1000075,\r\n                        \"desc\": \"Building Work's Liability\"\r\n                    },\r\n                    \"coverOptions\": [\r\n                        {\r\n                            \"optionNumber\": 50,\r\n                            \"description\": \"Building Work's Liability\",\r\n                            \"id\": 1000075\r\n                        }\r\n                    ],\r\n                    \"included\": false,\r\n                    \"insuranceAmount\": 10000000.00,\r\n                    \"productLineGroup\": 1000072,\r\n                    \"excessOptions\": [],\r\n                    \"policyItemUnderwritingAlertsIBO\": [],\r\n                    \"coverOptionName\": \"Building Work's Liability\",\r\n                    \"clauseIBOs\": [],\r\n                    \"parentCoverExternalNumber\": \"Personal Liability\",\r\n                    \"insuranceAmountOptions\": [],\r\n                    \"status\": {\r\n                        \"id\": 10,\r\n                        \"desc\": \"Quote\"\r\n                    }\r\n                },\r\n                {\r\n                    \"insuranceAmountLevel\": 1,\r\n                    \"productLineType\": 3,\r\n                    \"externalNumber\": \"Family Protection\",\r\n                    \"excessAmount\": 0.00,\r\n                    \"coverAdjustmentTypeIBOs\": [],\r\n                    \"productLineOptionType\": {\r\n                        \"id\": 1000070,\r\n                        \"desc\": \"Family Protection\"\r\n                    },\r\n                    \"coverOptions\": [\r\n                        {\r\n                            \"optionNumber\": 30,\r\n                            \"description\": \"Family Protection\",\r\n                            \"id\": 1000070\r\n                        }\r\n                    ],\r\n                    \"included\": false,\r\n                    \"insuranceAmount\": 100000.00,\r\n                    \"productLineGroup\": 1000074,\r\n                    \"excessOptions\": [],\r\n                    \"policyItemUnderwritingAlertsIBO\": [],\r\n                    \"coverOptionName\": \"Family Protection\",\r\n                    \"clauseIBOs\": [],\r\n                    \"insuranceAmountOptions\": [],\r\n                    \"status\": {\r\n                        \"id\": 10,\r\n                        \"desc\": \"Quote\"\r\n                    }\r\n                },\r\n                {\r\n                    \"productLineType\": 3,\r\n                    \"excessAmount\": 1000.00,\r\n                    \"coverAdjustmentTypeIBOs\": [],\r\n                    \"productLineOptionType\": {\r\n                        \"id\": 1000069,\r\n                        \"desc\": \"Private Cyber\"\r\n                    },\r\n                    \"coverOptions\": [\r\n                        {\r\n                            \"optionNumber\": 20,\r\n                            \"description\": \"Private Cyber\",\r\n                            \"id\": 1000069\r\n                        }\r\n                    ],\r\n                    \"included\": false,\r\n                    \"insuranceAmount\": 100000.00,\r\n                    \"productLineGroup\": 1000073,\r\n                    \"excessOptions\": [],\r\n                    \"taxForColl\": 57.00,\r\n                    \"policyItemUnderwritingAlertsIBO\": [],\r\n                    \"coverOptionName\": \"Private Cyber\",\r\n                    \"clauseIBOs\": [],\r\n                    \"insuranceAmountOptions\": [],\r\n                    \"status\": {\r\n                        \"id\": 10,\r\n                        \"desc\": \"Quote\"\r\n                    }\r\n                }\r\n                \r\n            ]\r\n        },\r\n        {\r\n            \"insuranceAmount\": 0.00,\r\n            \"mortgageFlag\": false,\r\n            \"assetType\": {\r\n                \"id\": 2,\r\n                \"desc\": \"Property\"\r\n            },\r\n            \"policyItemUnderwritingAlertsIBO\": [],\r\n            \"clauseIBOs\": [],\r\n            \"riskObjectAdjustmentTypeIBOs\": [\r\n                {\r\n                    \"defaultAdjustmentPercent\": 0.1000000000,\r\n                    \"applyAtRenewal\": false,\r\n                    \"productDiscountType\": {\r\n                        \"id\": 1000011,\r\n                        \"desc\": \"1000011\"\r\n                    },\r\n                    \"discountAmount\": 0,\r\n                    \"adjustmentPercent\": 0.1000000000\r\n                },\r\n                {\r\n                    \"defaultAdjustmentPercent\": 0.1000000000,\r\n                    \"applyAtRenewal\": false,\r\n                    \"productDiscountType\": {\r\n                        \"id\": 1000013,\r\n                        \"desc\": \"1000013\"\r\n                    },\r\n                    \"discountAmount\": 0,\r\n                    \"adjustmentPercent\": 0.1000000000\r\n                }\r\n            ],\r\n            \"asset\": {\r\n                \"@type\": \"interfaces:PropertyIVO\",\r\n                \"propertyIntruderAlarm\": {\r\n                    \"id\": 1000130,\r\n                    \"desc\": \"No\"\r\n                },\r\n                \"propertyTheftVO\": {\r\n                    \"theftItemVOs\": [],\r\n                    \"mechanicalProtectionFlagVO\": {\r\n                        \"id\": 0,\r\n                        \"desc\": \"No\"\r\n                    },\r\n                    \"electronicProtectionFlagVO\": {\r\n                        \"id\": 0,\r\n                        \"desc\": \"No\"\r\n                    },\r\n                    \"extMechanicalProtectionFlagVO\": {\r\n                        \"id\": 0,\r\n                        \"desc\": \"No\"\r\n                    },\r\n                    \"minimalProtectionFlagVO\": {\r\n                        \"id\": 0,\r\n                        \"desc\": \"No\"\r\n                    }\r\n                },\r\n                \"assetAdditionalData\": [],\r\n                \"assetRiskVOs\": [],\r\n                \"assetPropertyRoomsIVOs\": [],\r\n                \"contentsSafeHXDEVOs\": [],\r\n                \"appliedTheftScore\": {\r\n                    \"id\": 1000076,\r\n                    \"desc\": \"Unknown\"\r\n                },\r\n                \"appliedFloodScore\": {\r\n                    \"id\": 1000072,\r\n                    \"desc\": \"Unknown\"\r\n                },\r\n                \"propertyFireAlarm\": {\r\n                    \"id\": 1000119,\r\n                    \"desc\": \"No\"\r\n                },\r\n                \"previousClaimsFlag\": {\r\n                    \"id\": 0,\r\n                    \"desc\": \"No\"\r\n                },\r\n                \"hazardClass\": {\r\n                    \"id\": 1000198,\r\n                    \"desc\": \"Low\"\r\n                },\r\n                \"assetTypeVO\": {\r\n                    \"id\": 2,\r\n                    \"desc\": \"Property\"\r\n                },\r\n                \"assetIdentifierIVOs\": [],\r\n                \"claimHistoryVOs\": [],\r\n                \"assetBeneficiaryVOs\": [],\r\n                \"plotAreaDE\": 120.0,\r\n                \"typeOfThatchRoofDE\": {\r\n                    \"id\": 1000976,\r\n                    \"desc\": \"Unknown\"\r\n                },\r\n                \"homRoWaterLeak\": {\r\n                    \"id\": 1000921,\r\n                    \"desc\": \"Yes\"\r\n                },\r\n                \"hasMortgageNotification\": false,\r\n                \"mortgageVO\": [],\r\n                \"officeComputer\": [],\r\n                \"yearOfConstruction\": {\r\n                    \"id\": 1000952,\r\n                    \"desc\": \"2011 - 2020\"\r\n                },\r\n                \"theftScore\": {\r\n                    \"id\": 1000076,\r\n                    \"desc\": \"Unknown\"\r\n                },\r\n                \"addressVO\": {\r\n                    \"zipCode\": \"12345\",\r\n                    \"houseNr\": \"12345\",\r\n                    \"countryVO\": {\r\n                        \"id\": 77,\r\n                        \"desc\": \"Germany\"\r\n                    },\r\n                    \"streetName\": \"street\",\r\n                    \"cityName\": \"berlin\",\r\n                    \"formattedAddress\": \" street 12345 12345 berlin GERMANY\",\r\n                    \"remarks\": \"this is an address remark!\"\r\n                },\r\n                \"buildingUsageType\": {\r\n                    \"id\": 1000924,\r\n                    \"desc\": \"Main Residence\"\r\n                },\r\n                \"listedBuildingDE\": false,\r\n                \"propertyBuildingType\": {\r\n                    \"id\": 1000097,\r\n                    \"desc\": \"Office / Administration\"\r\n                },\r\n                \"assetDescription\": \" street 12345 12345 berlin Germany\",\r\n                \"perilOption\": {\r\n                    \"id\": 1000077,\r\n                    \"desc\": \"All risks\"\r\n                },\r\n                \"livingAreaDE\": 90.0,\r\n                \"assetItemVOs\": [],\r\n                \"typeOfPropertyDE\": {\r\n                    \"id\": 1000932,\r\n                    \"desc\": \"House - Detached\"\r\n                },\r\n                \"constructionClassificationDE\": {\r\n                    \"id\": 1000945,\r\n                    \"desc\": \"BAK I (Massive Bauweise, Harte Bedachung)\"\r\n                },\r\n                \"floodScore\": {\r\n                    \"id\": 1000072,\r\n                    \"desc\": \"Unknown\"\r\n                },\r\n                \"usableAreaDE\": 120.0,\r\n                \"hasPropertyFloodRisk\": true,\r\n                \"mortgageFlag\": 0,\r\n                \"hasContentsSafe\": {\r\n                    \"id\": 1000173,\r\n                    \"desc\": \"Unknown\"\r\n                }\r\n            },\r\n            \"lob\": {\r\n                \"id\": 1,\r\n                \"desc\": \"Property\"\r\n            },\r\n            \"status\": {\r\n                \"id\": 10,\r\n                \"desc\": \"Quote\"\r\n            },\r\n            \"covers\": [\r\n                {\r\n                    \"productLineType\": 3,\r\n                    \"externalNumber\": \"Buildings\",\r\n                    \"excessAmount\": 1000.00,\r\n                    \"coverAdjustmentTypeIBOs\": [\r\n                        {\r\n                            \"defaultAdjustmentPercent\": 0.1000000000,\r\n                            \"applyAtRenewal\": false,\r\n                            \"productDiscountType\": {\r\n                                \"id\": 1000011,\r\n                                \"desc\": \"1000011\"\r\n                            },\r\n                            \"discountAmount\": 0,\r\n                            \"adjustmentPercent\": 0.1000000000\r\n                        }\r\n                    ],\r\n                    \"productLineOptionType\": {\r\n                        \"id\": 1000030,\r\n                        \"desc\": \"Buildings\"\r\n                    },\r\n                    \"coverOptions\": [\r\n                        {\r\n                            \"optionNumber\": 10,\r\n                            \"description\": \"Buildings\",\r\n                            \"id\": 1000030\r\n                        }\r\n                    ],\r\n                    \"included\": false,\r\n                    \"insuranceAmount\": 500000.00,\r\n                    \"productLineGroup\": 1000031,\r\n                    \"excessOptions\": [],\r\n                    \"policyItemUnderwritingAlertsIBO\": [],\r\n                    \"coverOptionName\": \"Buildings\",\r\n                    \"excessLevel\": 4,\r\n                    \"clauseIBOs\": [\r\n                        {\r\n                            \"lobClauseVO\": {\r\n                                \"id\": 1000436,\r\n                                \"desc\": \"Ausschluss Überschwemmung/Hochwasser\"\r\n                            },\r\n                            \"isExistedClause\": false,\r\n                            \"clauseVersionVO\": {\r\n                                \"id\": 1000575,\r\n                                \"desc\": \"Ausschluss Überschwemmung/Hochwasser\"\r\n                            },\r\n                            \"clauseTypeVO\": {\r\n                                \"id\": 1,\r\n                                \"desc\": \"Mandatory\"\r\n                            }\r\n                        }\r\n                    ],\r\n                    \"insuranceAmountOptions\": [],\r\n                    \"status\": {\r\n                        \"id\": 10,\r\n                        \"desc\": \"Quote\"\r\n                    }\r\n                },\r\n                {\r\n                    \"productLineType\": 3,\r\n                    \"externalNumber\": \"Main Buildings\",\r\n                    \"commissionForColl\": 0.00,\r\n                    \"excessAmount\": 0.00,\r\n                    \"coverAdjustmentTypeIBOs\": [\r\n                        {\r\n                            \"defaultAdjustmentPercent\": 0.1000000000,\r\n                            \"applyAtRenewal\": false,\r\n                            \"productDiscountType\": {\r\n                                \"id\": 1000011,\r\n                                \"desc\": \"1000011\"\r\n                            },\r\n                            \"discountAmount\": 0,\r\n                            \"adjustmentPercent\": 0.1000000000\r\n                        }\r\n                    ],\r\n                    \"loadingForColl\": 0.00,\r\n                    \"productLineOptionType\": {\r\n                        \"id\": 1000037,\r\n                        \"desc\": \"Main Buildings\"\r\n                    },\r\n                    \"premiumForColl\": 1161.50,\r\n                    \"coverOptions\": [\r\n                        {\r\n                            \"optionNumber\": 10,\r\n                            \"description\": \"Main Buildings\",\r\n                            \"id\": 1000037\r\n                        }\r\n                    ],\r\n                    \"included\": false,\r\n                    \"insuranceAmount\": 500000.00,\r\n                    \"cost\": 0.00,\r\n                    \"netPremiumForColl\": 1000.00,\r\n                    \"productLineGroup\": 1000036,\r\n                    \"excessOptions\": [],\r\n                    \"taxForColl\": 161.50,\r\n                    \"policyItemUnderwritingAlertsIBO\": [],\r\n                    \"coverOptionName\": \"Main Buildings\",\r\n                    \"clauseIBOs\": [],\r\n                    \"parentCoverExternalNumber\": \"Buildings\",\r\n                    \"insuranceAmountOptions\": [],\r\n                    \"status\": {\r\n                        \"id\": 10,\r\n                        \"desc\": \"Quote\"\r\n                    }\r\n                },\r\n                {\r\n                    \"productLineType\": 3,\r\n                    \"externalNumber\": \"Contents\",\r\n                    \"excessAmount\": 1000.00,\r\n                    \"coverAdjustmentTypeIBOs\": [\r\n                        {\r\n                            \"defaultAdjustmentPercent\": 0.1000000000,\r\n                            \"applyAtRenewal\": false,\r\n                            \"productDiscountType\": {\r\n                                \"id\": 1000011,\r\n                                \"desc\": \"1000011\"\r\n                            },\r\n                            \"discountAmount\": 0,\r\n                            \"adjustmentPercent\": 0.1000000000\r\n                        }\r\n                    ],\r\n                    \"loadingForColl\": 0.00,\r\n                    \"productLineOptionType\": {\r\n                        \"id\": 1000031,\r\n                        \"desc\": \"Contents\"\r\n                    },\r\n                    \"coverOptions\": [\r\n                        {\r\n                            \"optionNumber\": 20,\r\n                            \"description\": \"Contents\",\r\n                            \"id\": 1000031\r\n                        }\r\n                    ],\r\n                    \"included\": false,\r\n                    \"insuranceAmount\": 25000.00,\r\n                    \"productLineGroup\": 1000032,\r\n                    \"excessOptions\": [],\r\n                    \"policyItemUnderwritingAlertsIBO\": [],\r\n                    \"coverOptionName\": \"Contents\",\r\n                    \"excessLevel\": 4,\r\n                    \"clauseIBOs\": [\r\n                        {\r\n                            \"lobClauseVO\": {\r\n                                \"id\": 1000471,\r\n                                \"desc\": \"Sicherungen\"\r\n                            },\r\n                            \"isExistedClause\": false,\r\n                            \"clauseVersionVO\": {\r\n                                \"id\": 1000793,\r\n                                \"desc\": \"Sicherungen\"\r\n                            },\r\n                            \"clauseTypeVO\": {\r\n                                \"id\": 3,\r\n                                \"desc\": \"Recommended\"\r\n                            }\r\n                        },\r\n                        {\r\n                            \"lobClauseVO\": {\r\n                                \"id\": 1000460,\r\n                                \"desc\": \"Ausschluss Überschwemmung/Hochwasser\"\r\n                            },\r\n                            \"isExistedClause\": false,\r\n                            \"clauseVersionVO\": {\r\n                                \"id\": 1000575,\r\n                                \"desc\": \"Ausschluss Überschwemmung/Hochwasser\"\r\n                            },\r\n                            \"clauseTypeVO\": {\r\n                                \"id\": 1,\r\n                                \"desc\": \"Mandatory\"\r\n                            }\r\n                        }\r\n                    ],\r\n                    \"insuranceAmountOptions\": [],\r\n                    \"status\": {\r\n                        \"id\": 10,\r\n                        \"desc\": \"Quote\"\r\n                    }\r\n                },\r\n                {\r\n                    \"productLineType\": 3,\r\n                    \"externalNumber\": \"General Contents\",\r\n                    \"commissionForColl\": 0.00,\r\n                    \"excessAmount\": 0.00,\r\n                    \"coverAdjustmentTypeIBOs\": [\r\n                        {\r\n                            \"defaultAdjustmentPercent\": 0.1000000000,\r\n                            \"applyAtRenewal\": false,\r\n                            \"productDiscountType\": {\r\n                                \"id\": 1000011,\r\n                                \"desc\": \"1000011\"\r\n                            },\r\n                            \"discountAmount\": 0,\r\n                            \"adjustmentPercent\": 0.1000000000\r\n                        }\r\n                    ],\r\n                    \"productLineOptionType\": {\r\n                        \"id\": 1000042,\r\n                        \"desc\": \"General Contents\"\r\n                    },\r\n                    \"coverOptions\": [\r\n                        {\r\n                            \"optionNumber\": 10,\r\n                            \"description\": \"General Contents\",\r\n                            \"id\": 1000042\r\n                        }\r\n                    ],\r\n                    \"included\": false,\r\n                    \"insuranceAmount\": 25000.00,\r\n                    \"productLineGroup\": 1000041,\r\n                    \"excessOptions\": [],\r\n                    \"policyItemUnderwritingAlertsIBO\": [],\r\n                    \"coverOptionName\": \"General Contents\",\r\n                    \"clauseIBOs\": [],\r\n                    \"parentCoverExternalNumber\": \"Contents\",\r\n                    \"insuranceAmountOptions\": [],\r\n                    \"status\": {\r\n                        \"id\": 10,\r\n                        \"desc\": \"Quote\"\r\n                    }\r\n                }\r\n            ]\r\n        }\r\n    ],\r\n    \"collectionMethodVO\": {\r\n        \"id\": 1,\r\n        \"desc\": \"Direct Transfer\"\r\n    },\r\n    \"umbPropositionVrs\": {\r\n        \"id\": 1000196,\r\n        \"desc\": \"A.HK.PF.1901\"\r\n    },\r\n    \"currency\": {\r\n        \"id\": 1,\r\n        \"desc\": \"Euro\"\r\n    },\r\n    \"policyHolderExternalNumber\": \"{{anonymousContactId}}\",\r\n    \"collectionMethod\": {\r\n        \"id\": 1,\r\n        \"desc\": \"Direct Transfer\"\r\n    },\r\n    \"product\": {\r\n        \"id\": 1000008,\r\n        \"desc\": \"Household\"\r\n    },\r\n    \"isThreeYearsPolicy\": false,\r\n    \"methodOfPlacementVO\": {\r\n        \"id\": 1000006,\r\n        \"desc\": \"Pre Defined - Hiscox API\"\r\n    }\r\n}",
							"options": {
								"raw": {
									"language": "json"
								}
							}
						},
						"url": {
							"raw": "{{baseUrl}}/api/proposal",
							"host": [
								"{{baseUrl}}"
							],
							"path": [
								"api",
								"proposal"
							]
						}
					},
					"response": []
				}
			]
		},
		{
			"name": "nonanonymous - psc",
			"item": [
				{
					"name": "Create a contact",
					"event": [
						{
							"listen": "test",
							"script": {
								"exec": [
									"pm.test(\"Create a contact of the type legal entity\", ()=>{\r",
									"    const res = pm.response.json(); \r",
									"    pm.expect(pm.response.code).to.eql(201);\r",
									"    pm.variables.set(\"externalID\", res.externalID)\r",
									"    tests[`Contact External ID: ${res.externalID}`] = true;\r",
									"});"
								],
								"type": "text/javascript"
							}
						}
					],
					"request": {
						"method": "POST",
						"header": [
							{
								"key": "username",
								"value": "{{username}}",
								"type": "default"
							},
							{
								"key": "password",
								"value": "{{password}}",
								"type": "default"
							},
							{
								"key": "Cookie",
								"value": "{{cookie}}",
								"type": "default"
							}
						],
						"body": {
							"mode": "raw",
							"raw": "{\r\n  \"addresses\": [\r\n    {\r\n      \"@type\": \"interfaces:AddressIBO\",\r\n      \"zipCode\": \"80807\",\r\n      \"country\": {\r\n        \"id\": 77,\r\n        \"desc\": \"GERMANY\"\r\n      },\r\n      \"streetName\": \"Walter-Gropius-Str.\",\r\n      \"cityName\": \"MÜNCHEN\",\r\n      \"houseNr\": \"5\",\r\n      \"districtName\": \"Schwabing-Freimann\",\r\n      \"addressType\": {\r\n        \"id\": 6,\r\n        \"desc\": \"Correspondence address - commercial\"\r\n      }\r\n    }\r\n  ],\r\n  \"telephones\": [\r\n    {\r\n      \"@type\": \"interfaces:TelephoneIBO\",\r\n      \"telephoneNumber\": \"08931760\",\r\n      \"telephoneType\": {\r\n        \"id\": 1000002,\r\n        \"desc\": \"General Telephone\"\r\n      },\r\n      \"countryDialCode\": {\r\n        \"id\": 77,\r\n        \"desc\": \"49\"\r\n      }\r\n    }\r\n  ],\r\n  \"language\": {\r\n    \"id\": 1000000,\r\n    \"desc\": \"German - DE\"\r\n  },\r\n  \"channelType\": {\r\n    \"id\": 1,\r\n    \"desc\": \"IDIT_UI\"\r\n  },\r\n  \"preferredDeliveryType\": {\r\n    \"id\": 3,\r\n    \"desc\": \"Email\"\r\n  },\r\n  \"emails\": [\r\n    {\r\n      \"@type\": \"interfaces:EmailIBO\",\r\n      \"emailType\": {\r\n        \"id\": 1000000,\r\n        \"desc\": \"General\"\r\n      },\r\n      \"isPreferredDeliveryAddress\": true,\r\n      \"email\": \"{{$randomEmail}}\"\r\n    }\r\n  ],\r\n\r\n  \"legalFormVO\": {\r\n    \"id\": 1000040,\r\n    \"desc\": \"GmbH\"\r\n  },\r\n  \"entityType\": {\r\n    \"id\": 101,\r\n    \"desc\": \"Legal entity\"\r\n  },\r\n  \"name\": \"{{$randomCompanyName}}\"\r\n}",
							"options": {
								"raw": {
									"language": "json"
								}
							}
						},
						"url": {
							"raw": "{{baseUrl}}/api/contact",
							"host": [
								"{{baseUrl}}"
							],
							"path": [
								"api",
								"contact"
							]
						}
					},
					"response": []
				},
				{
					"name": "Create  PSC quote",
					"event": [
						{
							"listen": "test",
							"script": {
								"exec": [
									"pm.test(\"Create a nonanonymous quote PSC\", ()=> {\r",
									"    const res = pm.response.json(); \r",
									"    pm.expect(pm.response.code).to.eql(200);\r",
									"    pm.variables.set(\"proposalExternalID\", res.externalID);\r",
									"    tests[`Quote External ID: ${res.externalID}`] = true;\r",
									"});"
								],
								"type": "text/javascript"
							}
						},
						{
							"listen": "prerequest",
							"script": {
								"exec": [
									"pm.variables.set('anonymousContactId', 7);"
								],
								"type": "text/javascript"
							}
						}
					],
					"request": {
						"method": "POST",
						"header": [
							{
								"key": "username",
								"value": "{{username}}",
								"type": "default"
							},
							{
								"key": "password",
								"value": "{{password}}",
								"type": "default"
							},
							{
								"key": "Cookie",
								"value": "{{cookie}}",
								"type": "default"
							}
						],
						"body": {
							"mode": "raw",
							"raw": "{\r\n    \"endDate\": \"2023-03-31T23:59:59\",\r\n    \"channel\": {\r\n        \"id\": 1000001,\r\n        \"desc\": \"Direct\"\r\n    },\r\n    \"quoteValidUntil\": \"2022-05-31T00:00:00\",\r\n    \"endorsStartDate\": \"2022-04-01T00:00:00\",\r\n    \"statusReason\": {\r\n        \"id\": 1000000,\r\n        \"desc\": \"Missing information\"\r\n    },\r\n    \"umbIndustryClass\": {\r\n        \"id\": 1000002,\r\n        \"desc\": \"Consultancy\"\r\n    },\r\n    \"endOfCommitmentDate\": \"2023-03-31T23:59:59\",\r\n    \"umbTotalTurnover\": 100000.0,\r\n    \"paymentTerm\": {\r\n        \"id\": 1000018,\r\n        \"desc\": \"1000018\"\r\n    },\r\n    \"startDate\": \"2022-04-01T00:00:00\",\r\n    \"status\": {\r\n        \"id\": 10,\r\n        \"desc\": \"Quote\"\r\n    },\r\n    \"umbProposition\": {\r\n        \"id\": 1000026,\r\n        \"desc\": \"Consult\"\r\n    },\r\n    \"umbRiskDescriptionIVOs\": [\r\n        {\r\n            \"umbRiskDescription\": {\r\n                \"id\": 1000002,\r\n                \"desc\": \"Unternehmens- und Personalberatungen\"\r\n            },\r\n            \"umbRiskPrimary\": true,\r\n            \"umbDocumentRiskDescription\": \"Unternehmens- und Personalberatungen\"\r\n        }\r\n    ],\r\n    \"customerDecision\": {\r\n        \"id\": 3,\r\n        \"desc\": \"Save Quote\"\r\n    },\r\n    \"insuredObjects\": [\r\n        {\r\n            \"assetType\": {\r\n                \"id\": 7,\r\n                \"desc\": \"Other\"\r\n            },\r\n            \"asset\": {\r\n                \"@type\": \"interfaces:AssetOtherIVO\",\r\n                \"mortgageVO\": [],\r\n                \"assetTypeVO\": {\r\n                    \"id\": 7,\r\n                    \"desc\": \"Other\"\r\n                },\r\n                \"assetIdentifierIVOs\": [],\r\n                \"mortgageFlag\": 0,\r\n                \"updateVersion\": 1,\r\n                \"assetDescription\": \"Floating Covers\",\r\n                \"claimHistoryVOs\": [],\r\n                \"assetBeneficiaryVOs\": [],\r\n                \"assetAdditionalData\": [],\r\n                \"assetItemVOs\": [],\r\n                \"assetRiskVOs\": []\r\n            },\r\n            \"lob\": {\r\n                \"id\": 1,\r\n                \"desc\": \"Property\"\r\n            },\r\n            \"status\": {\r\n                \"id\": 10,\r\n                \"desc\": \"Quote\"\r\n            },\r\n            \"covers\": [\r\n                {\r\n                    \"productLineType\": 3,\r\n                    \"excessAmount\": 0.00,\r\n                    \"coverAdjustmentTypeIBOs\": [\r\n                        {\r\n                            \"defaultAdjustmentPercent\": 5.0000000000,\r\n                            \"applyAtRenewal\": false,\r\n                            \"productDiscountType\": {\r\n                                \"id\": 1000003,\r\n                                \"desc\": \"1000003\"\r\n                            },\r\n                            \"discountAmount\": 0,\r\n                            \"adjustmentPercent\": 5.0000000000\r\n                        }\r\n                    ],\r\n                    \"productLineOptionType\": {\r\n                        \"id\": 1000000,\r\n                        \"desc\": \"Professional Indemnity\"\r\n                    },\r\n                    \"coverOptions\": [\r\n                        {\r\n                            \"optionNumber\": 10,\r\n                            \"description\": \"Professional Indemnity\",\r\n                            \"id\": 1000000\r\n                        }\r\n                    ],\r\n                    \"insuranceAmount\": 0.00,\r\n                    \"cost\": 0.00,\r\n                    \"productLineGroup\": 1000000,\r\n                    \"coverOptionName\": \"Professional Indemnity\",\r\n                    \"status\": {\r\n                        \"id\": 10,\r\n                        \"desc\": \"Quote\"\r\n                    }\r\n                },\r\n                {\r\n                    \"insuranceAmountLevel\": 3,\r\n                    \"productLineType\": 3,\r\n                    \"commissionForColl\": 0.00,\r\n                    \"excessAmount\": 100.00,\r\n                    \"coverAdjustmentTypeIBOs\": [\r\n                        {\r\n                            \"defaultAdjustmentPercent\": 5.0000000000,\r\n                            \"applyAtRenewal\": false,\r\n                            \"updateVersion\": 1,\r\n                            \"productDiscountType\": {\r\n                                \"id\": 1000003,\r\n                                \"desc\": \"1000003\"\r\n                            },\r\n                            \"discountAmount\": 0,\r\n                            \"id\": 62883,\r\n                            \"adjustmentPercent\": 5.0000000000\r\n                        }\r\n                    ],\r\n                    \"productLineOptionType\": {\r\n                        \"id\": 1000001,\r\n                        \"desc\": \"Core Professional Indemnity\"\r\n                    },\r\n                    \"coverOptions\": [\r\n                        {\r\n                            \"optionNumber\": 20,\r\n                            \"description\": \"Core Professional Indemnity\",\r\n                            \"id\": 1000001\r\n                        }\r\n                    ],\r\n                    \"included\": false,\r\n                    \"insuranceAmount\": 100000.00,\r\n                    \"productLineGroup\": 1000001,\r\n                    \"coverOptionName\": \"Core Professional Indemnity\",\r\n                    \"excessLevel\": 5,\r\n                    \"parentCoverExternalNumber\": \"Professional Indemnity\",\r\n                    \"status\": {\r\n                        \"id\": 10,\r\n                        \"desc\": \"Quote\"\r\n                    }\r\n                },\r\n                {\r\n                    \"insuranceAmountLevel\": 1,\r\n                    \"productLineType\": 3,\r\n                    \"excessAmount\": 0.00,\r\n                    \"coverAdjustmentTypeIBOs\": [\r\n                        {\r\n                            \"defaultAdjustmentPercent\": 5.0000000000,\r\n                            \"applyAtRenewal\": false,\r\n                            \"updateVersion\": 1,\r\n                            \"productDiscountType\": {\r\n                                \"id\": 1000003,\r\n                                \"desc\": \"1000003\"\r\n                            },\r\n                            \"discountAmount\": 0,\r\n                            \"id\": 62884,\r\n                            \"adjustmentPercent\": 5.0000000000\r\n                        }\r\n                    ],\r\n                    \"productLineOptionType\": {\r\n                        \"id\": 1000002,\r\n                        \"desc\": \"Core Professional Indemnity Additional Perils\"\r\n                    },\r\n                    \"coverOptions\": [\r\n                        {\r\n                            \"updateVersion\": 274,\r\n                            \"optionNumber\": 30,\r\n                            \"description\": \"Core Professional Indemnity Additional Perils\",\r\n                            \"id\": 1000002\r\n                        }\r\n                    ],\r\n                    \"included\": false,\r\n                    \"insuranceAmount\": 100000.00,\r\n                    \"cost\": 0.00,\r\n                    \"productLineGroup\": 1000002,\r\n                    \"coverOptionName\": \"Core Professional Indemnity Additional Perils\",\r\n                    \"parentCoverExternalNumber\": \"Professional Indemnity\",\r\n                    \"status\": {\r\n                        \"id\": 10,\r\n                        \"desc\": \"Quote\"\r\n                    }\r\n                }\r\n            ]\r\n        }\r\n    ],\r\n    \"collectionMethodVO\": {\r\n        \"id\": 1,\r\n        \"desc\": \"Direct Transfer\"\r\n    },\r\n    \"umbPropositionVrs\": {\r\n        \"id\": 1000045,\r\n        \"desc\": \"A.MANG.PF.1903\"\r\n    },\r\n    \"currency\": {\r\n        \"id\": 1,\r\n        \"desc\": \"Euro\"\r\n    },\r\n    \"policyHolderExternalNumber\": \"{{externalID}}\",\r\n    \"collectionMethod\": {\r\n        \"id\": 1,\r\n        \"desc\": \"Direct Transfer\"\r\n    },\r\n    \"product\": {\r\n        \"id\": 1000000,\r\n        \"desc\": \"PSC\"\r\n    },\r\n    \"isThreeYearsPolicy\": false,\r\n    \"methodOfPlacementVO\": {\r\n        \"id\": 1000006,\r\n        \"desc\": \"Pre Defined - Hiscox API\"\r\n    },\r\n    \"wordingVersionVO\": {\r\n        \"id\": 1000001,\r\n        \"desc\": \"Allgemeine Bedingungen 01/19\"\r\n    }\r\n}",
							"options": {
								"raw": {
									"language": "json"
								}
							}
						},
						"url": {
							"raw": "{{baseUrl}}/api/proposal",
							"host": [
								"{{baseUrl}}"
							],
							"path": [
								"api",
								"proposal"
							]
						}
					},
					"response": []
				}
			]
		}
	]
}