{
	"info": {
		"_postman_id": "1f6e72fb-ff73-4eb8-a505-4a2d3fc248ce",
		"name": "search",
		"schema": "https://schema.getpostman.com/json/collection/v2.1.0/collection.json"
	},
	"item": [
		{
			"name": "api",
			"item": [
				{
					"name": "Search",
					"item": [
						{
							"name": "Search Contact where Contact relate to Broker",
							"request": {
								"method": "POST",
								"header": [
									{
										"key": "username",
										"value": "Administrator",
										"type": "text"
									},
									{
										"key": "password",
										"value": "1111",
										"type": "text"
									}
								],
								"body": {
									"mode": "raw",
									"raw": "[\r\n    {\r\n       \"contactSubAgentId\": \"22305\",\r\n       \"finderKey\" : 1\r\n    }\r\n]",
									"options": {
										"raw": {
											"language": "json"
										}
									}
								},
								"url": {
									"raw": "{{baseUrl}}/api/search",
									"host": [
										"{{baseUrl}}"
									],
									"path": [
										"api",
										"search"
									]
								}
							},
							"response": []
						},
						{
							"name": "Search Contact where Policies relate to Broker",
							"request": {
								"method": "POST",
								"header": [
									{
										"key": "username",
										"value": "Administrator",
										"type": "text"
									},
									{
										"key": "password",
										"value": "1111",
										"type": "text"
									}
								],
								"body": {
									"mode": "raw",
									"raw": "[\r\n    {\r\n       \"policySubAgentId\": \"22305\",\r\n       \"finderKey\" : 1\r\n    }\r\n]",
									"options": {
										"raw": {
											"language": "json"
										}
									}
								},
								"url": {
									"raw": "{{baseUrl}}/api/search",
									"host": [
										"{{baseUrl}}"
									],
									"path": [
										"api",
										"search"
									]
								}
							},
							"response": []
						},
						{
							"name": "Search Contact where Contact relates to Broker + Filter by Product",
							"request": {
								"method": "POST",
								"header": [
									{
										"key": "username",
										"value": "Administrator",
										"type": "text"
									},
									{
										"key": "password",
										"value": "1111",
										"type": "text"
									}
								],
								"body": {
									"mode": "raw",
									"raw": "[\r\n    {\r\n       \"contactSubAgentId\": \"22305\",\r\n       \"finderKey\" : 1,\r\n       \"product\": 1000000\r\n    }\r\n]",
									"options": {
										"raw": {
											"language": "json"
										}
									}
								},
								"url": {
									"raw": "{{baseUrl}}/api/search",
									"host": [
										"{{baseUrl}}"
									],
									"path": [
										"api",
										"search"
									]
								}
							},
							"response": []
						},
						{
							"name": "Search Policies where Policies relate to Broker",
							"request": {
								"method": "POST",
								"header": [
									{
										"key": "username",
										"value": "Administrator",
										"type": "text"
									},
									{
										"key": "password",
										"value": "1111",
										"type": "text"
									}
								],
								"body": {
									"mode": "raw",
									"raw": "[\r\n    {\r\n       \"policySubAgentId\": \"22305\",\r\n        \"finderKey\": 2,\r\n       \"includeInactive\": false\r\n\r\n    }\r\n]",
									"options": {
										"raw": {
											"language": "json"
										}
									}
								},
								"url": {
									"raw": "{{baseUrl}}/api/search",
									"host": [
										"{{baseUrl}}"
									],
									"path": [
										"api",
										"search"
									]
								}
							},
							"response": []
						},
						{
							"name": "Search Policies where Quote relate to Broker",
							"request": {
								"method": "POST",
								"header": [
									{
										"key": "username",
										"value": "Administrator",
										"type": "text"
									},
									{
										"key": "password",
										"value": "1111",
										"type": "text"
									}
								],
								"body": {
									"mode": "raw",
									"raw": "[\r\n    {\r\n       \"policySubAgentId\": \"22305\",\r\n        \"finderKey\": 3,\r\n       \"includeInactive\": false\r\n\r\n    }\r\n]",
									"options": {
										"raw": {
											"language": "json"
										}
									}
								},
								"url": {
									"raw": "{{baseUrl}}/api/search",
									"host": [
										"{{baseUrl}}"
									],
									"path": [
										"api",
										"search"
									]
								}
							},
							"response": []
						},
						{
							"name": "Search Policies where Contact relates to Broker",
							"request": {
								"method": "POST",
								"header": [
									{
										"key": "username",
										"value": "Administrator",
										"type": "text"
									},
									{
										"key": "password",
										"value": "1111",
										"type": "text"
									}
								],
								"body": {
									"mode": "raw",
									"raw": "[\r\n    {\r\n       \"policySubAgentId\": \"22305\",\r\n        \"finderKey\": 2\r\n\r\n    }\r\n]",
									"options": {
										"raw": {
											"language": "json"
										}
									}
								},
								"url": {
									"raw": "{{baseUrl}}/api/search",
									"host": [
										"{{baseUrl}}"
									],
									"path": [
										"api",
										"search"
									]
								}
							},
							"response": []
						},
						{
							"name": "Search Proposals where Policies relate to Broker",
							"request": {
								"method": "POST",
								"header": [
									{
										"key": "username",
										"value": "Administrator",
										"type": "text"
									},
									{
										"key": "password",
										"value": "1111",
										"type": "text"
									}
								],
								"body": {
									"mode": "raw",
									"raw": "[\r\n    {\r\n       \"policySubAgentId\": \"22305\",\r\n        \"finderKey\": 3\r\n\r\n    }\r\n]",
									"options": {
										"raw": {
											"language": "json"
										}
									}
								},
								"url": {
									"raw": "{{baseUrl}}/api/search?startIndex=6&count=5&sortBy=id",
									"host": [
										"{{baseUrl}}"
									],
									"path": [
										"api",
										"search"
									],
									"query": [
										{
											"key": "startIndex",
											"value": "6"
										},
										{
											"key": "count",
											"value": "5"
										},
										{
											"key": "sortBy",
											"value": "id"
										}
									]
								}
							},
							"response": []
						},
						{
							"name": "Search Proposals of a contact",
							"request": {
								"method": "POST",
								"header": [
									{
										"key": "username",
										"value": "Administrator",
										"type": "text"
									},
									{
										"key": "password",
										"value": "1111",
										"type": "text"
									}
								],
								"body": {
									"mode": "raw",
									"raw": "[\r\n    {\r\n       \"contactId\": \"55353\",\r\n        \"finderKey\": 3\r\n    }\r\n]",
									"options": {
										"raw": {
											"language": "json"
										}
									}
								},
								"url": {
									"raw": "{{baseUrl}}/api/search?startIndex=6&count=5&sortBy=id",
									"host": [
										"{{baseUrl}}"
									],
									"path": [
										"api",
										"search"
									],
									"query": [
										{
											"key": "startIndex",
											"value": "6"
										},
										{
											"key": "count",
											"value": "5"
										},
										{
											"key": "sortBy",
											"value": "id"
										}
									]
								}
							},
							"response": []
						},
						{
							"name": "Search Policy of a contact",
							"request": {
								"method": "POST",
								"header": [
									{
										"key": "username",
										"value": "Administrator",
										"type": "text"
									},
									{
										"key": "password",
										"value": "1111",
										"type": "text"
									}
								],
								"body": {
									"mode": "raw",
									"raw": "[\r\n    {\r\n       \"policySubAgentId\": \"22305\",\r\n       \"contactId\": 55359,\r\n       \"finderKey\": 2\r\n    }\r\n]",
									"options": {
										"raw": {
											"language": "json"
										}
									}
								},
								"url": {
									"raw": "{{baseUrl}}/api/search?startIndex=6&count=5&sortBy=id",
									"host": [
										"{{baseUrl}}"
									],
									"path": [
										"api",
										"search"
									],
									"query": [
										{
											"key": "startIndex",
											"value": "6"
										},
										{
											"key": "count",
											"value": "5"
										},
										{
											"key": "sortBy",
											"value": "id"
										}
									]
								}
							},
							"response": []
						},
						{
							"name": "Search Proposals with Policy status where Policies relate to Broker",
							"request": {
								"method": "POST",
								"header": [
									{
										"key": "username",
										"value": "Administrator",
										"type": "text"
									},
									{
										"key": "password",
										"value": "1111",
										"type": "text"
									}
								],
								"body": {
									"mode": "raw",
									"raw": "[\r\n    {\r\n       \"policySubAgentId\": \"22305\",\r\n        \"finderKey\": 3,\r\n        \"policyStatus\": 80\r\n\r\n    }\r\n]",
									"options": {
										"raw": {
											"language": "json"
										}
									}
								},
								"url": {
									"raw": "{{baseUrl}}/api/search?startIndex=6&count=5&sortBy=id",
									"host": [
										"{{baseUrl}}"
									],
									"path": [
										"api",
										"search"
									],
									"query": [
										{
											"key": "startIndex",
											"value": "6"
										},
										{
											"key": "count",
											"value": "5"
										},
										{
											"key": "sortBy",
											"value": "id"
										}
									]
								}
							},
							"response": []
						},
						{
							"name": "Search Claims where Policy relates to Broker",
							"request": {
								"method": "POST",
								"header": [
									{
										"key": "username",
										"value": "Administrator",
										"type": "text"
									},
									{
										"key": "password",
										"value": "1111",
										"type": "text"
									}
								],
								"body": {
									"mode": "raw",
									"raw": "[\r\n    {\r\n       \"policySubAgentId\": \"22305\",\r\n        \"finderKey\": 4\r\n    }\r\n]",
									"options": {
										"raw": {
											"language": "json"
										}
									}
								},
								"url": {
									"raw": "{{baseUrl}}/api/search?startIndex=1&count=10&sortBy=policyNr&sortOrder=asc",
									"host": [
										"{{baseUrl}}"
									],
									"path": [
										"api",
										"search"
									],
									"query": [
										{
											"key": "startIndex",
											"value": "1"
										},
										{
											"key": "count",
											"value": "10"
										},
										{
											"key": "sortBy",
											"value": "policyNr"
										},
										{
											"key": "sortOrder",
											"value": "asc"
										}
									]
								}
							},
							"response": []
						},
						{
							"name": "Search Claims where Contact relates to Broker",
							"request": {
								"method": "POST",
								"header": [
									{
										"key": "username",
										"value": "Administrator",
										"type": "text"
									},
									{
										"key": "password",
										"value": "1111",
										"type": "text"
									}
								],
								"body": {
									"mode": "raw",
									"raw": "[\r\n    {\r\n       \"contactSubAgentId\": \"22305\",\r\n        \"finderKey\": 4,\r\n       \"includeInactive\": false\r\n    }\r\n]",
									"options": {
										"raw": {
											"language": "json"
										}
									}
								},
								"url": {
									"raw": "{{baseUrl}}/api/search",
									"host": [
										"{{baseUrl}}"
									],
									"path": [
										"api",
										"search"
									]
								}
							},
							"response": []
						},
						{
							"name": "Search Claims where both Policy and Contact relate to Broker",
							"request": {
								"method": "POST",
								"header": [
									{
										"key": "username",
										"value": "Administrator",
										"type": "text"
									},
									{
										"key": "password",
										"value": "1111",
										"type": "text"
									}
								],
								"body": {
									"mode": "raw",
									"raw": "[\r\n    {\r\n       \"policySubAgentId\": \"22305\",\r\n       \"contactSubAgentId\": \"22305\",\r\n        \"finderKey\": 4,\r\n       \"includeInactive\": false\r\n    }\r\n]",
									"options": {
										"raw": {
											"language": "json"
										}
									}
								},
								"url": {
									"raw": "{{baseUrl}}/api/search",
									"host": [
										"{{baseUrl}}"
									],
									"path": [
										"api",
										"search"
									]
								}
							},
							"response": []
						},
						{
							"name": "Search Master Boker (search by identifier)",
							"request": {
								"method": "POST",
								"header": [
									{
										"key": "username",
										"value": "Administrator",
										"type": "text"
									},
									{
										"key": "password",
										"value": "1111",
										"type": "text"
									}
								],
								"body": {
									"mode": "raw",
									"raw": "[\r\n    {\r\n      \"finderKey\" : 1,\r\n      \"contactRole\" : 1000036,\r\n      \"identityNumber\" : \"M7654321\"\r\n    }\r\n]",
									"options": {
										"raw": {
											"language": "json"
										}
									}
								},
								"url": {
									"raw": "{{baseUrl}}/api/search",
									"host": [
										"{{baseUrl}}"
									],
									"path": [
										"api",
										"search"
									]
								}
							},
							"response": []
						},
						{
							"name": "Search for claims of contact",
							"request": {
								"method": "POST",
								"header": [
									{
										"key": "username",
										"value": "Administrator",
										"type": "text"
									},
									{
										"key": "password",
										"value": "1111",
										"type": "text"
									}
								],
								"body": {
									"mode": "raw",
									"raw": "[\r\n    {\r\n      \"finderKey\" : 4,\r\n      \"contactId\" : \"55353\"\r\n    }\r\n]",
									"options": {
										"raw": {
											"language": "json"
										}
									}
								},
								"url": {
									"raw": "{{baseUrl}}/api/search",
									"host": [
										"{{baseUrl}}"
									],
									"path": [
										"api",
										"search"
									]
								}
							},
							"response": []
						},
						{
							"name": "Search for quote - it returns all versions",
							"request": {
								"method": "POST",
								"header": [
									{
										"key": "username",
										"value": "Administrator",
										"type": "text"
									},
									{
										"key": "password",
										"value": "1111",
										"type": "text"
									}
								],
								"body": {
									"mode": "raw",
									"raw": "[\r\n    {\r\n      \"finderKey\" : 3,\r\n      \"policyNumber\" : \"QT-PSC000047455/00\"\r\n    }\r\n]",
									"options": {
										"raw": {
											"language": "json"
										}
									}
								},
								"url": {
									"raw": "{{baseUrl}}/api/search",
									"host": [
										"{{baseUrl}}"
									],
									"path": [
										"api",
										"search"
									]
								}
							},
							"response": []
						},
						{
							"name": "Search for contact by name",
							"request": {
								"method": "POST",
								"header": [
									{
										"key": "username",
										"value": "Administrator",
										"type": "text"
									},
									{
										"key": "password",
										"value": "1111",
										"type": "text"
									}
								],
								"body": {
									"mode": "raw",
									"raw": "[\r\n    {\r\n      \"finderKey\" : 1,\r\n      \"name\" : \"Microsoft\"\r\n    }\r\n]",
									"options": {
										"raw": {
											"language": "json"
										}
									}
								},
								"url": {
									"raw": "{{baseUrl}}/api/search",
									"host": [
										"{{baseUrl}}"
									],
									"path": [
										"api",
										"search"
									]
								}
							},
							"response": []
						},
						{
							"name": "Search for contact by email",
							"request": {
								"method": "POST",
								"header": [
									{
										"key": "username",
										"value": "Administrator",
										"type": "text"
									},
									{
										"key": "password",
										"value": "1111",
										"type": "text"
									}
								],
								"body": {
									"mode": "raw",
									"raw": "[\r\n    {\r\n      \"finderKey\" : 1,\r\n      \"email\" : \"microsoft@microsoft.de\"\r\n    }\r\n]",
									"options": {
										"raw": {
											"language": "json"
										}
									}
								},
								"url": {
									"raw": "{{baseUrl}}/api/search",
									"host": [
										"{{baseUrl}}"
									],
									"path": [
										"api",
										"search"
									]
								}
							},
							"response": []
						},
						{
							"name": "Search for contact by iban number",
							"request": {
								"method": "POST",
								"header": [
									{
										"key": "username",
										"value": "Administrator",
										"type": "text"
									},
									{
										"key": "password",
										"value": "1111",
										"type": "text"
									}
								],
								"body": {
									"mode": "raw",
									"raw": "[\r\n    {\r\n      \"finderKey\" : 1,\r\n      \"ibanNumber\" : \"PT50000794984120249267339\"\r\n    }\r\n]",
									"options": {
										"raw": {
											"language": "json"
										}
									}
								},
								"url": {
									"raw": "{{baseUrl}}/api/search",
									"host": [
										"{{baseUrl}}"
									],
									"path": [
										"api",
										"search"
									]
								}
							},
							"response": []
						},
						{
							"name": "Search for contact by address",
							"request": {
								"method": "POST",
								"header": [
									{
										"key": "username",
										"value": "Administrator",
										"type": "text"
									},
									{
										"key": "password",
										"value": "1111",
										"type": "text"
									}
								],
								"body": {
									"mode": "raw",
									"raw": "[\r\n    {\r\n      \"finderKey\" : 1,\r\n      \"zipCode\" : \"80807\",\r\n      \"cityName\" : \"MÜNCHEN\",\r\n      \"houseNr\" : \"5\"\r\n    }\r\n]",
									"options": {
										"raw": {
											"language": "json"
										}
									}
								},
								"url": {
									"raw": "{{baseUrl}}/api/search",
									"host": [
										"{{baseUrl}}"
									],
									"path": [
										"api",
										"search"
									]
								}
							},
							"response": []
						},
						{
							"name": "Search for contact by phone number",
							"request": {
								"method": "POST",
								"header": [
									{
										"key": "username",
										"value": "Administrator",
										"type": "text"
									},
									{
										"key": "password",
										"value": "1111",
										"type": "text"
									}
								],
								"body": {
									"mode": "raw",
									"raw": "[\r\n    {\r\n      \"finderKey\" : 1,\r\n      \"telphoneNumber\" : \"08931760\"\r\n    }\r\n]",
									"options": {
										"raw": {
											"language": "json"
										}
									}
								},
								"url": {
									"raw": "{{baseUrl}}/api/search",
									"host": [
										"{{baseUrl}}"
									],
									"path": [
										"api",
										"search"
									]
								}
							},
							"response": []
						}
					]
				}
			]
		}
	]
}