{
	"info": {
		"_postman_id": "56de61fa-dd90-45e4-b045-2a878a8becf4",
		"name": "claim",
		"schema": "https://schema.getpostman.com/json/collection/v2.1.0/collection.json"
	},
	"item": [
		{
			"name": "api",
			"item": [
				{
					"name": "v1",
					"item": [
						{
							"name": "Get claim by external number - 1",
							"event": [
								{
									"listen": "test",
									"script": {
										"exec": [
											"pm.test('Get claim by external number', ()=>{\r",
											"    pm.expect(pm.response.code).to.eqls(200);\r",
											"    pm.variables.set('claim', pm.response.json());\r",
											"    pm.variables.set(\"messageCorrelationId\", pm.response.headers.get(\"messageCorrelationId\"));\r",
											"});"
										],
										"type": "text/javascript"
									}
								},
								{
									"listen": "prerequest",
									"script": {
										"exec": [
											""
										],
										"type": "text/javascript"
									}
								}
							],
							"request": {
								"auth": {
									"type": "noauth"
								},
								"method": "GET",
								"header": [
									{
										"key": "username",
										"value": "{{username}}",
										"type": "default"
									},
									{
										"key": "password",
										"value": "{{password}}",
										"type": "default"
									}
								],
								"url": {
									"raw": "{{baseUrl}}/api/loss-event/:extNumber",
									"host": [
										"{{baseUrl}}"
									],
									"path": [
										"api",
										"loss-event",
										":extNumber"
									],
									"variable": [
										{
											"key": "extNumber",
											"value": "100311",
											"description": "(Required) Loss-Event number, aka (external) identifier"
										}
									]
								},
								"description": "<h1>Get Loss Event</h1><h2>Description</h2>Returns the whole data set of an existing claim, using the claim number (external identifier) received with the request. It creates a response containing the <i>ClaimIBO</i> object.<h2>Required Authorization</h2>Not available.<h2>Internal Flow</h2><ol><li>Validates the external claim number is an IDITSuite number (C_CLAIM.CLAIM.NUMBER).</li><li>Retrieves the claim from the database.</li><li>Returns the <i>ClaimIBO</i> object.</li></ol>"
							},
							"response": [
								{
									"name": "successfully retrieved loss event data",
									"originalRequest": {
										"method": "GET",
										"header": [
											{
												"description": "Added as a part of security scheme: apikey",
												"key": "userName",
												"value": "<API Key>"
											}
										],
										"url": {
											"raw": "{{baseUrl}}/api/loss-event/:extNumber",
											"host": [
												"{{baseUrl}}"
											],
											"path": [
												"api",
												"loss-event",
												":extNumber"
											],
											"variable": [
												{
													"key": "host",
													"value": "{{host}}",
													"description": "set your host machine here"
												},
												{
													"key": "port",
													"value": "{{port}}"
												},
												{
													"key": "extNumber",
													"value": "esse cillum",
													"description": "(Required) Loss-Event number, aka (external) identifier"
												}
											]
										}
									},
									"status": "OK",
									"code": 200,
									"_postman_previewlanguage": "json",
									"header": [
										{
											"key": "Content-Type",
											"value": "application/json"
										}
									],
									"cookie": [],
									"body": "{\n \"businessActivity\": {\n  \"value\": \"<Error: Too many levels of nesting to fake this schema>\"\n },\n \"isPoliceIntervention\": false,\n \"malusStateReasonVO\": {\n  \"value\": \"<Error: Too many levels of nesting to fake this schema>\"\n },\n \"settlementAgreementEU\": 32815542.878933176,\n \"updateVersion\": 23767100,\n \"claimPoliceReportIvo\": {\n  \"policeContactPersonName\": {\n   \"value\": \"<Error: Too many levels of nesting to fake this schema>\"\n  },\n  \"updateVersion\": {\n   \"value\": \"<Error: Too many levels of nesting to fake this schema>\"\n  },\n  \"policeStationName\": {\n   \"value\": \"<Error: Too many levels of nesting to fake this schema>\"\n  },\n  \"policeReferenceNumber\": {\n   \"value\": \"<Error: Too many levels of nesting to fake this schema>\"\n  },\n  \"policeStationAddress\": {\n   \"value\": \"<Error: Too many levels of nesting to fake this schema>\"\n  },\n  \"policeNote\": {\n   \"value\": \"<Error: Too many levels of nesting to fake this schema>\"\n  },\n  \"policeContactPersonId\": {\n   \"value\": \"<Error: Too many levels of nesting to fake this schema>\"\n  },\n  \"prosecutorReference\": {\n   \"value\": \"<Error: Too many levels of nesting to fake this schema>\"\n  },\n  \"reportDate\": {\n   \"value\": \"<Error: Too many levels of nesting to fake this schema>\"\n  },\n  \"stationPhonePrefix\": {\n   \"value\": \"<Error: Too many levels of nesting to fake this schema>\"\n  },\n  \"id\": {\n   \"value\": \"<Error: Too many levels of nesting to fake this schema>\"\n  },\n  \"stationPhoneNumber\": {\n   \"value\": \"<Error: Too many levels of nesting to fake this schema>\"\n  },\n  \"policeAuthorityTypeVO\": {\n   \"value\": \"<Error: Too many levels of nesting to fake this schema>\"\n  }\n },\n \"insertDate\": \"1951-03-06T06:50:58.468Z\",\n \"totalIncurredAmount\": 94263368.51093557,\n \"channelType\": {\n  \"value\": \"<Error: Too many levels of nesting to fake this schema>\"\n },\n \"claimExtNumber\": \"reprehenderit velit dolore nisi\",\n \"claimEventTime\": \"cupidatat cillum\",\n \"claimPolicyIvo\": [\n  {\n   \"value\": \"<Error: Too many levels of nesting to fake this schema>\"\n  },\n  {\n   \"value\": \"<Error: Too many levels of nesting to fake this schema>\"\n  }\n ],\n \"id\": -78459437,\n \"claimHandlerId\": 10725838,\n \"claimCauseOfLossVO\": {\n  \"value\": \"<Error: Too many levels of nesting to fake this schema>\"\n },\n \"claimStatusHistories\": [\n  {\n   \"value\": \"<Error: Too many levels of nesting to fake this schema>\"\n  },\n  {\n   \"value\": \"<Error: Too many levels of nesting to fake this schema>\"\n  }\n ],\n \"fraudScore\": 86455006,\n \"signedNotificationDate\": \"1954-08-08T11:24:17.083Z\",\n \"claimContact\": [\n  {\n   \"claimantIVO\": {\n    \"value\": \"<Error: Too many levels of nesting to fake this schema>\"\n   },\n   \"injuredIVO\": {\n    \"value\": \"<Error: Too many levels of nesting to fake this schema>\"\n   },\n   \"updateVersion\": {\n    \"value\": \"<Error: Too many levels of nesting to fake this schema>\"\n   },\n   \"contactExtNumber\": {\n    \"value\": \"<Error: Too many levels of nesting to fake this schema>\"\n   },\n   \"relatedClaimantExternalNumber\": {\n    \"value\": \"<Error: Too many levels of nesting to fake this schema>\"\n   },\n   \"claimContactRoleVO\": {\n    \"value\": \"<Error: Too many levels of nesting to fake this schema>\"\n   },\n   \"witnessIVO\": {\n    \"value\": \"<Error: Too many levels of nesting to fake this schema>\"\n   },\n   \"id\": {\n    \"value\": \"<Error: Too many levels of nesting to fake this schema>\"\n   },\n   \"informantIVO\": {\n    \"value\": \"<Error: Too many levels of nesting to fake this schema>\"\n   },\n   \"contactReferenceNr\": {\n    \"value\": \"<Error: Too many levels of nesting to fake this schema>\"\n   }\n  },\n  {\n   \"claimantIVO\": {\n    \"value\": \"<Error: Too many levels of nesting to fake this schema>\"\n   },\n   \"injuredIVO\": {\n    \"value\": \"<Error: Too many levels of nesting to fake this schema>\"\n   },\n   \"updateVersion\": {\n    \"value\": \"<Error: Too many levels of nesting to fake this schema>\"\n   },\n   \"contactExtNumber\": {\n    \"value\": \"<Error: Too many levels of nesting to fake this schema>\"\n   },\n   \"relatedClaimantExternalNumber\": {\n    \"value\": \"<Error: Too many levels of nesting to fake this schema>\"\n   },\n   \"claimContactRoleVO\": {\n    \"value\": \"<Error: Too many levels of nesting to fake this schema>\"\n   },\n   \"witnessIVO\": {\n    \"value\": \"<Error: Too many levels of nesting to fake this schema>\"\n   },\n   \"id\": {\n    \"value\": \"<Error: Too many levels of nesting to fake this schema>\"\n   },\n   \"informantIVO\": {\n    \"value\": \"<Error: Too many levels of nesting to fake this schema>\"\n   },\n   \"contactReferenceNr\": {\n    \"value\": \"<Error: Too many levels of nesting to fake this schema>\"\n   }\n  }\n ],\n \"waiveMalusVO\": {\n  \"value\": \"<Error: Too many levels of nesting to fake this schema>\"\n },\n \"incurredAmountIncrease\": -46526164.29385641,\n \"emlEU\": 79610547.58369678,\n \"claimIrregularities\": [\n  {\n   \"updateVersion\": {\n    \"value\": \"<Error: Too many levels of nesting to fake this schema>\"\n   },\n   \"irregularityVO\": {\n    \"value\": \"<Error: Too many levels of nesting to fake this schema>\"\n   },\n   \"insertDate\": {\n    \"value\": \"<Error: Too many levels of nesting to fake this schema>\"\n   },\n   \"activeIrregularity\": {\n    \"value\": \"<Error: Too many levels of nesting to fake this schema>\"\n   },\n   \"id\": {\n    \"value\": \"<Error: Too many levels of nesting to fake this schema>\"\n   },\n   \"remarks\": {\n    \"value\": \"<Error: Too many levels of nesting to fake this schema>\"\n   }\n  },\n  {\n   \"updateVersion\": {\n    \"value\": \"<Error: Too many levels of nesting to fake this schema>\"\n   },\n   \"irregularityVO\": {\n    \"value\": \"<Error: Too many levels of nesting to fake this schema>\"\n   },\n   \"insertDate\": {\n    \"value\": \"<Error: Too many levels of nesting to fake this schema>\"\n   },\n   \"activeIrregularity\": {\n    \"value\": \"<Error: Too many levels of nesting to fake this schema>\"\n   },\n   \"id\": {\n    \"value\": \"<Error: Too many levels of nesting to fake this schema>\"\n   },\n   \"remarks\": {\n    \"value\": \"<Error: Too many levels of nesting to fake this schema>\"\n   }\n  }\n ],\n \"claimEventDate\": \"2002-06-26T11:53:55.329Z\",\n \"isClaimConfirmedByPh\": true,\n \"claimRagVO\": {\n  \"value\": \"<Error: Too many levels of nesting to fake this schema>\"\n },\n \"riskDescription\": {\n  \"value\": \"<Error: Too many levels of nesting to fake this schema>\"\n },\n \"externalPolicyNumber\": \"officia dolor\",\n \"recoverableVO\": {\n  \"value\": \"<Error: Too many levels of nesting to fake this schema>\"\n },\n \"claimCurrencyVO\": {\n  \"value\": \"<Error: Too many levels of nesting to fake this schema>\"\n },\n \"claimNote\": [\n  {\n   \"value\": \"<Error: Too many levels of nesting to fake this schema>\"\n  },\n  {\n   \"value\": \"<Error: Too many levels of nesting to fake this schema>\"\n  }\n ],\n \"catastropheExternalNumber\": \"et nisi\",\n \"incurredAmountDecrease\": -4711216.519586831,\n \"relatedClaimContactIVOs\": [\n  {\n   \"claimantIVO\": {\n    \"value\": \"<Error: Too many levels of nesting to fake this schema>\"\n   },\n   \"injuredIVO\": {\n    \"value\": \"<Error: Too many levels of nesting to fake this schema>\"\n   },\n   \"updateVersion\": {\n    \"value\": \"<Error: Too many levels of nesting to fake this schema>\"\n   },\n   \"contactExtNumber\": {\n    \"value\": \"<Error: Too many levels of nesting to fake this schema>\"\n   },\n   \"relatedClaimantExternalNumber\": {\n    \"value\": \"<Error: Too many levels of nesting to fake this schema>\"\n   },\n   \"claimContactRoleVO\": {\n    \"value\": \"<Error: Too many levels of nesting to fake this schema>\"\n   },\n   \"witnessIVO\": {\n    \"value\": \"<Error: Too many levels of nesting to fake this schema>\"\n   },\n   \"id\": {\n    \"value\": \"<Error: Too many levels of nesting to fake this schema>\"\n   },\n   \"informantIVO\": {\n    \"value\": \"<Error: Too many levels of nesting to fake this schema>\"\n   },\n   \"contactReferenceNr\": {\n    \"value\": \"<Error: Too many levels of nesting to fake this schema>\"\n   }\n  },\n  {\n   \"claimantIVO\": {\n    \"value\": \"<Error: Too many levels of nesting to fake this schema>\"\n   },\n   \"injuredIVO\": {\n    \"value\": \"<Error: Too many levels of nesting to fake this schema>\"\n   },\n   \"updateVersion\": {\n    \"value\": \"<Error: Too many levels of nesting to fake this schema>\"\n   },\n   \"contactExtNumber\": {\n    \"value\": \"<Error: Too many levels of nesting to fake this schema>\"\n   },\n   \"relatedClaimantExternalNumber\": {\n    \"value\": \"<Error: Too many levels of nesting to fake this schema>\"\n   },\n   \"claimContactRoleVO\": {\n    \"value\": \"<Error: Too many levels of nesting to fake this schema>\"\n   },\n   \"witnessIVO\": {\n    \"value\": \"<Error: Too many levels of nesting to fake this schema>\"\n   },\n   \"id\": {\n    \"value\": \"<Error: Too many levels of nesting to fake this schema>\"\n   },\n   \"informantIVO\": {\n    \"value\": \"<Error: Too many levels of nesting to fake this schema>\"\n   },\n   \"contactReferenceNr\": {\n    \"value\": \"<Error: Too many levels of nesting to fake this schema>\"\n   }\n  }\n ],\n \"amountClaimedEU\": -36376513.36558512,\n \"processingStatusVO\": {\n  \"value\": \"<Error: Too many levels of nesting to fake this schema>\"\n },\n \"claimHandlerName\": \"officia pariatur in\",\n \"claimElementStateVO\": {\n  \"value\": \"<Error: Too many levels of nesting to fake this schema>\"\n },\n \"isRiNegateRequired\": true,\n \"claimStatusTypeVO\": {\n  \"value\": \"<Error: Too many levels of nesting to fake this schema>\"\n },\n \"isPendingReevaluation\": true,\n \"claimEventDescription\": \"exercitation\",\n \"automaticPaymentQuestionnaireIVO\": {\n  \"updateVersion\": {\n   \"value\": \"<Error: Too many levels of nesting to fake this schema>\"\n  },\n  \"questionnaireVO\": {\n   \"value\": \"<Error: Too many levels of nesting to fake this schema>\"\n  },\n  \"id\": {\n   \"value\": \"<Error: Too many levels of nesting to fake this schema>\"\n  },\n  \"assessmentQuestionnaireLineIVOs\": {\n   \"value\": \"<Error: Too many levels of nesting to fake this schema>\"\n  }\n },\n \"generalScore\": 69423692,\n \"claimElementIrregularities\": [\n  {\n   \"updateVersion\": {\n    \"value\": \"<Error: Too many levels of nesting to fake this schema>\"\n   },\n   \"irregularityVO\": {\n    \"value\": \"<Error: Too many levels of nesting to fake this schema>\"\n   },\n   \"insertDate\": {\n    \"value\": \"<Error: Too many levels of nesting to fake this schema>\"\n   },\n   \"activeIrregularity\": {\n    \"value\": \"<Error: Too many levels of nesting to fake this schema>\"\n   },\n   \"id\": {\n    \"value\": \"<Error: Too many levels of nesting to fake this schema>\"\n   },\n   \"remarks\": {\n    \"value\": \"<Error: Too many levels of nesting to fake this schema>\"\n   }\n  },\n  {\n   \"updateVersion\": {\n    \"value\": \"<Error: Too many levels of nesting to fake this schema>\"\n   },\n   \"irregularityVO\": {\n    \"value\": \"<Error: Too many levels of nesting to fake this schema>\"\n   },\n   \"insertDate\": {\n    \"value\": \"<Error: Too many levels of nesting to fake this schema>\"\n   },\n   \"activeIrregularity\": {\n    \"value\": \"<Error: Too many levels of nesting to fake this schema>\"\n   },\n   \"id\": {\n    \"value\": \"<Error: Too many levels of nesting to fake this schema>\"\n   },\n   \"remarks\": {\n    \"value\": \"<Error: Too many levels of nesting to fake this schema>\"\n   }\n  }\n ],\n \"handlerCompanyTreeId\": -22003950,\n \"groupExternalNumber\": \"ut ad\",\n \"claimStatusReasonTypeVO\": {\n  \"value\": \"<Error: Too many levels of nesting to fake this schema>\"\n },\n \"percentOfEmlOccurringEU\": 26405835,\n \"waiveMalusRemarks\": \"Excepteur ipsum ut ad\",\n \"isPessimisticLocked\": true,\n \"amountClaimed\": 94934503.68986264,\n \"accidentSenariosVO\": {\n  \"value\": \"<Error: Too many levels of nesting to fake this schema>\"\n },\n \"claimEventLocationIvo\": {\n  \"addressIVO\": {\n   \"countryVO\": {\n    \"value\": \"<Error: Too many levels of nesting to fake this schema>\"\n   },\n   \"zipCode\": {\n    \"value\": \"<Error: Too many levels of nesting to fake this schema>\"\n   },\n   \"cityNameSynonym\": {\n    \"value\": \"<Error: Too many levels of nesting to fake this schema>\"\n   },\n   \"updateVersion\": {\n    \"value\": \"<Error: Too many levels of nesting to fake this schema>\"\n   },\n   \"apartmentNr\": {\n    \"value\": \"<Error: Too many levels of nesting to fake this schema>\"\n   },\n   \"cityVO\": {\n    \"value\": \"<Error: Too many levels of nesting to fake this schema>\"\n   },\n   \"blockNr\": {\n    \"value\": \"<Error: Too many levels of nesting to fake this schema>\"\n   },\n   \"boxNumber\": {\n    \"value\": \"<Error: Too many levels of nesting to fake this schema>\"\n   },\n   \"addressId\": {\n    \"value\": \"<Error: Too many levels of nesting to fake this schema>\"\n   },\n   \"shortenedStreetName\": {\n    \"value\": \"<Error: Too many levels of nesting to fake this schema>\"\n   },\n   \"zone\": {\n    \"value\": \"<Error: Too many levels of nesting to fake this schema>\"\n   },\n   \"addressLine1\": {\n    \"value\": \"<Error: Too many levels of nesting to fake this schema>\"\n   },\n   \"id\": {\n    \"value\": \"<Error: Too many levels of nesting to fake this schema>\"\n   },\n   \"houseNr\": {\n    \"value\": \"<Error: Too many levels of nesting to fake this schema>\"\n   },\n   \"addressLine4\": {\n    \"value\": \"<Error: Too many levels of nesting to fake this schema>\"\n   },\n   \"addressKey\": {\n    \"value\": \"<Error: Too many levels of nesting to fake this schema>\"\n   },\n   \"danishSquareMeterHundred\": {\n    \"value\": \"<Error: Too many levels of nesting to fake this schema>\"\n   },\n   \"coName\": {\n    \"value\": \"<Error: Too many levels of nesting to fake this schema>\"\n   },\n   \"entranceNr\": {\n    \"value\": \"<Error: Too many levels of nesting to fake this schema>\"\n   },\n   \"companyPostNumber\": {\n    \"value\": \"<Error: Too many levels of nesting to fake this schema>\"\n   },\n   \"shortenedCity\": {\n    \"value\": \"<Error: Too many levels of nesting to fake this schema>\"\n   },\n   \"secondAddressLine\": {\n    \"value\": \"<Error: Too many levels of nesting to fake this schema>\"\n   },\n   \"municipalityCode\": {\n    \"value\": \"<Error: Too many levels of nesting to fake this schema>\"\n   },\n   \"provinceVO\": {\n    \"value\": \"<Error: Too many levels of nesting to fake this schema>\"\n   },\n   \"buildingName\": {\n    \"value\": \"<Error: Too many levels of nesting to fake this schema>\"\n   },\n   \"provinceName\": {\n    \"value\": \"<Error: Too many levels of nesting to fake this schema>\"\n   },\n   \"streetVO\": {\n    \"value\": \"<Error: Too many levels of nesting to fake this schema>\"\n   },\n   \"pob\": {\n    \"value\": \"<Error: Too many levels of nesting to fake this schema>\"\n   },\n   \"policeDistrictCode\": {\n    \"value\": \"<Error: Too many levels of nesting to fake this schema>\"\n   },\n   \"cadastralNumber\": {\n    \"value\": \"<Error: Too many levels of nesting to fake this schema>\"\n   },\n   \"regionName\": {\n    \"value\": \"<Error: Too many levels of nesting to fake this schema>\"\n   },\n   \"processingStatusVO\": {\n    \"value\": \"<Error: Too many levels of nesting to fake this schema>\"\n   },\n   \"countyVO\": {\n    \"value\": \"<Error: Too many levels of nesting to fake this schema>\"\n   },\n   \"houseName\": {\n    \"value\": \"<Error: Too many levels of nesting to fake this schema>\"\n   },\n   \"streetName\": {\n    \"value\": \"<Error: Too many levels of nesting to fake this schema>\"\n   },\n   \"cityName\": {\n    \"value\": \"<Error: Too many levels of nesting to fake this schema>\"\n   },\n   \"formattedAddress\": {\n    \"value\": \"<Error: Too many levels of nesting to fake this schema>\"\n   },\n   \"streetTypeVO\": {\n    \"value\": \"<Error: Too many levels of nesting to fake this schema>\"\n   },\n   \"policeDistrictName\": {\n    \"value\": \"<Error: Too many levels of nesting to fake this schema>\"\n   },\n   \"jurisdictionName\": {\n    \"value\": \"<Error: Too many levels of nesting to fake this schema>\"\n   },\n   \"floor\": {\n    \"value\": \"<Error: Too many levels of nesting to fake this schema>\"\n   },\n   \"addressStatus\": {\n    \"value\": \"<Error: Too many levels of nesting to fake this schema>\"\n   },\n   \"danishSquareKiloMeterOne\": {\n    \"value\": \"<Error: Too many levels of nesting to fake this schema>\"\n   },\n   \"countyName\": {\n    \"value\": \"<Error: Too many levels of nesting to fake this schema>\"\n   },\n   \"cantonVO\": {\n    \"value\": \"<Error: Too many levels of nesting to fake this schema>\"\n   },\n   \"streetNameCode\": {\n    \"value\": \"<Error: Too many levels of nesting to fake this schema>\"\n   },\n   \"districtName\": {\n    \"value\": \"<Error: Too many levels of nesting to fake this schema>\"\n   },\n   \"stampTerritoryVO\": {\n    \"value\": \"<Error: Too many levels of nesting to fake this schema>\"\n   },\n   \"danishSquareKiloMeterTen\": {\n    \"value\": \"<Error: Too many levels of nesting to fake this schema>\"\n   },\n   \"interfaceSearchString\": {\n    \"value\": \"<Error: Too many levels of nesting to fake this schema>\"\n   },\n   \"regionVO\": {\n    \"value\": \"<Error: Too many levels of nesting to fake this schema>\"\n   },\n   \"jurisdictionCode\": {\n    \"value\": \"<Error: Too many levels of nesting to fake this schema>\"\n   },\n   \"districtVO\": {\n    \"value\": \"<Error: Too many levels of nesting to fake this schema>\"\n   },\n   \"remarks\": {\n    \"value\": \"<Error: Too many levels of nesting to fake this schema>\"\n   }\n  },\n  \"geoLongitude\": 53932556.71059582,\n  \"countryVO\": {\n   \"value\": \"<Error: Too many levels of nesting to fake this schema>\"\n  },\n  \"geoLatitude\": -72979114.34010418,\n  \"updateVersion\": 9867693,\n  \"claimLocationTypeVO\": {\n   \"value\": \"<Error: Too many levels of nesting to fake this schema>\"\n  },\n  \"claimEventLocationNameVO\": {\n   \"value\": \"<Error: Too many levels of nesting to fake this schema>\"\n  },\n  \"remark\": \"do ea\",\n  \"id\": 62695743\n },\n \"claimCloseDate\": \"1984-12-04T00:51:11.362Z\"\n}"
								},
								{
									"name": "401 on Unauthorized access ; 422 on Business/Validation errors ; 500 on Technical/Unexpected errors",
									"originalRequest": {
										"method": "GET",
										"header": [
											{
												"description": "Added as a part of security scheme: apikey",
												"key": "userName",
												"value": "<API Key>"
											}
										],
										"url": {
											"raw": "{{baseUrl}}/api/loss-event/:extNumber",
											"host": [
												"{{baseUrl}}"
											],
											"path": [
												"api",
												"loss-event",
												":extNumber"
											],
											"variable": [
												{
													"key": "host",
													"value": "{{host}}",
													"description": "set your host machine here"
												},
												{
													"key": "port",
													"value": "{{port}}"
												},
												{
													"key": "extNumber",
													"value": "esse cillum",
													"description": "(Required) Loss-Event number, aka (external) identifier"
												}
											]
										}
									},
									"status": "Internal Server Error",
									"code": 500,
									"_postman_previewlanguage": "json",
									"header": [
										{
											"key": "Content-Type",
											"value": "application/json"
										}
									],
									"cookie": [],
									"body": "{\n \"instance\": \"velit minim ex\",\n \"updateVersion\": -62631030,\n \"invalid-params\": [\n  {\n   \"value\": \"<Error: Too many levels of nesting to fake this schema>\"\n  },\n  {\n   \"value\": \"<Error: Too many levels of nesting to fake this schema>\"\n  }\n ],\n \"scimType\": \"eiusmod nostrud cupidatat labore\",\n \"id\": -56840810,\n \"detail\": \"minim in sit\",\n \"type\": \"voluptate cons\",\n \"title\": \"eiusmod do amet\",\n \"status\": \"v\"\n}"
								}
							]
						},
						{
							"name": "Set claim as fraud suspicion",
							"event": [
								{
									"listen": "prerequest",
									"script": {
										"exec": [
											"pm.request.headers.add('messageCorrelationId', pm.variables.get('messageCorrelationId'));\r",
											"const claim = pm.variables.get('claim');\r",
											"claim.fraudScore = 99;\r",
											"pm.variables.set('bodyRequest', JSON.stringify(claim));"
										],
										"type": "text/javascript"
									}
								}
							],
							"request": {
								"method": "PUT",
								"header": [],
								"body": {
									"mode": "raw",
									"raw": "{{bodyRequest}}",
									"options": {
										"raw": {
											"language": "json"
										}
									}
								},
								"url": {
									"raw": "{{baseUrl}}/api/loss-event/:extNumber",
									"host": [
										"{{baseUrl}}"
									],
									"path": [
										"api",
										"loss-event",
										":extNumber"
									],
									"variable": [
										{
											"key": "extNumber",
											"value": "100311"
										}
									]
								}
							},
							"response": []
						},
						{
							"name": "Get claim by external number - 2",
							"event": [
								{
									"listen": "test",
									"script": {
										"exec": [
											"pm.test('Get claim by external number', ()=>{\r",
											"    pm.expect(pm.response.code).to.eqls(200);\r",
											"    pm.variables.set('claim', pm.response.json());\r",
											"    pm.variables.set(\"messageCorrelationId\", pm.response.headers.get(\"messageCorrelationId\"));\r",
											"});"
										],
										"type": "text/javascript"
									}
								},
								{
									"listen": "prerequest",
									"script": {
										"exec": [
											""
										],
										"type": "text/javascript"
									}
								}
							],
							"request": {
								"auth": {
									"type": "noauth"
								},
								"method": "GET",
								"header": [
									{
										"key": "username",
										"value": "{{username}}",
										"type": "default"
									},
									{
										"key": "password",
										"value": "{{password}}",
										"type": "default"
									}
								],
								"url": {
									"raw": "{{baseUrl}}/api/loss-event/:extNumber",
									"host": [
										"{{baseUrl}}"
									],
									"path": [
										"api",
										"loss-event",
										":extNumber"
									],
									"variable": [
										{
											"key": "extNumber",
											"value": "100311",
											"description": "(Required) Loss-Event number, aka (external) identifier"
										}
									]
								},
								"description": "<h1>Get Loss Event</h1><h2>Description</h2>Returns the whole data set of an existing claim, using the claim number (external identifier) received with the request. It creates a response containing the <i>ClaimIBO</i> object.<h2>Required Authorization</h2>Not available.<h2>Internal Flow</h2><ol><li>Validates the external claim number is an IDITSuite number (C_CLAIM.CLAIM.NUMBER).</li><li>Retrieves the claim from the database.</li><li>Returns the <i>ClaimIBO</i> object.</li></ol>"
							},
							"response": [
								{
									"name": "successfully retrieved loss event data",
									"originalRequest": {
										"method": "GET",
										"header": [
											{
												"description": "Added as a part of security scheme: apikey",
												"key": "userName",
												"value": "<API Key>"
											}
										],
										"url": {
											"raw": "{{baseUrl}}/api/loss-event/:extNumber",
											"host": [
												"{{baseUrl}}"
											],
											"path": [
												"api",
												"loss-event",
												":extNumber"
											],
											"variable": [
												{
													"key": "host",
													"value": "{{host}}",
													"description": "set your host machine here"
												},
												{
													"key": "port",
													"value": "{{port}}"
												},
												{
													"key": "extNumber",
													"value": "esse cillum",
													"description": "(Required) Loss-Event number, aka (external) identifier"
												}
											]
										}
									},
									"status": "OK",
									"code": 200,
									"_postman_previewlanguage": "json",
									"header": [
										{
											"key": "Content-Type",
											"value": "application/json"
										}
									],
									"cookie": [],
									"body": "{\n \"businessActivity\": {\n  \"value\": \"<Error: Too many levels of nesting to fake this schema>\"\n },\n \"isPoliceIntervention\": false,\n \"malusStateReasonVO\": {\n  \"value\": \"<Error: Too many levels of nesting to fake this schema>\"\n },\n \"settlementAgreementEU\": 32815542.878933176,\n \"updateVersion\": 23767100,\n \"claimPoliceReportIvo\": {\n  \"policeContactPersonName\": {\n   \"value\": \"<Error: Too many levels of nesting to fake this schema>\"\n  },\n  \"updateVersion\": {\n   \"value\": \"<Error: Too many levels of nesting to fake this schema>\"\n  },\n  \"policeStationName\": {\n   \"value\": \"<Error: Too many levels of nesting to fake this schema>\"\n  },\n  \"policeReferenceNumber\": {\n   \"value\": \"<Error: Too many levels of nesting to fake this schema>\"\n  },\n  \"policeStationAddress\": {\n   \"value\": \"<Error: Too many levels of nesting to fake this schema>\"\n  },\n  \"policeNote\": {\n   \"value\": \"<Error: Too many levels of nesting to fake this schema>\"\n  },\n  \"policeContactPersonId\": {\n   \"value\": \"<Error: Too many levels of nesting to fake this schema>\"\n  },\n  \"prosecutorReference\": {\n   \"value\": \"<Error: Too many levels of nesting to fake this schema>\"\n  },\n  \"reportDate\": {\n   \"value\": \"<Error: Too many levels of nesting to fake this schema>\"\n  },\n  \"stationPhonePrefix\": {\n   \"value\": \"<Error: Too many levels of nesting to fake this schema>\"\n  },\n  \"id\": {\n   \"value\": \"<Error: Too many levels of nesting to fake this schema>\"\n  },\n  \"stationPhoneNumber\": {\n   \"value\": \"<Error: Too many levels of nesting to fake this schema>\"\n  },\n  \"policeAuthorityTypeVO\": {\n   \"value\": \"<Error: Too many levels of nesting to fake this schema>\"\n  }\n },\n \"insertDate\": \"1951-03-06T06:50:58.468Z\",\n \"totalIncurredAmount\": 94263368.51093557,\n \"channelType\": {\n  \"value\": \"<Error: Too many levels of nesting to fake this schema>\"\n },\n \"claimExtNumber\": \"reprehenderit velit dolore nisi\",\n \"claimEventTime\": \"cupidatat cillum\",\n \"claimPolicyIvo\": [\n  {\n   \"value\": \"<Error: Too many levels of nesting to fake this schema>\"\n  },\n  {\n   \"value\": \"<Error: Too many levels of nesting to fake this schema>\"\n  }\n ],\n \"id\": -78459437,\n \"claimHandlerId\": 10725838,\n \"claimCauseOfLossVO\": {\n  \"value\": \"<Error: Too many levels of nesting to fake this schema>\"\n },\n \"claimStatusHistories\": [\n  {\n   \"value\": \"<Error: Too many levels of nesting to fake this schema>\"\n  },\n  {\n   \"value\": \"<Error: Too many levels of nesting to fake this schema>\"\n  }\n ],\n \"fraudScore\": 86455006,\n \"signedNotificationDate\": \"1954-08-08T11:24:17.083Z\",\n \"claimContact\": [\n  {\n   \"claimantIVO\": {\n    \"value\": \"<Error: Too many levels of nesting to fake this schema>\"\n   },\n   \"injuredIVO\": {\n    \"value\": \"<Error: Too many levels of nesting to fake this schema>\"\n   },\n   \"updateVersion\": {\n    \"value\": \"<Error: Too many levels of nesting to fake this schema>\"\n   },\n   \"contactExtNumber\": {\n    \"value\": \"<Error: Too many levels of nesting to fake this schema>\"\n   },\n   \"relatedClaimantExternalNumber\": {\n    \"value\": \"<Error: Too many levels of nesting to fake this schema>\"\n   },\n   \"claimContactRoleVO\": {\n    \"value\": \"<Error: Too many levels of nesting to fake this schema>\"\n   },\n   \"witnessIVO\": {\n    \"value\": \"<Error: Too many levels of nesting to fake this schema>\"\n   },\n   \"id\": {\n    \"value\": \"<Error: Too many levels of nesting to fake this schema>\"\n   },\n   \"informantIVO\": {\n    \"value\": \"<Error: Too many levels of nesting to fake this schema>\"\n   },\n   \"contactReferenceNr\": {\n    \"value\": \"<Error: Too many levels of nesting to fake this schema>\"\n   }\n  },\n  {\n   \"claimantIVO\": {\n    \"value\": \"<Error: Too many levels of nesting to fake this schema>\"\n   },\n   \"injuredIVO\": {\n    \"value\": \"<Error: Too many levels of nesting to fake this schema>\"\n   },\n   \"updateVersion\": {\n    \"value\": \"<Error: Too many levels of nesting to fake this schema>\"\n   },\n   \"contactExtNumber\": {\n    \"value\": \"<Error: Too many levels of nesting to fake this schema>\"\n   },\n   \"relatedClaimantExternalNumber\": {\n    \"value\": \"<Error: Too many levels of nesting to fake this schema>\"\n   },\n   \"claimContactRoleVO\": {\n    \"value\": \"<Error: Too many levels of nesting to fake this schema>\"\n   },\n   \"witnessIVO\": {\n    \"value\": \"<Error: Too many levels of nesting to fake this schema>\"\n   },\n   \"id\": {\n    \"value\": \"<Error: Too many levels of nesting to fake this schema>\"\n   },\n   \"informantIVO\": {\n    \"value\": \"<Error: Too many levels of nesting to fake this schema>\"\n   },\n   \"contactReferenceNr\": {\n    \"value\": \"<Error: Too many levels of nesting to fake this schema>\"\n   }\n  }\n ],\n \"waiveMalusVO\": {\n  \"value\": \"<Error: Too many levels of nesting to fake this schema>\"\n },\n \"incurredAmountIncrease\": -46526164.29385641,\n \"emlEU\": 79610547.58369678,\n \"claimIrregularities\": [\n  {\n   \"updateVersion\": {\n    \"value\": \"<Error: Too many levels of nesting to fake this schema>\"\n   },\n   \"irregularityVO\": {\n    \"value\": \"<Error: Too many levels of nesting to fake this schema>\"\n   },\n   \"insertDate\": {\n    \"value\": \"<Error: Too many levels of nesting to fake this schema>\"\n   },\n   \"activeIrregularity\": {\n    \"value\": \"<Error: Too many levels of nesting to fake this schema>\"\n   },\n   \"id\": {\n    \"value\": \"<Error: Too many levels of nesting to fake this schema>\"\n   },\n   \"remarks\": {\n    \"value\": \"<Error: Too many levels of nesting to fake this schema>\"\n   }\n  },\n  {\n   \"updateVersion\": {\n    \"value\": \"<Error: Too many levels of nesting to fake this schema>\"\n   },\n   \"irregularityVO\": {\n    \"value\": \"<Error: Too many levels of nesting to fake this schema>\"\n   },\n   \"insertDate\": {\n    \"value\": \"<Error: Too many levels of nesting to fake this schema>\"\n   },\n   \"activeIrregularity\": {\n    \"value\": \"<Error: Too many levels of nesting to fake this schema>\"\n   },\n   \"id\": {\n    \"value\": \"<Error: Too many levels of nesting to fake this schema>\"\n   },\n   \"remarks\": {\n    \"value\": \"<Error: Too many levels of nesting to fake this schema>\"\n   }\n  }\n ],\n \"claimEventDate\": \"2002-06-26T11:53:55.329Z\",\n \"isClaimConfirmedByPh\": true,\n \"claimRagVO\": {\n  \"value\": \"<Error: Too many levels of nesting to fake this schema>\"\n },\n \"riskDescription\": {\n  \"value\": \"<Error: Too many levels of nesting to fake this schema>\"\n },\n \"externalPolicyNumber\": \"officia dolor\",\n \"recoverableVO\": {\n  \"value\": \"<Error: Too many levels of nesting to fake this schema>\"\n },\n \"claimCurrencyVO\": {\n  \"value\": \"<Error: Too many levels of nesting to fake this schema>\"\n },\n \"claimNote\": [\n  {\n   \"value\": \"<Error: Too many levels of nesting to fake this schema>\"\n  },\n  {\n   \"value\": \"<Error: Too many levels of nesting to fake this schema>\"\n  }\n ],\n \"catastropheExternalNumber\": \"et nisi\",\n \"incurredAmountDecrease\": -4711216.519586831,\n \"relatedClaimContactIVOs\": [\n  {\n   \"claimantIVO\": {\n    \"value\": \"<Error: Too many levels of nesting to fake this schema>\"\n   },\n   \"injuredIVO\": {\n    \"value\": \"<Error: Too many levels of nesting to fake this schema>\"\n   },\n   \"updateVersion\": {\n    \"value\": \"<Error: Too many levels of nesting to fake this schema>\"\n   },\n   \"contactExtNumber\": {\n    \"value\": \"<Error: Too many levels of nesting to fake this schema>\"\n   },\n   \"relatedClaimantExternalNumber\": {\n    \"value\": \"<Error: Too many levels of nesting to fake this schema>\"\n   },\n   \"claimContactRoleVO\": {\n    \"value\": \"<Error: Too many levels of nesting to fake this schema>\"\n   },\n   \"witnessIVO\": {\n    \"value\": \"<Error: Too many levels of nesting to fake this schema>\"\n   },\n   \"id\": {\n    \"value\": \"<Error: Too many levels of nesting to fake this schema>\"\n   },\n   \"informantIVO\": {\n    \"value\": \"<Error: Too many levels of nesting to fake this schema>\"\n   },\n   \"contactReferenceNr\": {\n    \"value\": \"<Error: Too many levels of nesting to fake this schema>\"\n   }\n  },\n  {\n   \"claimantIVO\": {\n    \"value\": \"<Error: Too many levels of nesting to fake this schema>\"\n   },\n   \"injuredIVO\": {\n    \"value\": \"<Error: Too many levels of nesting to fake this schema>\"\n   },\n   \"updateVersion\": {\n    \"value\": \"<Error: Too many levels of nesting to fake this schema>\"\n   },\n   \"contactExtNumber\": {\n    \"value\": \"<Error: Too many levels of nesting to fake this schema>\"\n   },\n   \"relatedClaimantExternalNumber\": {\n    \"value\": \"<Error: Too many levels of nesting to fake this schema>\"\n   },\n   \"claimContactRoleVO\": {\n    \"value\": \"<Error: Too many levels of nesting to fake this schema>\"\n   },\n   \"witnessIVO\": {\n    \"value\": \"<Error: Too many levels of nesting to fake this schema>\"\n   },\n   \"id\": {\n    \"value\": \"<Error: Too many levels of nesting to fake this schema>\"\n   },\n   \"informantIVO\": {\n    \"value\": \"<Error: Too many levels of nesting to fake this schema>\"\n   },\n   \"contactReferenceNr\": {\n    \"value\": \"<Error: Too many levels of nesting to fake this schema>\"\n   }\n  }\n ],\n \"amountClaimedEU\": -36376513.36558512,\n \"processingStatusVO\": {\n  \"value\": \"<Error: Too many levels of nesting to fake this schema>\"\n },\n \"claimHandlerName\": \"officia pariatur in\",\n \"claimElementStateVO\": {\n  \"value\": \"<Error: Too many levels of nesting to fake this schema>\"\n },\n \"isRiNegateRequired\": true,\n \"claimStatusTypeVO\": {\n  \"value\": \"<Error: Too many levels of nesting to fake this schema>\"\n },\n \"isPendingReevaluation\": true,\n \"claimEventDescription\": \"exercitation\",\n \"automaticPaymentQuestionnaireIVO\": {\n  \"updateVersion\": {\n   \"value\": \"<Error: Too many levels of nesting to fake this schema>\"\n  },\n  \"questionnaireVO\": {\n   \"value\": \"<Error: Too many levels of nesting to fake this schema>\"\n  },\n  \"id\": {\n   \"value\": \"<Error: Too many levels of nesting to fake this schema>\"\n  },\n  \"assessmentQuestionnaireLineIVOs\": {\n   \"value\": \"<Error: Too many levels of nesting to fake this schema>\"\n  }\n },\n \"generalScore\": 69423692,\n \"claimElementIrregularities\": [\n  {\n   \"updateVersion\": {\n    \"value\": \"<Error: Too many levels of nesting to fake this schema>\"\n   },\n   \"irregularityVO\": {\n    \"value\": \"<Error: Too many levels of nesting to fake this schema>\"\n   },\n   \"insertDate\": {\n    \"value\": \"<Error: Too many levels of nesting to fake this schema>\"\n   },\n   \"activeIrregularity\": {\n    \"value\": \"<Error: Too many levels of nesting to fake this schema>\"\n   },\n   \"id\": {\n    \"value\": \"<Error: Too many levels of nesting to fake this schema>\"\n   },\n   \"remarks\": {\n    \"value\": \"<Error: Too many levels of nesting to fake this schema>\"\n   }\n  },\n  {\n   \"updateVersion\": {\n    \"value\": \"<Error: Too many levels of nesting to fake this schema>\"\n   },\n   \"irregularityVO\": {\n    \"value\": \"<Error: Too many levels of nesting to fake this schema>\"\n   },\n   \"insertDate\": {\n    \"value\": \"<Error: Too many levels of nesting to fake this schema>\"\n   },\n   \"activeIrregularity\": {\n    \"value\": \"<Error: Too many levels of nesting to fake this schema>\"\n   },\n   \"id\": {\n    \"value\": \"<Error: Too many levels of nesting to fake this schema>\"\n   },\n   \"remarks\": {\n    \"value\": \"<Error: Too many levels of nesting to fake this schema>\"\n   }\n  }\n ],\n \"handlerCompanyTreeId\": -22003950,\n \"groupExternalNumber\": \"ut ad\",\n \"claimStatusReasonTypeVO\": {\n  \"value\": \"<Error: Too many levels of nesting to fake this schema>\"\n },\n \"percentOfEmlOccurringEU\": 26405835,\n \"waiveMalusRemarks\": \"Excepteur ipsum ut ad\",\n \"isPessimisticLocked\": true,\n \"amountClaimed\": 94934503.68986264,\n \"accidentSenariosVO\": {\n  \"value\": \"<Error: Too many levels of nesting to fake this schema>\"\n },\n \"claimEventLocationIvo\": {\n  \"addressIVO\": {\n   \"countryVO\": {\n    \"value\": \"<Error: Too many levels of nesting to fake this schema>\"\n   },\n   \"zipCode\": {\n    \"value\": \"<Error: Too many levels of nesting to fake this schema>\"\n   },\n   \"cityNameSynonym\": {\n    \"value\": \"<Error: Too many levels of nesting to fake this schema>\"\n   },\n   \"updateVersion\": {\n    \"value\": \"<Error: Too many levels of nesting to fake this schema>\"\n   },\n   \"apartmentNr\": {\n    \"value\": \"<Error: Too many levels of nesting to fake this schema>\"\n   },\n   \"cityVO\": {\n    \"value\": \"<Error: Too many levels of nesting to fake this schema>\"\n   },\n   \"blockNr\": {\n    \"value\": \"<Error: Too many levels of nesting to fake this schema>\"\n   },\n   \"boxNumber\": {\n    \"value\": \"<Error: Too many levels of nesting to fake this schema>\"\n   },\n   \"addressId\": {\n    \"value\": \"<Error: Too many levels of nesting to fake this schema>\"\n   },\n   \"shortenedStreetName\": {\n    \"value\": \"<Error: Too many levels of nesting to fake this schema>\"\n   },\n   \"zone\": {\n    \"value\": \"<Error: Too many levels of nesting to fake this schema>\"\n   },\n   \"addressLine1\": {\n    \"value\": \"<Error: Too many levels of nesting to fake this schema>\"\n   },\n   \"id\": {\n    \"value\": \"<Error: Too many levels of nesting to fake this schema>\"\n   },\n   \"houseNr\": {\n    \"value\": \"<Error: Too many levels of nesting to fake this schema>\"\n   },\n   \"addressLine4\": {\n    \"value\": \"<Error: Too many levels of nesting to fake this schema>\"\n   },\n   \"addressKey\": {\n    \"value\": \"<Error: Too many levels of nesting to fake this schema>\"\n   },\n   \"danishSquareMeterHundred\": {\n    \"value\": \"<Error: Too many levels of nesting to fake this schema>\"\n   },\n   \"coName\": {\n    \"value\": \"<Error: Too many levels of nesting to fake this schema>\"\n   },\n   \"entranceNr\": {\n    \"value\": \"<Error: Too many levels of nesting to fake this schema>\"\n   },\n   \"companyPostNumber\": {\n    \"value\": \"<Error: Too many levels of nesting to fake this schema>\"\n   },\n   \"shortenedCity\": {\n    \"value\": \"<Error: Too many levels of nesting to fake this schema>\"\n   },\n   \"secondAddressLine\": {\n    \"value\": \"<Error: Too many levels of nesting to fake this schema>\"\n   },\n   \"municipalityCode\": {\n    \"value\": \"<Error: Too many levels of nesting to fake this schema>\"\n   },\n   \"provinceVO\": {\n    \"value\": \"<Error: Too many levels of nesting to fake this schema>\"\n   },\n   \"buildingName\": {\n    \"value\": \"<Error: Too many levels of nesting to fake this schema>\"\n   },\n   \"provinceName\": {\n    \"value\": \"<Error: Too many levels of nesting to fake this schema>\"\n   },\n   \"streetVO\": {\n    \"value\": \"<Error: Too many levels of nesting to fake this schema>\"\n   },\n   \"pob\": {\n    \"value\": \"<Error: Too many levels of nesting to fake this schema>\"\n   },\n   \"policeDistrictCode\": {\n    \"value\": \"<Error: Too many levels of nesting to fake this schema>\"\n   },\n   \"cadastralNumber\": {\n    \"value\": \"<Error: Too many levels of nesting to fake this schema>\"\n   },\n   \"regionName\": {\n    \"value\": \"<Error: Too many levels of nesting to fake this schema>\"\n   },\n   \"processingStatusVO\": {\n    \"value\": \"<Error: Too many levels of nesting to fake this schema>\"\n   },\n   \"countyVO\": {\n    \"value\": \"<Error: Too many levels of nesting to fake this schema>\"\n   },\n   \"houseName\": {\n    \"value\": \"<Error: Too many levels of nesting to fake this schema>\"\n   },\n   \"streetName\": {\n    \"value\": \"<Error: Too many levels of nesting to fake this schema>\"\n   },\n   \"cityName\": {\n    \"value\": \"<Error: Too many levels of nesting to fake this schema>\"\n   },\n   \"formattedAddress\": {\n    \"value\": \"<Error: Too many levels of nesting to fake this schema>\"\n   },\n   \"streetTypeVO\": {\n    \"value\": \"<Error: Too many levels of nesting to fake this schema>\"\n   },\n   \"policeDistrictName\": {\n    \"value\": \"<Error: Too many levels of nesting to fake this schema>\"\n   },\n   \"jurisdictionName\": {\n    \"value\": \"<Error: Too many levels of nesting to fake this schema>\"\n   },\n   \"floor\": {\n    \"value\": \"<Error: Too many levels of nesting to fake this schema>\"\n   },\n   \"addressStatus\": {\n    \"value\": \"<Error: Too many levels of nesting to fake this schema>\"\n   },\n   \"danishSquareKiloMeterOne\": {\n    \"value\": \"<Error: Too many levels of nesting to fake this schema>\"\n   },\n   \"countyName\": {\n    \"value\": \"<Error: Too many levels of nesting to fake this schema>\"\n   },\n   \"cantonVO\": {\n    \"value\": \"<Error: Too many levels of nesting to fake this schema>\"\n   },\n   \"streetNameCode\": {\n    \"value\": \"<Error: Too many levels of nesting to fake this schema>\"\n   },\n   \"districtName\": {\n    \"value\": \"<Error: Too many levels of nesting to fake this schema>\"\n   },\n   \"stampTerritoryVO\": {\n    \"value\": \"<Error: Too many levels of nesting to fake this schema>\"\n   },\n   \"danishSquareKiloMeterTen\": {\n    \"value\": \"<Error: Too many levels of nesting to fake this schema>\"\n   },\n   \"interfaceSearchString\": {\n    \"value\": \"<Error: Too many levels of nesting to fake this schema>\"\n   },\n   \"regionVO\": {\n    \"value\": \"<Error: Too many levels of nesting to fake this schema>\"\n   },\n   \"jurisdictionCode\": {\n    \"value\": \"<Error: Too many levels of nesting to fake this schema>\"\n   },\n   \"districtVO\": {\n    \"value\": \"<Error: Too many levels of nesting to fake this schema>\"\n   },\n   \"remarks\": {\n    \"value\": \"<Error: Too many levels of nesting to fake this schema>\"\n   }\n  },\n  \"geoLongitude\": 53932556.71059582,\n  \"countryVO\": {\n   \"value\": \"<Error: Too many levels of nesting to fake this schema>\"\n  },\n  \"geoLatitude\": -72979114.34010418,\n  \"updateVersion\": 9867693,\n  \"claimLocationTypeVO\": {\n   \"value\": \"<Error: Too many levels of nesting to fake this schema>\"\n  },\n  \"claimEventLocationNameVO\": {\n   \"value\": \"<Error: Too many levels of nesting to fake this schema>\"\n  },\n  \"remark\": \"do ea\",\n  \"id\": 62695743\n },\n \"claimCloseDate\": \"1984-12-04T00:51:11.362Z\"\n}"
								},
								{
									"name": "401 on Unauthorized access ; 422 on Business/Validation errors ; 500 on Technical/Unexpected errors",
									"originalRequest": {
										"method": "GET",
										"header": [
											{
												"description": "Added as a part of security scheme: apikey",
												"key": "userName",
												"value": "<API Key>"
											}
										],
										"url": {
											"raw": "{{baseUrl}}/api/loss-event/:extNumber",
											"host": [
												"{{baseUrl}}"
											],
											"path": [
												"api",
												"loss-event",
												":extNumber"
											],
											"variable": [
												{
													"key": "host",
													"value": "{{host}}",
													"description": "set your host machine here"
												},
												{
													"key": "port",
													"value": "{{port}}"
												},
												{
													"key": "extNumber",
													"value": "esse cillum",
													"description": "(Required) Loss-Event number, aka (external) identifier"
												}
											]
										}
									},
									"status": "Internal Server Error",
									"code": 500,
									"_postman_previewlanguage": "json",
									"header": [
										{
											"key": "Content-Type",
											"value": "application/json"
										}
									],
									"cookie": [],
									"body": "{\n \"instance\": \"velit minim ex\",\n \"updateVersion\": -62631030,\n \"invalid-params\": [\n  {\n   \"value\": \"<Error: Too many levels of nesting to fake this schema>\"\n  },\n  {\n   \"value\": \"<Error: Too many levels of nesting to fake this schema>\"\n  }\n ],\n \"scimType\": \"eiusmod nostrud cupidatat labore\",\n \"id\": -56840810,\n \"detail\": \"minim in sit\",\n \"type\": \"voluptate cons\",\n \"title\": \"eiusmod do amet\",\n \"status\": \"v\"\n}"
								}
							]
						},
						{
							"name": "Add note to add a claim",
							"event": [
								{
									"listen": "prerequest",
									"script": {
										"exec": [
											"pm.request.headers.add('messageCorrelationId', pm.variables.get('messageCorrelationId'));\r",
											"const claim = pm.variables.get('claim');\r",
											"claim.claimNote.push({ \"note\": pm.variables.replaceIn(\"{{$randomPhrase}}\") });\r",
											"pm.variables.set('bodyRequest', JSON.stringify(claim));"
										],
										"type": "text/javascript"
									}
								}
							],
							"request": {
								"method": "PUT",
								"header": [],
								"body": {
									"mode": "raw",
									"raw": "{{bodyRequest}}",
									"options": {
										"raw": {
											"language": "json"
										}
									}
								},
								"url": {
									"raw": "{{baseUrl}}/api/loss-event/:extNumber",
									"host": [
										"{{baseUrl}}"
									],
									"path": [
										"api",
										"loss-event",
										":extNumber"
									],
									"variable": [
										{
											"key": "extNumber",
											"value": "100311"
										}
									]
								}
							},
							"response": []
						}
					]
				},
				{
					"name": "v2",
					"item": [
						{
							"name": "Get claim by external number",
							"event": [
								{
									"listen": "test",
									"script": {
										"exec": [
											"pm.test('Get claim by external number', ()=>{\r",
											"    pm.expect(pm.response.code).to.eqls(200);\r",
											"    pm.variables.set('claim', pm.response.json());\r",
											"    pm.variables.set(\"messageCorrelationId\", pm.response.headers.get(\"messageCorrelationId\"));\r",
											"});"
										],
										"type": "text/javascript"
									}
								},
								{
									"listen": "prerequest",
									"script": {
										"exec": [
											""
										],
										"type": "text/javascript"
									}
								}
							],
							"request": {
								"auth": {
									"type": "noauth"
								},
								"method": "GET",
								"header": [
									{
										"key": "username",
										"value": "{{username}}",
										"type": "default"
									},
									{
										"key": "password",
										"value": "{{password}}",
										"type": "default"
									}
								],
								"url": {
									"raw": "{{baseUrl}}/api/v2/loss-event/:extNumber",
									"host": [
										"{{baseUrl}}"
									],
									"path": [
										"api",
										"v2",
										"loss-event",
										":extNumber"
									],
									"variable": [
										{
											"key": "extNumber",
											"value": "100311",
											"description": "(Required) Loss-Event number, aka (external) identifier"
										}
									]
								},
								"description": "<h1>Get Loss Event</h1><h2>Description</h2>Returns the whole data set of an existing claim, using the claim number (external identifier) received with the request. It creates a response containing the <i>ClaimIBO</i> object.<h2>Required Authorization</h2>Not available.<h2>Internal Flow</h2><ol><li>Validates the external claim number is an IDITSuite number (C_CLAIM.CLAIM.NUMBER).</li><li>Retrieves the claim from the database.</li><li>Returns the <i>ClaimIBO</i> object.</li></ol>"
							},
							"response": [
								{
									"name": "successfully retrieved loss event data",
									"originalRequest": {
										"method": "GET",
										"header": [
											{
												"description": "Added as a part of security scheme: apikey",
												"key": "userName",
												"value": "<API Key>"
											}
										],
										"url": {
											"raw": "{{baseUrl}}/api/loss-event/:extNumber",
											"host": [
												"{{baseUrl}}"
											],
											"path": [
												"api",
												"loss-event",
												":extNumber"
											],
											"variable": [
												{
													"key": "host",
													"value": "{{host}}",
													"description": "set your host machine here"
												},
												{
													"key": "port",
													"value": "{{port}}"
												},
												{
													"key": "extNumber",
													"value": "esse cillum",
													"description": "(Required) Loss-Event number, aka (external) identifier"
												}
											]
										}
									},
									"status": "OK",
									"code": 200,
									"_postman_previewlanguage": "json",
									"header": [
										{
											"key": "Content-Type",
											"value": "application/json"
										}
									],
									"cookie": [],
									"body": "{\n \"businessActivity\": {\n  \"value\": \"<Error: Too many levels of nesting to fake this schema>\"\n },\n \"isPoliceIntervention\": false,\n \"malusStateReasonVO\": {\n  \"value\": \"<Error: Too many levels of nesting to fake this schema>\"\n },\n \"settlementAgreementEU\": 32815542.878933176,\n \"updateVersion\": 23767100,\n \"claimPoliceReportIvo\": {\n  \"policeContactPersonName\": {\n   \"value\": \"<Error: Too many levels of nesting to fake this schema>\"\n  },\n  \"updateVersion\": {\n   \"value\": \"<Error: Too many levels of nesting to fake this schema>\"\n  },\n  \"policeStationName\": {\n   \"value\": \"<Error: Too many levels of nesting to fake this schema>\"\n  },\n  \"policeReferenceNumber\": {\n   \"value\": \"<Error: Too many levels of nesting to fake this schema>\"\n  },\n  \"policeStationAddress\": {\n   \"value\": \"<Error: Too many levels of nesting to fake this schema>\"\n  },\n  \"policeNote\": {\n   \"value\": \"<Error: Too many levels of nesting to fake this schema>\"\n  },\n  \"policeContactPersonId\": {\n   \"value\": \"<Error: Too many levels of nesting to fake this schema>\"\n  },\n  \"prosecutorReference\": {\n   \"value\": \"<Error: Too many levels of nesting to fake this schema>\"\n  },\n  \"reportDate\": {\n   \"value\": \"<Error: Too many levels of nesting to fake this schema>\"\n  },\n  \"stationPhonePrefix\": {\n   \"value\": \"<Error: Too many levels of nesting to fake this schema>\"\n  },\n  \"id\": {\n   \"value\": \"<Error: Too many levels of nesting to fake this schema>\"\n  },\n  \"stationPhoneNumber\": {\n   \"value\": \"<Error: Too many levels of nesting to fake this schema>\"\n  },\n  \"policeAuthorityTypeVO\": {\n   \"value\": \"<Error: Too many levels of nesting to fake this schema>\"\n  }\n },\n \"insertDate\": \"1951-03-06T06:50:58.468Z\",\n \"totalIncurredAmount\": 94263368.51093557,\n \"channelType\": {\n  \"value\": \"<Error: Too many levels of nesting to fake this schema>\"\n },\n \"claimExtNumber\": \"reprehenderit velit dolore nisi\",\n \"claimEventTime\": \"cupidatat cillum\",\n \"claimPolicyIvo\": [\n  {\n   \"value\": \"<Error: Too many levels of nesting to fake this schema>\"\n  },\n  {\n   \"value\": \"<Error: Too many levels of nesting to fake this schema>\"\n  }\n ],\n \"id\": -78459437,\n \"claimHandlerId\": 10725838,\n \"claimCauseOfLossVO\": {\n  \"value\": \"<Error: Too many levels of nesting to fake this schema>\"\n },\n \"claimStatusHistories\": [\n  {\n   \"value\": \"<Error: Too many levels of nesting to fake this schema>\"\n  },\n  {\n   \"value\": \"<Error: Too many levels of nesting to fake this schema>\"\n  }\n ],\n \"fraudScore\": 86455006,\n \"signedNotificationDate\": \"1954-08-08T11:24:17.083Z\",\n \"claimContact\": [\n  {\n   \"claimantIVO\": {\n    \"value\": \"<Error: Too many levels of nesting to fake this schema>\"\n   },\n   \"injuredIVO\": {\n    \"value\": \"<Error: Too many levels of nesting to fake this schema>\"\n   },\n   \"updateVersion\": {\n    \"value\": \"<Error: Too many levels of nesting to fake this schema>\"\n   },\n   \"contactExtNumber\": {\n    \"value\": \"<Error: Too many levels of nesting to fake this schema>\"\n   },\n   \"relatedClaimantExternalNumber\": {\n    \"value\": \"<Error: Too many levels of nesting to fake this schema>\"\n   },\n   \"claimContactRoleVO\": {\n    \"value\": \"<Error: Too many levels of nesting to fake this schema>\"\n   },\n   \"witnessIVO\": {\n    \"value\": \"<Error: Too many levels of nesting to fake this schema>\"\n   },\n   \"id\": {\n    \"value\": \"<Error: Too many levels of nesting to fake this schema>\"\n   },\n   \"informantIVO\": {\n    \"value\": \"<Error: Too many levels of nesting to fake this schema>\"\n   },\n   \"contactReferenceNr\": {\n    \"value\": \"<Error: Too many levels of nesting to fake this schema>\"\n   }\n  },\n  {\n   \"claimantIVO\": {\n    \"value\": \"<Error: Too many levels of nesting to fake this schema>\"\n   },\n   \"injuredIVO\": {\n    \"value\": \"<Error: Too many levels of nesting to fake this schema>\"\n   },\n   \"updateVersion\": {\n    \"value\": \"<Error: Too many levels of nesting to fake this schema>\"\n   },\n   \"contactExtNumber\": {\n    \"value\": \"<Error: Too many levels of nesting to fake this schema>\"\n   },\n   \"relatedClaimantExternalNumber\": {\n    \"value\": \"<Error: Too many levels of nesting to fake this schema>\"\n   },\n   \"claimContactRoleVO\": {\n    \"value\": \"<Error: Too many levels of nesting to fake this schema>\"\n   },\n   \"witnessIVO\": {\n    \"value\": \"<Error: Too many levels of nesting to fake this schema>\"\n   },\n   \"id\": {\n    \"value\": \"<Error: Too many levels of nesting to fake this schema>\"\n   },\n   \"informantIVO\": {\n    \"value\": \"<Error: Too many levels of nesting to fake this schema>\"\n   },\n   \"contactReferenceNr\": {\n    \"value\": \"<Error: Too many levels of nesting to fake this schema>\"\n   }\n  }\n ],\n \"waiveMalusVO\": {\n  \"value\": \"<Error: Too many levels of nesting to fake this schema>\"\n },\n \"incurredAmountIncrease\": -46526164.29385641,\n \"emlEU\": 79610547.58369678,\n \"claimIrregularities\": [\n  {\n   \"updateVersion\": {\n    \"value\": \"<Error: Too many levels of nesting to fake this schema>\"\n   },\n   \"irregularityVO\": {\n    \"value\": \"<Error: Too many levels of nesting to fake this schema>\"\n   },\n   \"insertDate\": {\n    \"value\": \"<Error: Too many levels of nesting to fake this schema>\"\n   },\n   \"activeIrregularity\": {\n    \"value\": \"<Error: Too many levels of nesting to fake this schema>\"\n   },\n   \"id\": {\n    \"value\": \"<Error: Too many levels of nesting to fake this schema>\"\n   },\n   \"remarks\": {\n    \"value\": \"<Error: Too many levels of nesting to fake this schema>\"\n   }\n  },\n  {\n   \"updateVersion\": {\n    \"value\": \"<Error: Too many levels of nesting to fake this schema>\"\n   },\n   \"irregularityVO\": {\n    \"value\": \"<Error: Too many levels of nesting to fake this schema>\"\n   },\n   \"insertDate\": {\n    \"value\": \"<Error: Too many levels of nesting to fake this schema>\"\n   },\n   \"activeIrregularity\": {\n    \"value\": \"<Error: Too many levels of nesting to fake this schema>\"\n   },\n   \"id\": {\n    \"value\": \"<Error: Too many levels of nesting to fake this schema>\"\n   },\n   \"remarks\": {\n    \"value\": \"<Error: Too many levels of nesting to fake this schema>\"\n   }\n  }\n ],\n \"claimEventDate\": \"2002-06-26T11:53:55.329Z\",\n \"isClaimConfirmedByPh\": true,\n \"claimRagVO\": {\n  \"value\": \"<Error: Too many levels of nesting to fake this schema>\"\n },\n \"riskDescription\": {\n  \"value\": \"<Error: Too many levels of nesting to fake this schema>\"\n },\n \"externalPolicyNumber\": \"officia dolor\",\n \"recoverableVO\": {\n  \"value\": \"<Error: Too many levels of nesting to fake this schema>\"\n },\n \"claimCurrencyVO\": {\n  \"value\": \"<Error: Too many levels of nesting to fake this schema>\"\n },\n \"claimNote\": [\n  {\n   \"value\": \"<Error: Too many levels of nesting to fake this schema>\"\n  },\n  {\n   \"value\": \"<Error: Too many levels of nesting to fake this schema>\"\n  }\n ],\n \"catastropheExternalNumber\": \"et nisi\",\n \"incurredAmountDecrease\": -4711216.519586831,\n \"relatedClaimContactIVOs\": [\n  {\n   \"claimantIVO\": {\n    \"value\": \"<Error: Too many levels of nesting to fake this schema>\"\n   },\n   \"injuredIVO\": {\n    \"value\": \"<Error: Too many levels of nesting to fake this schema>\"\n   },\n   \"updateVersion\": {\n    \"value\": \"<Error: Too many levels of nesting to fake this schema>\"\n   },\n   \"contactExtNumber\": {\n    \"value\": \"<Error: Too many levels of nesting to fake this schema>\"\n   },\n   \"relatedClaimantExternalNumber\": {\n    \"value\": \"<Error: Too many levels of nesting to fake this schema>\"\n   },\n   \"claimContactRoleVO\": {\n    \"value\": \"<Error: Too many levels of nesting to fake this schema>\"\n   },\n   \"witnessIVO\": {\n    \"value\": \"<Error: Too many levels of nesting to fake this schema>\"\n   },\n   \"id\": {\n    \"value\": \"<Error: Too many levels of nesting to fake this schema>\"\n   },\n   \"informantIVO\": {\n    \"value\": \"<Error: Too many levels of nesting to fake this schema>\"\n   },\n   \"contactReferenceNr\": {\n    \"value\": \"<Error: Too many levels of nesting to fake this schema>\"\n   }\n  },\n  {\n   \"claimantIVO\": {\n    \"value\": \"<Error: Too many levels of nesting to fake this schema>\"\n   },\n   \"injuredIVO\": {\n    \"value\": \"<Error: Too many levels of nesting to fake this schema>\"\n   },\n   \"updateVersion\": {\n    \"value\": \"<Error: Too many levels of nesting to fake this schema>\"\n   },\n   \"contactExtNumber\": {\n    \"value\": \"<Error: Too many levels of nesting to fake this schema>\"\n   },\n   \"relatedClaimantExternalNumber\": {\n    \"value\": \"<Error: Too many levels of nesting to fake this schema>\"\n   },\n   \"claimContactRoleVO\": {\n    \"value\": \"<Error: Too many levels of nesting to fake this schema>\"\n   },\n   \"witnessIVO\": {\n    \"value\": \"<Error: Too many levels of nesting to fake this schema>\"\n   },\n   \"id\": {\n    \"value\": \"<Error: Too many levels of nesting to fake this schema>\"\n   },\n   \"informantIVO\": {\n    \"value\": \"<Error: Too many levels of nesting to fake this schema>\"\n   },\n   \"contactReferenceNr\": {\n    \"value\": \"<Error: Too many levels of nesting to fake this schema>\"\n   }\n  }\n ],\n \"amountClaimedEU\": -36376513.36558512,\n \"processingStatusVO\": {\n  \"value\": \"<Error: Too many levels of nesting to fake this schema>\"\n },\n \"claimHandlerName\": \"officia pariatur in\",\n \"claimElementStateVO\": {\n  \"value\": \"<Error: Too many levels of nesting to fake this schema>\"\n },\n \"isRiNegateRequired\": true,\n \"claimStatusTypeVO\": {\n  \"value\": \"<Error: Too many levels of nesting to fake this schema>\"\n },\n \"isPendingReevaluation\": true,\n \"claimEventDescription\": \"exercitation\",\n \"automaticPaymentQuestionnaireIVO\": {\n  \"updateVersion\": {\n   \"value\": \"<Error: Too many levels of nesting to fake this schema>\"\n  },\n  \"questionnaireVO\": {\n   \"value\": \"<Error: Too many levels of nesting to fake this schema>\"\n  },\n  \"id\": {\n   \"value\": \"<Error: Too many levels of nesting to fake this schema>\"\n  },\n  \"assessmentQuestionnaireLineIVOs\": {\n   \"value\": \"<Error: Too many levels of nesting to fake this schema>\"\n  }\n },\n \"generalScore\": 69423692,\n \"claimElementIrregularities\": [\n  {\n   \"updateVersion\": {\n    \"value\": \"<Error: Too many levels of nesting to fake this schema>\"\n   },\n   \"irregularityVO\": {\n    \"value\": \"<Error: Too many levels of nesting to fake this schema>\"\n   },\n   \"insertDate\": {\n    \"value\": \"<Error: Too many levels of nesting to fake this schema>\"\n   },\n   \"activeIrregularity\": {\n    \"value\": \"<Error: Too many levels of nesting to fake this schema>\"\n   },\n   \"id\": {\n    \"value\": \"<Error: Too many levels of nesting to fake this schema>\"\n   },\n   \"remarks\": {\n    \"value\": \"<Error: Too many levels of nesting to fake this schema>\"\n   }\n  },\n  {\n   \"updateVersion\": {\n    \"value\": \"<Error: Too many levels of nesting to fake this schema>\"\n   },\n   \"irregularityVO\": {\n    \"value\": \"<Error: Too many levels of nesting to fake this schema>\"\n   },\n   \"insertDate\": {\n    \"value\": \"<Error: Too many levels of nesting to fake this schema>\"\n   },\n   \"activeIrregularity\": {\n    \"value\": \"<Error: Too many levels of nesting to fake this schema>\"\n   },\n   \"id\": {\n    \"value\": \"<Error: Too many levels of nesting to fake this schema>\"\n   },\n   \"remarks\": {\n    \"value\": \"<Error: Too many levels of nesting to fake this schema>\"\n   }\n  }\n ],\n \"handlerCompanyTreeId\": -22003950,\n \"groupExternalNumber\": \"ut ad\",\n \"claimStatusReasonTypeVO\": {\n  \"value\": \"<Error: Too many levels of nesting to fake this schema>\"\n },\n \"percentOfEmlOccurringEU\": 26405835,\n \"waiveMalusRemarks\": \"Excepteur ipsum ut ad\",\n \"isPessimisticLocked\": true,\n \"amountClaimed\": 94934503.68986264,\n \"accidentSenariosVO\": {\n  \"value\": \"<Error: Too many levels of nesting to fake this schema>\"\n },\n \"claimEventLocationIvo\": {\n  \"addressIVO\": {\n   \"countryVO\": {\n    \"value\": \"<Error: Too many levels of nesting to fake this schema>\"\n   },\n   \"zipCode\": {\n    \"value\": \"<Error: Too many levels of nesting to fake this schema>\"\n   },\n   \"cityNameSynonym\": {\n    \"value\": \"<Error: Too many levels of nesting to fake this schema>\"\n   },\n   \"updateVersion\": {\n    \"value\": \"<Error: Too many levels of nesting to fake this schema>\"\n   },\n   \"apartmentNr\": {\n    \"value\": \"<Error: Too many levels of nesting to fake this schema>\"\n   },\n   \"cityVO\": {\n    \"value\": \"<Error: Too many levels of nesting to fake this schema>\"\n   },\n   \"blockNr\": {\n    \"value\": \"<Error: Too many levels of nesting to fake this schema>\"\n   },\n   \"boxNumber\": {\n    \"value\": \"<Error: Too many levels of nesting to fake this schema>\"\n   },\n   \"addressId\": {\n    \"value\": \"<Error: Too many levels of nesting to fake this schema>\"\n   },\n   \"shortenedStreetName\": {\n    \"value\": \"<Error: Too many levels of nesting to fake this schema>\"\n   },\n   \"zone\": {\n    \"value\": \"<Error: Too many levels of nesting to fake this schema>\"\n   },\n   \"addressLine1\": {\n    \"value\": \"<Error: Too many levels of nesting to fake this schema>\"\n   },\n   \"id\": {\n    \"value\": \"<Error: Too many levels of nesting to fake this schema>\"\n   },\n   \"houseNr\": {\n    \"value\": \"<Error: Too many levels of nesting to fake this schema>\"\n   },\n   \"addressLine4\": {\n    \"value\": \"<Error: Too many levels of nesting to fake this schema>\"\n   },\n   \"addressKey\": {\n    \"value\": \"<Error: Too many levels of nesting to fake this schema>\"\n   },\n   \"danishSquareMeterHundred\": {\n    \"value\": \"<Error: Too many levels of nesting to fake this schema>\"\n   },\n   \"coName\": {\n    \"value\": \"<Error: Too many levels of nesting to fake this schema>\"\n   },\n   \"entranceNr\": {\n    \"value\": \"<Error: Too many levels of nesting to fake this schema>\"\n   },\n   \"companyPostNumber\": {\n    \"value\": \"<Error: Too many levels of nesting to fake this schema>\"\n   },\n   \"shortenedCity\": {\n    \"value\": \"<Error: Too many levels of nesting to fake this schema>\"\n   },\n   \"secondAddressLine\": {\n    \"value\": \"<Error: Too many levels of nesting to fake this schema>\"\n   },\n   \"municipalityCode\": {\n    \"value\": \"<Error: Too many levels of nesting to fake this schema>\"\n   },\n   \"provinceVO\": {\n    \"value\": \"<Error: Too many levels of nesting to fake this schema>\"\n   },\n   \"buildingName\": {\n    \"value\": \"<Error: Too many levels of nesting to fake this schema>\"\n   },\n   \"provinceName\": {\n    \"value\": \"<Error: Too many levels of nesting to fake this schema>\"\n   },\n   \"streetVO\": {\n    \"value\": \"<Error: Too many levels of nesting to fake this schema>\"\n   },\n   \"pob\": {\n    \"value\": \"<Error: Too many levels of nesting to fake this schema>\"\n   },\n   \"policeDistrictCode\": {\n    \"value\": \"<Error: Too many levels of nesting to fake this schema>\"\n   },\n   \"cadastralNumber\": {\n    \"value\": \"<Error: Too many levels of nesting to fake this schema>\"\n   },\n   \"regionName\": {\n    \"value\": \"<Error: Too many levels of nesting to fake this schema>\"\n   },\n   \"processingStatusVO\": {\n    \"value\": \"<Error: Too many levels of nesting to fake this schema>\"\n   },\n   \"countyVO\": {\n    \"value\": \"<Error: Too many levels of nesting to fake this schema>\"\n   },\n   \"houseName\": {\n    \"value\": \"<Error: Too many levels of nesting to fake this schema>\"\n   },\n   \"streetName\": {\n    \"value\": \"<Error: Too many levels of nesting to fake this schema>\"\n   },\n   \"cityName\": {\n    \"value\": \"<Error: Too many levels of nesting to fake this schema>\"\n   },\n   \"formattedAddress\": {\n    \"value\": \"<Error: Too many levels of nesting to fake this schema>\"\n   },\n   \"streetTypeVO\": {\n    \"value\": \"<Error: Too many levels of nesting to fake this schema>\"\n   },\n   \"policeDistrictName\": {\n    \"value\": \"<Error: Too many levels of nesting to fake this schema>\"\n   },\n   \"jurisdictionName\": {\n    \"value\": \"<Error: Too many levels of nesting to fake this schema>\"\n   },\n   \"floor\": {\n    \"value\": \"<Error: Too many levels of nesting to fake this schema>\"\n   },\n   \"addressStatus\": {\n    \"value\": \"<Error: Too many levels of nesting to fake this schema>\"\n   },\n   \"danishSquareKiloMeterOne\": {\n    \"value\": \"<Error: Too many levels of nesting to fake this schema>\"\n   },\n   \"countyName\": {\n    \"value\": \"<Error: Too many levels of nesting to fake this schema>\"\n   },\n   \"cantonVO\": {\n    \"value\": \"<Error: Too many levels of nesting to fake this schema>\"\n   },\n   \"streetNameCode\": {\n    \"value\": \"<Error: Too many levels of nesting to fake this schema>\"\n   },\n   \"districtName\": {\n    \"value\": \"<Error: Too many levels of nesting to fake this schema>\"\n   },\n   \"stampTerritoryVO\": {\n    \"value\": \"<Error: Too many levels of nesting to fake this schema>\"\n   },\n   \"danishSquareKiloMeterTen\": {\n    \"value\": \"<Error: Too many levels of nesting to fake this schema>\"\n   },\n   \"interfaceSearchString\": {\n    \"value\": \"<Error: Too many levels of nesting to fake this schema>\"\n   },\n   \"regionVO\": {\n    \"value\": \"<Error: Too many levels of nesting to fake this schema>\"\n   },\n   \"jurisdictionCode\": {\n    \"value\": \"<Error: Too many levels of nesting to fake this schema>\"\n   },\n   \"districtVO\": {\n    \"value\": \"<Error: Too many levels of nesting to fake this schema>\"\n   },\n   \"remarks\": {\n    \"value\": \"<Error: Too many levels of nesting to fake this schema>\"\n   }\n  },\n  \"geoLongitude\": 53932556.71059582,\n  \"countryVO\": {\n   \"value\": \"<Error: Too many levels of nesting to fake this schema>\"\n  },\n  \"geoLatitude\": -72979114.34010418,\n  \"updateVersion\": 9867693,\n  \"claimLocationTypeVO\": {\n   \"value\": \"<Error: Too many levels of nesting to fake this schema>\"\n  },\n  \"claimEventLocationNameVO\": {\n   \"value\": \"<Error: Too many levels of nesting to fake this schema>\"\n  },\n  \"remark\": \"do ea\",\n  \"id\": 62695743\n },\n \"claimCloseDate\": \"1984-12-04T00:51:11.362Z\"\n}"
								},
								{
									"name": "401 on Unauthorized access ; 422 on Business/Validation errors ; 500 on Technical/Unexpected errors",
									"originalRequest": {
										"method": "GET",
										"header": [
											{
												"description": "Added as a part of security scheme: apikey",
												"key": "userName",
												"value": "<API Key>"
											}
										],
										"url": {
											"raw": "{{baseUrl}}/api/loss-event/:extNumber",
											"host": [
												"{{baseUrl}}"
											],
											"path": [
												"api",
												"loss-event",
												":extNumber"
											],
											"variable": [
												{
													"key": "host",
													"value": "{{host}}",
													"description": "set your host machine here"
												},
												{
													"key": "port",
													"value": "{{port}}"
												},
												{
													"key": "extNumber",
													"value": "esse cillum",
													"description": "(Required) Loss-Event number, aka (external) identifier"
												}
											]
										}
									},
									"status": "Internal Server Error",
									"code": 500,
									"_postman_previewlanguage": "json",
									"header": [
										{
											"key": "Content-Type",
											"value": "application/json"
										}
									],
									"cookie": [],
									"body": "{\n \"instance\": \"velit minim ex\",\n \"updateVersion\": -62631030,\n \"invalid-params\": [\n  {\n   \"value\": \"<Error: Too many levels of nesting to fake this schema>\"\n  },\n  {\n   \"value\": \"<Error: Too many levels of nesting to fake this schema>\"\n  }\n ],\n \"scimType\": \"eiusmod nostrud cupidatat labore\",\n \"id\": -56840810,\n \"detail\": \"minim in sit\",\n \"type\": \"voluptate cons\",\n \"title\": \"eiusmod do amet\",\n \"status\": \"v\"\n}"
								}
							]
						}
					]
				}
			]
		}
	]
}