{
	"info": {
		"_postman_id": "7cfb6e58-8fa5-4ec4-94a9-873046741fd3",
		"name": "contact-individual",
		"schema": "https://schema.getpostman.com/json/collection/v2.1.0/collection.json"
	},
	"item": [
		{
			"name": "api",
			"item": [
				{
					"name": "contact",
					"item": [
						{
							"name": "Create a Contact - Individual",
							"event": [
								{
									"listen": "prerequest",
									"script": {
										"exec": [
											"const firstName = pm.variables.replaceIn(\"{{$randomFirstName}}\");\r",
											"const lastName = pm.variables.replaceIn(\"{{$randomLastName}}\");\r",
											"const dateOfBirth =  new Date(pm.variables.replaceIn(\"{{$randomDatePast}}\")).toISOString();\r",
											"pm.variables.set(\"fullName\", `${firstName} ${lastName}`);\r",
											"pm.variables.set(\"firstName\", firstName);\r",
											"pm.variables.set(\"lastName\", lastName);\r",
											"pm.variables.set(\"dateOfBirth\", dateOfBirth)\r",
											"pm.variables.set('idValue', (new Date()).toJSON().replace(/[^0-9]/g, '')); \r",
											"\r",
											""
										],
										"type": "text/javascript"
									}
								},
								{
									"listen": "test",
									"script": {
										"exec": [
											"pm.test(\"Create Contact\", ()=>{\r",
											"    const res = pm.response.json(); \r",
											"    pm.expect(pm.response.code).to.eql(201);\r",
											"    pm.variables.set(\"identifier\", res.identifier);\r",
											"    pm.variables.set(\"externalID\", res.externalID)\r",
											"});\r",
											""
										],
										"type": "text/javascript"
									}
								}
							],
							"request": {
								"method": "POST",
								"header": [
									{
										"key": "username",
										"value": "{{username}}",
										"type": "default"
									},
									{
										"key": "password",
										"value": "{{password}}",
										"type": "default"
									},
									{
										"key": "Cookie",
										"value": "{{cookie}}",
										"type": "default"
									}
								],
								"body": {
									"mode": "raw",
									"raw": "{\r\n    \"addresses\": [\r\n      {\r\n        \"zipCode\": \"80638\",\r\n        \"country\": {\r\n          \"id\": 77,\r\n          \"desc\": \"Germany\"\r\n        },\r\n        \"pob\": \"POB\",\r\n        \"districtName\": \"Neuhausen-Nymphenburg\",\r\n        \"updateVersion\": 0,\r\n        \"apartmentNr\": \"back\",\r\n        \"addressType\": {\r\n          \"id\": 1,\r\n          \"desc\": \"Correspondence address - private\"\r\n        },\r\n       \r\n        \"processingStatusVO\": {\r\n          \"id\": 10000,\r\n          \"desc\": \"Available for the processing\"\r\n        },\r\n        \r\n        \"streetName\": \"Schloß Nymphenburg\",\r\n        \"cityName\": \"MÜNCHEN\",\r\n        \"houseNr\": \"1\",\r\n        \"isPreferredDeliveryAddress\": true\r\n      }\r\n    ],\r\n    \"subscriptions\": [],\r\n    \"gender\": {\r\n      \"id\": 2,\r\n      \"desc\": \"Male\"\r\n    },\r\n    \"updateVersion\": 1,\r\n    \"entityType\": {\r\n      \"id\": 1,\r\n      \"desc\": \"Individual\"\r\n    },\r\n    \"identifiers\": [\r\n      {\r\n        \"country\": {\r\n          \"id\": 77,\r\n          \"desc\": \"Germany\"\r\n        },\r\n        \"idType\": {\r\n          \"id\": 1,\r\n          \"desc\": \"Fiscal Code\"\r\n        },\r\n        \"idValue\": \"{{idValue}}\"\r\n\r\n      }\r\n    ],\r\n    \"telephones\": [\r\n      {\r\n        \"telephoneNumber\": \"03332673034\",\r\n        \"updateVersion\": 0,\r\n        \"telephoneType\": {\r\n          \"id\": 1000002,\r\n          \"desc\": \"General Telephone\"\r\n        },\r\n        \"countryDialCode\": {\r\n          \"id\": 77,\r\n          \"desc\": \"49\"\r\n        }       \r\n      }\r\n    ],\r\n    \"dateOfBirth\": \"{{dateOfBirth}}\",\r\n    \"language\": {\r\n      \"id\": 1000000,\r\n      \"desc\": \"German - DE\"\r\n    },\r\n    \"channelType\": {\r\n      \"id\": 1,\r\n      \"desc\": \"IDIT_UI\"\r\n    },\r\n    \r\n    \"title\": {\r\n      \"id\": 1,\r\n      \"desc\": \"Mr.\"\r\n    },\r\n    \"processingStatusVO\": {\r\n      \"id\": 10000,\r\n      \"desc\": \"Available for the processing\"\r\n    },\r\n    \"emails\": [\r\n      {\r\n        \"emailType\": {\r\n          \"id\": 1000000,\r\n          \"desc\": \"General\"\r\n        },\r\n        \"isPreferredDeliveryAddress\": true,\r\n        \"email\": \"{{$randomEmail}}\"\r\n      }\r\n    ],\r\n    \"firstName\": \"{{firstName}}\",\r\n    \"nationality\": {\r\n      \"id\": 77,\r\n      \"desc\": \"Germany\"\r\n    },\r\n    \"name\": \"{{lastName}}\",\r\n    \r\n    \"consents\": [],\r\n    \"contactBankAccounts\": [\r\n        {\r\n            \"country\": {\r\n                \"id\": 77,\r\n                \"desc\": \"Germany\"\r\n            },\r\n            \"updateVersion\": 1,\r\n            \"ibanReference\": \"DE89370400440532013000\",\r\n            \"bankAccountExternalNumber\": \"25313\",\r\n            \"bicCode\": \"AARBDE5W700\",\r\n            \"paymentChannel\": {\r\n                \"id\": 1,\r\n                \"desc\": \"Bank Accounts\"\r\n            },\r\n            \"directDebitMandate\": [],\r\n            \"onHoldForDirectDebitEu\": false,\r\n            \"bankAccountHolderName\": \"{{fullName}}\",\r\n            \"remarks\": \"{{$randomBankAccountName}}\",\r\n            \"bankAccountHolderAddress\": \"Schloß Nymphenburg 1, 80638 MÜNCHEN\"\r\n        }\r\n    ]\r\n  }",
									"options": {
										"raw": {
											"language": "json"
										}
									}
								},
								"url": {
									"raw": "{{baseUrl}}/api/contact",
									"host": [
										"{{baseUrl}}"
									],
									"path": [
										"api",
										"contact"
									]
								}
							},
							"response": []
						},
						{
							"name": "Get Contact",
							"event": [
								{
									"listen": "prerequest",
									"script": {
										"exec": [
											""
										],
										"type": "text/javascript"
									}
								},
								{
									"listen": "test",
									"script": {
										"exec": [
											"pm.test('Get Contact', ()=> {\r",
											"    const contact = pm.response.json(); \r",
											"    pm.expect(pm.response.code).to.eql(200);\r",
											"    pm.expect(contact.externalContactNumber).to.eql(pm.variables.get(\"externalID\"));\r",
											"    pm.variables.set(\"messageCorrelationId\", pm.response.headers.get(\"messageCorrelationId\"));\r",
											"    pm.variables.set(\"contact\", contact);\r",
											"});"
										],
										"type": "text/javascript"
									}
								}
							],
							"request": {
								"auth": {
									"type": "noauth"
								},
								"method": "GET",
								"header": [
									{
										"key": "username",
										"value": "{{username}}",
										"type": "default"
									},
									{
										"key": "password",
										"value": "{{password}}",
										"type": "default"
									},
									{
										"key": "Cookie",
										"value": "{{cookie}}",
										"type": "default"
									}
								],
								"url": {
									"raw": "{{baseUrl}}/api/contact/:extNumber",
									"host": [
										"{{baseUrl}}"
									],
									"path": [
										"api",
										"contact",
										":extNumber"
									],
									"variable": [
										{
											"key": "extNumber",
											"value": "{{externalID}}"
										}
									]
								}
							},
							"response": []
						},
						{
							"name": "Update Contact",
							"event": [
								{
									"listen": "prerequest",
									"script": {
										"exec": [
											"    pm.request.headers.add({ key: 'messageCorrelationId', value: pm.variables.get(\"messageCorrelationId\") });\r",
											"    \r",
											"    const contact =  pm.variables.get(\"contact\");\r",
											"    console.log(contact);\r",
											"    contact.firstName = pm.variables.replaceIn(\"{{$randomFirstName}}\");\r",
											"    contact.name = pm.variables.replaceIn(\"{{$randomLastName}}\");\r",
											"    pm.variables.set('requestBody', JSON.stringify(contact));\r",
											"    \r",
											"\r",
											""
										],
										"type": "text/javascript"
									}
								},
								{
									"listen": "test",
									"script": {
										"exec": [
											"pm.test(\"Update Contact\", ()=>{\r",
											"    pm.expect(pm.response.code).to.eql(200);\r",
											"})"
										],
										"type": "text/javascript"
									}
								}
							],
							"request": {
								"method": "PUT",
								"header": [
									{
										"key": "username",
										"value": "{{username}}",
										"type": "default"
									},
									{
										"key": "password",
										"value": "{{password}}",
										"type": "default"
									},
									{
										"key": "Cookie",
										"value": "{{cookie}}",
										"type": "default"
									}
								],
								"body": {
									"mode": "raw",
									"raw": "{{requestBody}}",
									"options": {
										"raw": {
											"language": "json"
										}
									}
								},
								"url": {
									"raw": "{{baseUrl}}/api/contact/:extNumber",
									"host": [
										"{{baseUrl}}"
									],
									"path": [
										"api",
										"contact",
										":extNumber"
									],
									"variable": [
										{
											"key": "extNumber",
											"value": "{{externalID}}"
										}
									]
								}
							},
							"response": []
						},
						{
							"name": "Get Contact  Updated",
							"event": [
								{
									"listen": "prerequest",
									"script": {
										"exec": [
											""
										],
										"type": "text/javascript"
									}
								},
								{
									"listen": "test",
									"script": {
										"exec": [
											"pm.test('Get Contact Updated', ()=> {\r",
											"    const res = pm.response.json(); \r",
											"    pm.expect(pm.response.code).to.eql(200);\r",
											"    pm.expect(res.externalContactNumber).to.eql(pm.variables.get(\"externalID\"));\r",
											"    pm.variables.set(\"messageCorrelationId\", pm.response.headers.get(\"messageCorrelationId\"));\r",
											"    pm.variables.set(\"contact\", res);\r",
											"});"
										],
										"type": "text/javascript"
									}
								}
							],
							"request": {
								"auth": {
									"type": "noauth"
								},
								"method": "GET",
								"header": [
									{
										"key": "username",
										"value": "{{username}}",
										"type": "default"
									},
									{
										"key": "password",
										"value": "{{password}}",
										"type": "default"
									},
									{
										"key": "Cookie",
										"value": "{{cookie}}",
										"type": "default"
									}
								],
								"url": {
									"raw": "{{baseUrl}}/api/contact/:extNumber",
									"host": [
										"{{baseUrl}}"
									],
									"path": [
										"api",
										"contact",
										":extNumber"
									],
									"variable": [
										{
											"key": "extNumber",
											"value": "{{externalID}}"
										}
									]
								}
							},
							"response": []
						},
						{
							"name": "Update Contact - (Update only  email)",
							"event": [
								{
									"listen": "prerequest",
									"script": {
										"exec": [
											"   pm.request.headers.add({ key: 'messageCorrelationId', value: pm.variables.get(\"messageCorrelationId\") });\r",
											"   const contact = pm.variables.get('contact');\r",
											"   pm.variables.set('emailId', contact.emails[0].id);\r",
											"    \r",
											"\r",
											""
										],
										"type": "text/javascript"
									}
								},
								{
									"listen": "test",
									"script": {
										"exec": [
											"pm.test(\"Update Contact Email\", ()=>{\r",
											"    pm.expect(pm.response.code).to.eql(200);\r",
											"})"
										],
										"type": "text/javascript"
									}
								}
							],
							"request": {
								"method": "PUT",
								"header": [
									{
										"key": "username",
										"value": "{{username}}",
										"type": "default"
									},
									{
										"key": "password",
										"value": "{{password}}",
										"type": "default"
									},
									{
										"key": "Cookie",
										"value": "{{cookie}}",
										"type": "default"
									}
								],
								"body": {
									"mode": "raw",
									"raw": "{\r\n        \"emails\": [\r\n        {\r\n        \"emailType\": {\r\n          \"id\": 1000000,\r\n          \"desc\": \"General\"\r\n        },\r\n        \"isPreferredDeliveryAddress\": true,\r\n        \"email\": \"updated.email@email.com\",\r\n        \"id\": {{emailId}}\r\n        }\r\n    ]\r\n  }",
									"options": {
										"raw": {
											"language": "json"
										}
									}
								},
								"url": {
									"raw": "{{baseUrl}}/api/contact/:extNumber",
									"host": [
										"{{baseUrl}}"
									],
									"path": [
										"api",
										"contact",
										":extNumber"
									],
									"variable": [
										{
											"key": "extNumber",
											"value": "{{externalID}}"
										}
									]
								}
							},
							"response": []
						},
						{
							"name": "Get Contact  with E-mail Updated",
							"event": [
								{
									"listen": "prerequest",
									"script": {
										"exec": [
											""
										],
										"type": "text/javascript"
									}
								},
								{
									"listen": "test",
									"script": {
										"exec": [
											"pm.test('Get contact with e-mail updated', ()=> {\r",
											"    const contact = pm.response.json(); \r",
											"    pm.expect(pm.response.code).to.eql(200);\r",
											"    pm.expect(contact.externalContactNumber).to.eql(pm.variables.get(\"externalID\"));\r",
											"    pm.variables.set(\"messageCorrelationId\", pm.response.headers.get(\"messageCorrelationId\"));\r",
											"    pm.variables.set(\"contact\", contact);\r",
											"});"
										],
										"type": "text/javascript"
									}
								}
							],
							"request": {
								"auth": {
									"type": "noauth"
								},
								"method": "GET",
								"header": [
									{
										"key": "username",
										"value": "{{username}}",
										"type": "default"
									},
									{
										"key": "password",
										"value": "{{password}}",
										"type": "default"
									},
									{
										"key": "Cookie",
										"value": "{{cookie}}",
										"type": "default"
									}
								],
								"url": {
									"raw": "{{baseUrl}}/api/contact/:extNumber",
									"host": [
										"{{baseUrl}}"
									],
									"path": [
										"api",
										"contact",
										":extNumber"
									],
									"variable": [
										{
											"key": "extNumber",
											"value": "{{externalID}}"
										}
									]
								}
							},
							"response": []
						},
						{
							"name": "Update Contact - (Add a new email)",
							"event": [
								{
									"listen": "prerequest",
									"script": {
										"exec": [
											"    pm.request.headers.add({ key: 'messageCorrelationId', value: pm.variables.get(\"messageCorrelationId\") });\r",
											""
										],
										"type": "text/javascript"
									}
								},
								{
									"listen": "test",
									"script": {
										"exec": [
											"pm.test(\"Update Contact - Add a new email\", ()=>{\r",
											"    pm.expect(pm.response.code).to.eql(200);\r",
											"})"
										],
										"type": "text/javascript"
									}
								}
							],
							"request": {
								"method": "PUT",
								"header": [
									{
										"key": "username",
										"value": "{{username}}",
										"type": "default"
									},
									{
										"key": "password",
										"value": "{{password}}",
										"type": "default"
									},
									{
										"key": "Cookie",
										"value": "{{cookie}}",
										"type": "default"
									}
								],
								"body": {
									"mode": "raw",
									"raw": "{\r\n        \"emails\": [\r\n        {\r\n            \"emailType\": {\r\n            \"id\": 1000000,\r\n            \"desc\": \"General\"\r\n            },\r\n            \"isPreferredDeliveryAddress\": false,\r\n            \"email\": \"second.email@email.com\"\r\n        }\r\n    ]\r\n  }",
									"options": {
										"raw": {
											"language": "json"
										}
									}
								},
								"url": {
									"raw": "{{baseUrl}}/api/contact/:extNumber",
									"host": [
										"{{baseUrl}}"
									],
									"path": [
										"api",
										"contact",
										":extNumber"
									],
									"variable": [
										{
											"key": "extNumber",
											"value": "{{externalID}}"
										}
									]
								}
							},
							"response": []
						},
						{
							"name": "Get Contact  with new e-mail",
							"event": [
								{
									"listen": "prerequest",
									"script": {
										"exec": [
											""
										],
										"type": "text/javascript"
									}
								},
								{
									"listen": "test",
									"script": {
										"exec": [
											"pm.test('Get contact with e-mail updated', ()=> {\r",
											"    const contact = pm.response.json(); \r",
											"    pm.expect(pm.response.code).to.eql(200);\r",
											"    pm.expect(contact.externalContactNumber).to.eql(pm.variables.get(\"externalID\"));\r",
											"    pm.variables.set(\"messageCorrelationId\", pm.response.headers.get(\"messageCorrelationId\"));\r",
											"    pm.variables.set(\"contact\", contact);\r",
											"});"
										],
										"type": "text/javascript"
									}
								}
							],
							"request": {
								"auth": {
									"type": "noauth"
								},
								"method": "GET",
								"header": [
									{
										"key": "username",
										"value": "{{username}}",
										"type": "default"
									},
									{
										"key": "password",
										"value": "{{password}}",
										"type": "default"
									},
									{
										"key": "Cookie",
										"value": "{{cookie}}",
										"type": "default"
									}
								],
								"url": {
									"raw": "{{baseUrl}}/api/contact/:extNumber",
									"host": [
										"{{baseUrl}}"
									],
									"path": [
										"api",
										"contact",
										":extNumber"
									],
									"variable": [
										{
											"key": "extNumber",
											"value": "{{externalID}}"
										}
									]
								}
							},
							"response": []
						},
						{
							"name": "Update Contact - (Update only the address)",
							"event": [
								{
									"listen": "prerequest",
									"script": {
										"exec": [
											"    pm.request.headers.add({ key: 'messageCorrelationId', value: pm.variables.get(\"messageCorrelationId\") });\r",
											"    const contact = pm.variables.get('contact');\r",
											"    pm.variables.set('addressId', contact.addresses[0].id);"
										],
										"type": "text/javascript"
									}
								},
								{
									"listen": "test",
									"script": {
										"exec": [
											"pm.test(\"Update Contact - (Update only the address)\", ()=>{\r",
											"    pm.expect(pm.response.code).to.eql(200);\r",
											"})"
										],
										"type": "text/javascript"
									}
								}
							],
							"request": {
								"method": "PUT",
								"header": [
									{
										"key": "username",
										"value": "{{username}}",
										"type": "default"
									},
									{
										"key": "password",
										"value": "{{password}}",
										"type": "default"
									},
									{
										"key": "Cookie",
										"value": "{{cookie}}",
										"type": "default"
									}
								],
								"body": {
									"mode": "raw",
									"raw": "{\r\n    \"addresses\": [\r\n     {\r\n      \"@type\": \"interfaces:AddressIBO\",\r\n      \"zipCode\": \"60386\",\r\n      \"country\": {\r\n          \"id\": 77,\r\n          \"desc\": \"Germany\"\r\n      },\r\n      \"pob\": \"pob\",\r\n      \"apartmentNr\": \"back\",\r\n      \"streetName\": \"Am Erlenbruch\",\r\n      \"cityName\": \"FRANKFURT\",\r\n      \"id\": {{addressId}},\r\n      \"houseNr\": \"517\",\r\n      \"districtName\": \"Seckbach\",\r\n      \"addressType\": {\r\n         \"id\": 6,\r\n         \"desc\": \"Correspondence address - commercial\"\r\n      }\r\n     }\r\n   ]\r\n  }",
									"options": {
										"raw": {
											"language": "json"
										}
									}
								},
								"url": {
									"raw": "{{baseUrl}}/api/contact/:extNumber",
									"host": [
										"{{baseUrl}}"
									],
									"path": [
										"api",
										"contact",
										":extNumber"
									],
									"variable": [
										{
											"key": "extNumber",
											"value": "{{externalID}}"
										}
									]
								}
							},
							"response": []
						},
						{
							"name": "Get Contact  with Address Updated",
							"event": [
								{
									"listen": "prerequest",
									"script": {
										"exec": [
											""
										],
										"type": "text/javascript"
									}
								},
								{
									"listen": "test",
									"script": {
										"exec": [
											"pm.test('Get contact with e-mail updated', ()=> {\r",
											"    const contact = pm.response.json(); \r",
											"    pm.expect(pm.response.code).to.eql(200);\r",
											"    pm.expect(contact.externalContactNumber).to.eql(pm.variables.get(\"externalID\"));\r",
											"    pm.variables.set(\"messageCorrelationId\", pm.response.headers.get(\"messageCorrelationId\"));\r",
											"    pm.variables.set(\"contact\", contact);\r",
											"});"
										],
										"type": "text/javascript"
									}
								}
							],
							"request": {
								"auth": {
									"type": "noauth"
								},
								"method": "GET",
								"header": [
									{
										"key": "username",
										"value": "{{username}}",
										"type": "default"
									},
									{
										"key": "password",
										"value": "{{password}}",
										"type": "default"
									},
									{
										"key": "Cookie",
										"value": "{{cookie}}",
										"type": "default"
									}
								],
								"url": {
									"raw": "{{baseUrl}}/api/contact/:extNumber",
									"host": [
										"{{baseUrl}}"
									],
									"path": [
										"api",
										"contact",
										":extNumber"
									],
									"variable": [
										{
											"key": "extNumber",
											"value": "{{externalID}}"
										}
									]
								}
							},
							"response": []
						}
					]
				}
			]
		}
	]
}