{
	"info": {
		"_postman_id": "08eafc87-1a2b-4af9-a3a3-0dcc3cdbcada",
		"name": "contact-legal-entity",
		"schema": "https://schema.getpostman.com/json/collection/v2.1.0/collection.json"
	},
	"item": [
		{
			"name": "api",
			"item": [
				{
					"name": "contact",
					"item": [
						{
							"name": "Create a Contact - Legal entity",
							"event": [
								{
									"listen": "prerequest",
									"script": {
										"exec": [
											""
										],
										"type": "text/javascript"
									}
								},
								{
									"listen": "test",
									"script": {
										"exec": [
											"pm.test(\"Create Contact\", ()=>{\r",
											"    const res = pm.response.json(); \r",
											"    pm.expect(pm.response.code).to.eql(201);\r",
											"    pm.variables.set(\"identifier\", res.identifier);\r",
											"    pm.variables.set(\"externalID\", res.externalID)\r",
											"    tests[`Contact external code: ${res.externalID}`] = true;\r",
											"});\r",
											""
										],
										"type": "text/javascript"
									}
								}
							],
							"request": {
								"method": "POST",
								"header": [
									{
										"key": "username",
										"value": "{{username}}",
										"type": "default"
									},
									{
										"key": "password",
										"value": "{{password}}",
										"type": "default"
									},
									{
										"key": "Cookie",
										"value": "{{cookie}}",
										"type": "default"
									}
								],
								"body": {
									"mode": "raw",
									"raw": "{\r\n  \"addresses\": [\r\n      {\r\n          \"@type\": \"interfaces:AddressIBO\",\r\n          \"zipCode\": \"80333\",\r\n          \"country\": {\r\n              \"id\": 77,\r\n              \"desc\": \"Germany\"\r\n          },\r\n          \"pob\": \"{{$randomInt}}\",\r\n          \"apartmentNr\": \"{{$randomInt}}\",\r\n          \"streetName\": \"Arcisstr.\",\r\n          \"cityName\": \"MUNCHEN\",\r\n          \"formattedAddress\": \" 701 Arcisstr. 21 701 80333 MUNCHEN GERMANY\",\r\n          \"houseNr\": \"21\",\r\n          \"addressType\": {\r\n              \"id\": 6,\r\n              \"desc\": \"Correspondence address - commercial\"\r\n          }\r\n      }\r\n  ],\r\n  \"telephones\": [\r\n      {\r\n          \"@type\": \"interfaces:TelephoneIBO\",\r\n          \"telephoneNumber\": \"01636797811\",\r\n          \"telephoneType\": {\r\n              \"id\": 1000002,\r\n              \"desc\": \"General Telephone\"\r\n          },\r\n          \"countryDialCode\": {\r\n              \"id\": 77,\r\n              \"desc\": \"49\"\r\n          }\r\n      }\r\n  ],\r\n  \"language\": {\r\n      \"id\": 1000000,\r\n      \"desc\": \"German - DE\"\r\n  },\r\n  \"channelType\": {\r\n      \"id\": 1,\r\n      \"desc\": \"IDIT_UI\"\r\n  },\r\n  \"preferredDeliveryType\": {\r\n      \"id\": 3,\r\n      \"desc\": \"Email\"\r\n  },\r\n  \"processingStatusVO\": {\r\n      \"id\": 10000,\r\n      \"desc\": \"Available for the processing\"\r\n  },\r\n  \"emails\": [\r\n      {\r\n          \"@type\": \"interfaces:EmailIBO\",\r\n          \"emailType\": {\r\n              \"id\": 1000000,\r\n              \"desc\": \"General\"\r\n          },\r\n          \"isPreferredDeliveryAddress\": true,\r\n          \"email\": \"{{$randomEmail}}\"\r\n      }\r\n  ],\r\n  \"webSite\": \"www.mycompanywebsite.com.br\",\r\n  \"contactBankAccounts\": [\r\n      {\r\n          \"country\": {\r\n              \"id\": 77,\r\n              \"desc\": \"Germany\"\r\n          },\r\n          \"ibanReference\": \"DE23100000001234567890\",\r\n          \"bicCode\": \"MARKDEF1100\",\r\n          \"paymentChannel\": {\r\n              \"id\": 1,\r\n              \"desc\": \"Bank Accounts\"\r\n          },\r\n          \"onHoldForDirectDebitEu\": true,\r\n          \"bankAccountHolderName\": \"{{$randomCompanyName}}\",\r\n          \"bankAccountHolderAddress\": \"Arcisstr. 21, 80333 MUNCHEN\"\r\n      }\r\n  ],\r\n  \"legalFormVO\": {\r\n      \"id\": 1000040,\r\n      \"desc\": \"GmbH\"\r\n  },\r\n  \"entityType\": {\r\n      \"id\": 101,\r\n      \"desc\": \"Legal entity\"\r\n  },\r\n  \"identifiers\": [\r\n      {\r\n          \"country\": {\r\n              \"id\": 77,\r\n              \"desc\": \"Germany\"\r\n          },\r\n          \"idType\": {\r\n              \"id\": 1000005,\r\n              \"desc\": \"World-Check System Case ID\"\r\n          },\r\n          \"idValue\": \"{{$randomAlphaNumeric}}\"\r\n      },\r\n      {\r\n          \"country\": {\r\n              \"id\": 77,\r\n              \"desc\": \"Germany\"\r\n          },\r\n          \"idType\": {\r\n              \"id\": 1000006,\r\n              \"desc\": \"World-Check Business Case ID\"\r\n          },\r\n          \"idValue\": \"{{$randomAlphaNumeric}}\"\r\n      }\r\n  ],\r\n  \"disclosureInformationEU\": \"{{$randomLoremWords}}\",\r\n  \"nationality\": {\r\n      \"id\": 77,\r\n      \"desc\": \"Germany\"\r\n  },\r\n  \"name\": \"{{$randomCompanyName}}\"\r\n}",
									"options": {
										"raw": {
											"language": "json"
										}
									}
								},
								"url": {
									"raw": "{{baseUrl}}/api/contact",
									"host": [
										"{{baseUrl}}"
									],
									"path": [
										"api",
										"contact"
									]
								}
							},
							"response": []
						},
						{
							"name": "Get Contact",
							"event": [
								{
									"listen": "prerequest",
									"script": {
										"exec": [
											""
										],
										"type": "text/javascript"
									}
								},
								{
									"listen": "test",
									"script": {
										"exec": [
											"pm.test('Get Contact', ()=> {\r",
											"    const contact = pm.response.json(); \r",
											"    pm.expect(pm.response.code).to.eql(200);\r",
											"    pm.expect(contact.externalContactNumber).to.eql(pm.variables.get(\"externalID\"));\r",
											"    pm.variables.set(\"messageCorrelationId\", pm.response.headers.get(\"messageCorrelationId\"));\r",
											"    pm.variables.set(\"contact\", contact);\r",
											"});"
										],
										"type": "text/javascript"
									}
								}
							],
							"request": {
								"auth": {
									"type": "noauth"
								},
								"method": "GET",
								"header": [
									{
										"key": "username",
										"value": "{{username}}",
										"type": "default"
									},
									{
										"key": "password",
										"value": "{{password}}",
										"type": "default"
									},
									{
										"key": "Cookie",
										"value": "{{cookie}}",
										"type": "default"
									}
								],
								"url": {
									"raw": "{{baseUrl}}/api/contact/:extNumber",
									"host": [
										"{{baseUrl}}"
									],
									"path": [
										"api",
										"contact",
										":extNumber"
									],
									"variable": [
										{
											"key": "extNumber",
											"value": "{{externalID}}"
										}
									]
								}
							},
							"response": []
						},
						{
							"name": "Update Contact",
							"event": [
								{
									"listen": "prerequest",
									"script": {
										"exec": [
											"    pm.request.headers.add({ key: 'messageCorrelationId', value: pm.variables.get(\"messageCorrelationId\") });\r",
											"    \r",
											"    const contact =  pm.variables.get(\"contact\");\r",
											"    console.log(contact);\r",
											"    contact.firstName = pm.variables.replaceIn(\"{{$randomFirstName}}\");\r",
											"    contact.name = pm.variables.replaceIn(\"{{$randomLastName}}\");\r",
											"    pm.variables.set('contactBodyRequest', JSON.stringify(contact));\r",
											"    \r",
											"\r",
											""
										],
										"type": "text/javascript"
									}
								},
								{
									"listen": "test",
									"script": {
										"exec": [
											"pm.test(\"Update Contact\", ()=>{\r",
											"    pm.expect(pm.response.code).to.eql(200);\r",
											"})"
										],
										"type": "text/javascript"
									}
								}
							],
							"request": {
								"method": "PUT",
								"header": [
									{
										"key": "username",
										"value": "{{username}}",
										"type": "default"
									},
									{
										"key": "password",
										"value": "{{password}}",
										"type": "default"
									},
									{
										"key": "Cookie",
										"value": "{{cookie}}",
										"type": "default"
									}
								],
								"body": {
									"mode": "raw",
									"raw": "{{contactBodyRequest}}",
									"options": {
										"raw": {
											"language": "json"
										}
									}
								},
								"url": {
									"raw": "{{baseUrl}}/api/contact/:extNumber",
									"host": [
										"{{baseUrl}}"
									],
									"path": [
										"api",
										"contact",
										":extNumber"
									],
									"variable": [
										{
											"key": "extNumber",
											"value": "{{externalID}}"
										}
									]
								}
							},
							"response": []
						},
						{
							"name": "Get Contact  Updated",
							"event": [
								{
									"listen": "prerequest",
									"script": {
										"exec": [
											""
										],
										"type": "text/javascript"
									}
								},
								{
									"listen": "test",
									"script": {
										"exec": [
											"pm.test('Get Contact Updated', ()=> {\r",
											"    const res = pm.response.json(); \r",
											"    pm.expect(pm.response.code).to.eql(200);\r",
											"    pm.expect(res.externalContactNumber).to.eql(pm.variables.get(\"externalID\"));\r",
											"    pm.variables.set(\"messageCorrelationId\", pm.response.headers.get(\"messageCorrelationId\"));\r",
											"    pm.variables.set(\"contact\", res);\r",
											"});"
										],
										"type": "text/javascript"
									}
								}
							],
							"request": {
								"auth": {
									"type": "noauth"
								},
								"method": "GET",
								"header": [
									{
										"key": "username",
										"value": "{{username}}",
										"type": "default"
									},
									{
										"key": "password",
										"value": "{{password}}",
										"type": "default"
									},
									{
										"key": "Cookie",
										"value": "{{cookie}}",
										"type": "default"
									}
								],
								"url": {
									"raw": "{{baseUrl}}/api/contact/:extNumber",
									"host": [
										"{{baseUrl}}"
									],
									"path": [
										"api",
										"contact",
										":extNumber"
									],
									"variable": [
										{
											"key": "extNumber",
											"value": "{{externalID}}"
										}
									]
								}
							},
							"response": []
						},
						{
							"name": "Update Contact - (Update only  email)",
							"event": [
								{
									"listen": "prerequest",
									"script": {
										"exec": [
											"   pm.request.headers.add({ key: 'messageCorrelationId', value: pm.variables.get(\"messageCorrelationId\") });\r",
											"   const contact = pm.variables.get('contact');\r",
											"   pm.variables.set('emailId', contact.emails[0].id);\r",
											"    \r",
											"\r",
											""
										],
										"type": "text/javascript"
									}
								},
								{
									"listen": "test",
									"script": {
										"exec": [
											"pm.test(\"Update Contact Email\", ()=>{\r",
											"    pm.expect(pm.response.code).to.eql(200);\r",
											"})"
										],
										"type": "text/javascript"
									}
								}
							],
							"request": {
								"method": "PUT",
								"header": [
									{
										"key": "username",
										"value": "{{username}}",
										"type": "default"
									},
									{
										"key": "password",
										"value": "{{password}}",
										"type": "default"
									},
									{
										"key": "Cookie",
										"value": "{{cookie}}",
										"type": "default"
									}
								],
								"body": {
									"mode": "raw",
									"raw": "{\r\n        \"emails\": [\r\n        {\r\n        \"emailType\": {\r\n          \"id\": 1000000,\r\n          \"desc\": \"General\"\r\n        },\r\n        \"isPreferredDeliveryAddress\": true,\r\n        \"email\": \"updated.email@email.com\",\r\n        \"id\": {{emailId}}\r\n        }\r\n    ]\r\n  }",
									"options": {
										"raw": {
											"language": "json"
										}
									}
								},
								"url": {
									"raw": "{{baseUrl}}/api/contact/:extNumber",
									"host": [
										"{{baseUrl}}"
									],
									"path": [
										"api",
										"contact",
										":extNumber"
									],
									"variable": [
										{
											"key": "extNumber",
											"value": "{{externalID}}"
										}
									]
								}
							},
							"response": []
						},
						{
							"name": "Get Contact  with E-mail Updated",
							"event": [
								{
									"listen": "prerequest",
									"script": {
										"exec": [
											""
										],
										"type": "text/javascript"
									}
								},
								{
									"listen": "test",
									"script": {
										"exec": [
											"pm.test('Get contact with e-mail updated', ()=> {\r",
											"    const contact = pm.response.json(); \r",
											"    pm.expect(pm.response.code).to.eql(200);\r",
											"    pm.expect(contact.externalContactNumber).to.eql(pm.variables.get(\"externalID\"));\r",
											"    pm.variables.set(\"messageCorrelationId\", pm.response.headers.get(\"messageCorrelationId\"));\r",
											"    pm.variables.set(\"contact\", contact);\r",
											"});"
										],
										"type": "text/javascript"
									}
								}
							],
							"request": {
								"auth": {
									"type": "noauth"
								},
								"method": "GET",
								"header": [
									{
										"key": "username",
										"value": "{{username}}",
										"type": "default"
									},
									{
										"key": "password",
										"value": "{{password}}",
										"type": "default"
									},
									{
										"key": "Cookie",
										"value": "{{cookie}}",
										"type": "default"
									}
								],
								"url": {
									"raw": "{{baseUrl}}/api/contact/:extNumber",
									"host": [
										"{{baseUrl}}"
									],
									"path": [
										"api",
										"contact",
										":extNumber"
									],
									"variable": [
										{
											"key": "extNumber",
											"value": "{{externalID}}"
										}
									]
								}
							},
							"response": []
						},
						{
							"name": "Update Contact - (Add a new email)",
							"event": [
								{
									"listen": "prerequest",
									"script": {
										"exec": [
											"    pm.request.headers.add({ key: 'messageCorrelationId', value: pm.variables.get(\"messageCorrelationId\") });\r",
											""
										],
										"type": "text/javascript"
									}
								},
								{
									"listen": "test",
									"script": {
										"exec": [
											"pm.test(\"Update Contact - Add a new email\", ()=>{\r",
											"    pm.expect(pm.response.code).to.eql(200);\r",
											"})"
										],
										"type": "text/javascript"
									}
								}
							],
							"request": {
								"method": "PUT",
								"header": [
									{
										"key": "username",
										"value": "{{username}}",
										"type": "default"
									},
									{
										"key": "password",
										"value": "{{password}}",
										"type": "default"
									},
									{
										"key": "Cookie",
										"value": "{{cookie}}",
										"type": "default"
									}
								],
								"body": {
									"mode": "raw",
									"raw": "{\r\n        \"emails\": [\r\n        {\r\n            \"emailType\": {\r\n            \"id\": 1000000,\r\n            \"desc\": \"General\"\r\n            },\r\n            \"isPreferredDeliveryAddress\": false,\r\n            \"email\": \"second.email@email.com\"\r\n        }\r\n    ]\r\n  }",
									"options": {
										"raw": {
											"language": "json"
										}
									}
								},
								"url": {
									"raw": "{{baseUrl}}/api/contact/:extNumber",
									"host": [
										"{{baseUrl}}"
									],
									"path": [
										"api",
										"contact",
										":extNumber"
									],
									"variable": [
										{
											"key": "extNumber",
											"value": "{{externalID}}"
										}
									]
								}
							},
							"response": []
						},
						{
							"name": "Get Contact  with new e-mail",
							"event": [
								{
									"listen": "prerequest",
									"script": {
										"exec": [
											""
										],
										"type": "text/javascript"
									}
								},
								{
									"listen": "test",
									"script": {
										"exec": [
											"pm.test('Get contact with e-mail updated', ()=> {\r",
											"    const contact = pm.response.json(); \r",
											"    pm.expect(pm.response.code).to.eql(200);\r",
											"    pm.expect(contact.externalContactNumber).to.eql(pm.variables.get(\"externalID\"));\r",
											"    pm.variables.set(\"messageCorrelationId\", pm.response.headers.get(\"messageCorrelationId\"));\r",
											"    pm.variables.set(\"contact\", contact);\r",
											"});"
										],
										"type": "text/javascript"
									}
								}
							],
							"request": {
								"auth": {
									"type": "noauth"
								},
								"method": "GET",
								"header": [
									{
										"key": "username",
										"value": "{{username}}",
										"type": "default"
									},
									{
										"key": "password",
										"value": "{{password}}",
										"type": "default"
									},
									{
										"key": "Cookie",
										"value": "{{cookie}}",
										"type": "default"
									}
								],
								"url": {
									"raw": "{{baseUrl}}/api/contact/:extNumber",
									"host": [
										"{{baseUrl}}"
									],
									"path": [
										"api",
										"contact",
										":extNumber"
									],
									"variable": [
										{
											"key": "extNumber",
											"value": "{{externalID}}"
										}
									]
								}
							},
							"response": []
						},
						{
							"name": "Update Contact - (Update only the address)",
							"event": [
								{
									"listen": "prerequest",
									"script": {
										"exec": [
											"    pm.request.headers.add({ key: 'messageCorrelationId', value: pm.variables.get(\"messageCorrelationId\") });\r",
											"    const contact = pm.variables.get('contact');\r",
											"    pm.variables.set('addressId', contact.addresses[0].id);"
										],
										"type": "text/javascript"
									}
								},
								{
									"listen": "test",
									"script": {
										"exec": [
											"pm.test(\"Update Contact - (Update only the address)\", ()=>{\r",
											"    pm.expect(pm.response.code).to.eql(200);\r",
											"})"
										],
										"type": "text/javascript"
									}
								}
							],
							"request": {
								"method": "PUT",
								"header": [
									{
										"key": "username",
										"value": "{{username}}",
										"type": "default"
									},
									{
										"key": "password",
										"value": "{{password}}",
										"type": "default"
									},
									{
										"key": "Cookie",
										"value": "{{cookie}}",
										"type": "default"
									}
								],
								"body": {
									"mode": "raw",
									"raw": "{\r\n    \"addresses\": [\r\n     {\r\n      \"@type\": \"interfaces:AddressIBO\",\r\n      \"zipCode\": \"60386\",\r\n      \"country\": {\r\n          \"id\": 77,\r\n          \"desc\": \"Germany\"\r\n      },\r\n      \"pob\": \"pob\",\r\n      \"apartmentNr\": \"back\",\r\n      \"streetName\": \"Am Erlenbruch\",\r\n      \"cityName\": \"FRANKFURT\",\r\n      \"id\": {{addressId}},\r\n      \"houseNr\": \"517\",\r\n      \"districtName\": \"Seckbach\",\r\n      \"addressType\": {\r\n         \"id\": 6,\r\n         \"desc\": \"Correspondence address - commercial\"\r\n      }\r\n     }\r\n   ]\r\n  }",
									"options": {
										"raw": {
											"language": "json"
										}
									}
								},
								"url": {
									"raw": "{{baseUrl}}/api/contact/:extNumber",
									"host": [
										"{{baseUrl}}"
									],
									"path": [
										"api",
										"contact",
										":extNumber"
									],
									"variable": [
										{
											"key": "extNumber",
											"value": "{{externalID}}"
										}
									]
								}
							},
							"response": []
						},
						{
							"name": "Get Contact  with Address Updated",
							"event": [
								{
									"listen": "prerequest",
									"script": {
										"exec": [
											""
										],
										"type": "text/javascript"
									}
								},
								{
									"listen": "test",
									"script": {
										"exec": [
											"pm.test('Get contact with e-mail updated', ()=> {\r",
											"    const contact = pm.response.json(); \r",
											"    pm.expect(pm.response.code).to.eql(200);\r",
											"    pm.expect(contact.externalContactNumber).to.eql(pm.variables.get(\"externalID\"));\r",
											"    pm.variables.set(\"messageCorrelationId\", pm.response.headers.get(\"messageCorrelationId\"));\r",
											"    pm.variables.set(\"contact\", contact);\r",
											"});"
										],
										"type": "text/javascript"
									}
								}
							],
							"request": {
								"auth": {
									"type": "noauth"
								},
								"method": "GET",
								"header": [
									{
										"key": "username",
										"value": "{{username}}",
										"type": "default"
									},
									{
										"key": "password",
										"value": "{{password}}",
										"type": "default"
									},
									{
										"key": "Cookie",
										"value": "{{cookie}}",
										"type": "default"
									}
								],
								"url": {
									"raw": "{{baseUrl}}/api/contact/:extNumber",
									"host": [
										"{{baseUrl}}"
									],
									"path": [
										"api",
										"contact",
										":extNumber"
									],
									"variable": [
										{
											"key": "extNumber",
											"value": "{{externalID}}"
										}
									]
								}
							},
							"response": []
						}
					]
				}
			]
		}
	]
}