{
	"info": {
		"_postman_id": "a562eb8d-84ed-41b3-9b87-5ae4ee26991f",
		"name": "idit-collection-proposal-for-endorsement",
		"schema": "https://schema.getpostman.com/json/collection/v2.1.0/collection.json"
	},
	"item": [
		{
			"name": "Endorsement",
			"item": [
				{
					"name": "Create a Contact - Legal entity",
					"event": [
						{
							"listen": "test",
							"script": {
								"exec": [
									"pm.test(\"Create Contact - PSC\", ()=>{\r",
									"    const res = pm.response.json(); \r",
									"    pm.expect(pm.response.code).to.eql(201);\r",
									"    pm.variables.set(\"externalID\", res.externalID)\r",
									"    tests[`Contact External ID: ${res.externalID}`] = true;\r",
									"});"
								],
								"type": "text/javascript"
							}
						}
					],
					"request": {
						"method": "POST",
						"header": [
							{
								"key": "username",
								"value": "{{username}}",
								"type": "default"
							},
							{
								"key": "password",
								"value": "{{password}}",
								"type": "default"
							},
							{
								"key": "Cookie",
								"value": "{{cookie}}",
								"type": "default"
							}
						],
						"body": {
							"mode": "raw",
							"raw": "{\r\n  \"addresses\": [\r\n    {\r\n      \"@type\": \"interfaces:AddressIBO\",\r\n      \"zipCode\": \"80807\",\r\n      \"country\": {\r\n        \"id\": 77,\r\n        \"desc\": \"GERMANY\"\r\n      },\r\n      \"streetName\": \"Walter-Gropius-Str.\",\r\n      \"cityName\": \"MÜNCHEN\",\r\n      \"houseNr\": \"5\",\r\n      \"districtName\": \"Schwabing-Freimann\",\r\n      \"addressType\": {\r\n        \"id\": 6,\r\n        \"desc\": \"Correspondence address - commercial\"\r\n      }\r\n    }\r\n  ],\r\n  \"telephones\": [\r\n    {\r\n      \"@type\": \"interfaces:TelephoneIBO\",\r\n      \"telephoneNumber\": \"08931760\",\r\n      \"telephoneType\": {\r\n        \"id\": 1000002,\r\n        \"desc\": \"General Telephone\"\r\n      },\r\n      \"countryDialCode\": {\r\n        \"id\": 77,\r\n        \"desc\": \"49\"\r\n      }\r\n    }\r\n  ],\r\n  \"language\": {\r\n    \"id\": 1000000,\r\n    \"desc\": \"German - DE\"\r\n  },\r\n  \"channelType\": {\r\n    \"id\": 1,\r\n    \"desc\": \"IDIT_UI\"\r\n  },\r\n  \"preferredDeliveryType\": {\r\n    \"id\": 3,\r\n    \"desc\": \"Email\"\r\n  },\r\n  \"emails\": [\r\n    {\r\n      \"@type\": \"interfaces:EmailIBO\",\r\n      \"emailType\": {\r\n        \"id\": 1000000,\r\n        \"desc\": \"General\"\r\n      },\r\n      \"isPreferredDeliveryAddress\": true,\r\n      \"email\": \"{{$randomEmail}}\"\r\n    }\r\n  ],\r\n\r\n  \"legalFormVO\": {\r\n    \"id\": 1000040,\r\n    \"desc\": \"GmbH\"\r\n  },\r\n  \"entityType\": {\r\n    \"id\": 101,\r\n    \"desc\": \"Legal entity\"\r\n  },\r\n  \"name\": \"{{$randomCompanyName}}\"\r\n}",
							"options": {
								"raw": {
									"language": "json"
								}
							}
						},
						"url": {
							"raw": "{{baseUrl}}/api/contact",
							"host": [
								"{{baseUrl}}"
							],
							"path": [
								"api",
								"contact"
							]
						}
					},
					"response": []
				},
				{
					"name": "Create Quote - PSC",
					"event": [
						{
							"listen": "test",
							"script": {
								"exec": [
									"pm.test(\"Create Quote - PSC\", ()=>{\r",
									"    const res = pm.response.json(); \r",
									"    pm.expect(pm.response.code).to.eql(200);\r",
									"    pm.variables.set(\"proposalExternalID\", res.externalID)\r",
									"    pm.variables.set(\"messageCorrelationId\",  pm.response.headers.get(\"messageCorrelationId\"));\r",
									"    tests[`Quote External ID: ${res.externalID}`] = true;\r",
									"})"
								],
								"type": "text/javascript"
							}
						}
					],
					"request": {
						"method": "POST",
						"header": [
							{
								"key": "username",
								"value": "{{username}}",
								"type": "default"
							},
							{
								"key": "password",
								"value": "{{password}}",
								"type": "default"
							},
							{
								"key": "Cookie",
								"value": "{{cookie}}",
								"type": "default"
							}
						],
						"body": {
							"mode": "raw",
							"raw": "{\r\n  \"startDate\": \"2022-03-17T00:00:00\",\r\n  \"endDate\": \"2023-03-16T23:59:59\",\r\n  \"quoteValidUntil\": \"2022-05-16T00:00:00\",\r\n  \"endorsStartDate\": \"2022-03-17T00:00:00\",\r\n  \"endOfCommitmentDate\": \"2023-03-16T23:59:59\",\r\n  \"channel\": {\r\n    \"id\": 1000001,\r\n    \"desc\": \"Direct\"\r\n  },\r\n  \"statusReason\": {\r\n    \"id\": 103,\r\n    \"desc\": \"Needs more time\"\r\n  },\r\n  \"umbIndustryClass\": {\r\n    \"id\": 1000002,\r\n    \"desc\": \"Consultancy\"\r\n  },\r\n  \"umbTotalTurnover\": 1000000,\r\n  \"paymentTerm\": {\r\n    \"id\": 1000004,\r\n    \"desc\": \"1000004\"\r\n  },\r\n  \"umbProposition\": {\r\n    \"id\": 1000026,\r\n    \"desc\": \"Consult\"\r\n  },\r\n  \"umbRiskDescriptionIVOs\": [\r\n    {\r\n      \"umbRiskDescription\": {\r\n        \"id\": 1000002,\r\n        \"desc\": \"Unternehmens- und Personalberatungen\"\r\n      },\r\n      \"umbRiskPrimary\": true,\r\n      \"umbDocumentRiskDescription\": \"Unternehmens- und Personalberatungen\"\r\n    }\r\n  ],\r\n  \"customerDecision\": {\r\n    \"id\": 3,\r\n    \"desc\": \"Save Quote\"\r\n  },\r\n  \"insuredObjects\": [\r\n    {\r\n      \"mortgageFlag\": false,\r\n      \"assetType\": {\r\n        \"id\": 7,\r\n        \"desc\": \"Other\"\r\n      },\r\n      \"riskObjectAdjustmentTypeIBOs\": [],\r\n      \"asset\": {\r\n        \"@type\": \"interfaces:AssetOtherIVO\",\r\n        \"assetTypeVO\": {\r\n          \"id\": 7,\r\n          \"desc\": \"Other\"\r\n        },\r\n        \"assetDescription\": \"Floating Covers\"\r\n      },\r\n      \"lob\": {\r\n        \"id\": 1,\r\n        \"desc\": \"Property\"\r\n      },\r\n      \"status\": {\r\n        \"id\": 10,\r\n        \"desc\": \"Quote\"\r\n      },\r\n      \"covers\": [\r\n        {\r\n          \"productLineType\": 3,\r\n          \"coverAdjustmentTypeIBOs\": [\r\n            {\r\n              \"defaultAdjustmentPercent\": 5,\r\n              \"applyAtRenewal\": false,\r\n              \"productDiscountType\": {\r\n                \"id\": 1000003,\r\n                \"desc\": \"1000003\"\r\n              },\r\n              \"discountAmount\": 0,\r\n              \"adjustmentPercent\": 5\r\n            }\r\n          ],\r\n          \"productLineOptionType\": {\r\n            \"id\": 1000024,\r\n            \"desc\": \"Cyber\"\r\n          },\r\n          \"coverOptions\": [\r\n            {\r\n              \"optionNumber\": 10,\r\n              \"description\": \"Cyber\",\r\n              \"id\": 1000024\r\n            }\r\n          ],\r\n          \"included\": false,\r\n          \"productLineGroup\": 1000025,\r\n          \"coverOptionName\": \"Cyber\",\r\n          \"status\": {\r\n            \"id\": 10,\r\n            \"desc\": \"Quote\"\r\n          }\r\n        },\r\n        {\r\n          \"productLineType\": 3,\r\n          \"coverAdjustmentTypeIBOs\": [\r\n            {\r\n              \"defaultAdjustmentPercent\": 5,\r\n              \"applyAtRenewal\": false,\r\n              \"productDiscountType\": {\r\n                \"id\": 1000003,\r\n                \"desc\": \"1000003\"\r\n              },\r\n              \"discountAmount\": 0,\r\n              \"adjustmentPercent\": 5\r\n            }\r\n          ],\r\n          \"productLineOptionType\": {\r\n            \"id\": 1000025,\r\n            \"desc\": \"Core Cyber\"\r\n          },\r\n          \"coverOptions\": [\r\n            {\r\n              \"optionNumber\": 10,\r\n              \"description\": \"Core Cyber\",\r\n              \"id\": 1000025\r\n            }\r\n          ],\r\n          \"included\": false,\r\n          \"productLineGroup\": 1000026,\r\n          \"coverOptionName\": \"Core Cyber\",\r\n          \"parentCoverExternalNumber\": \"Cyber\",\r\n          \"status\": {\r\n            \"id\": 10,\r\n            \"desc\": \"Quote\"\r\n          }\r\n        }\r\n      ]\r\n    }\r\n  ],\r\n  \"collectionMethodVO\": {\r\n    \"id\": 1,\r\n    \"desc\": \"Direct Transfer\"\r\n  },\r\n  \"umbPropositionVrs\": {\r\n    \"id\": 1000045,\r\n    \"desc\": \"A.MANG.PF.1903\"\r\n  },\r\n  \"currency\": {\r\n    \"id\": 1,\r\n    \"desc\": \"Euro\"\r\n  },\r\n  \"policyHolderExternalNumber\": \"{{externalID}}\",\r\n  \"collectionMethod\": {\r\n    \"id\": 1,\r\n    \"desc\": \"Direct Transfer\"\r\n  },\r\n  \"product\": {\r\n    \"id\": 1000000,\r\n    \"desc\": \"PSC\"\r\n  },\r\n  \"methodOfPlacementVO\": {\r\n    \"id\": 1000006,\r\n    \"desc\": \"Pre Defined - Hiscox API\"\r\n  }\r\n}",
							"options": {
								"raw": {
									"language": "json"
								}
							}
						},
						"url": {
							"raw": "{{baseUrl}}/api/proposal",
							"host": [
								"{{baseUrl}}"
							],
							"path": [
								"api",
								"proposal"
							]
						}
					},
					"response": []
				},
				{
					"name": "Prepare quote to convert to Policy",
					"event": [
						{
							"listen": "test",
							"script": {
								"exec": [
									"pm.test('Prepare quote to convert to Policy', ()=>{\r",
									"    const proposal =  pm.response.json();\r",
									"    pm.expect(pm.response.code).eqls(200);\r",
									"    pm.variables.set(\"proposal\", proposal);\r",
									"    pm.variables.set('messageCorrelationId', pm.response.headers.get('messageCorrelationId'));\r",
									"});"
								],
								"type": "text/javascript"
							}
						}
					],
					"request": {
						"method": "GET",
						"header": [
							{
								"key": "username",
								"value": "{{username}}",
								"type": "default"
							},
							{
								"key": "password",
								"value": "{{password}}",
								"type": "default"
							}
						],
						"url": {
							"raw": "{{baseUrl}}/api/policy-engine/preparations/proposal?proposalNumber={{proposalExternalID}}",
							"host": [
								"{{baseUrl}}"
							],
							"path": [
								"api",
								"policy-engine",
								"preparations",
								"proposal"
							],
							"query": [
								{
									"key": "proposalNumber",
									"value": "{{proposalExternalID}}"
								}
							]
						}
					},
					"response": []
				},
				{
					"name": "Create Policy",
					"event": [
						{
							"listen": "prerequest",
							"script": {
								"exec": [
									"const proposal = pm.variables.get('proposal');\r",
									"proposal.status = { \"id\" : 20, \"desc\" : \"Policy\" };\r",
									"pm.variables.set('bodyRequest', JSON.stringify(proposal));\r",
									"\r",
									"pm.request.headers.add({\r",
									"     key: 'messageCorrelationId',\r",
									"     value: pm.variables.get(\"messageCorrelationId\")\r",
									"});"
								],
								"type": "text/javascript"
							}
						},
						{
							"listen": "test",
							"script": {
								"exec": [
									"pm.test('Create Policy', ()=> {\r",
									"    const policy = pm.response.json();\r",
									"    const externalID = policy.externalID;\r",
									"    pm.expect(pm.response.code).eqls(200);\r",
									"    pm.variables.set('policyExternalID', policy.externalID);\r",
									"    tests[`Policy Number: ${externalID}`] = true;\r",
									"});"
								],
								"type": "text/javascript"
							}
						}
					],
					"request": {
						"method": "POST",
						"header": [
							{
								"key": "username",
								"value": "{{username}}",
								"type": "default"
							},
							{
								"key": "password",
								"value": "{{password}}",
								"type": "default"
							}
						],
						"body": {
							"mode": "raw",
							"raw": "{{bodyRequest}}",
							"options": {
								"raw": {
									"language": "json"
								}
							}
						},
						"url": {
							"raw": "{{baseUrl}}/api/policy",
							"host": [
								"{{baseUrl}}"
							],
							"path": [
								"api",
								"policy"
							]
						}
					},
					"response": []
				},
				{
					"name": "Prepare policy for Endorsement",
					"event": [
						{
							"listen": "prerequest",
							"script": {
								"exec": [
									"//const policyExternalID = pm.variables.get('policyExternalID');\r",
									"const policyExternalID = 'PL-PSC000047875/021';\r",
									"const index = policyExternalID.indexOf('/');\r",
									"const policyHeaderExternalNumber = parseInt(policyExternalID.slice(0,index).replace(/[^0-9]/g,''));\r",
									"pm.variables.set('policyHeaderExternalNumber', policyHeaderExternalNumber);"
								],
								"type": "text/javascript"
							}
						},
						{
							"listen": "test",
							"script": {
								"exec": [
									"pm.test('Prepare policy for Endorsement', ()=> {\r",
									"    pm.expect(pm.response.code).to.eqls(200);\r",
									"    const policy  = pm.response.json();\r",
									"    pm.variables.set('policy', policy);\r",
									"    pm.variables.set('messageCorrelationId', pm.response.headers.get('messageCorrelationId'));\r",
									"});\r",
									""
								],
								"type": "text/javascript"
							}
						}
					],
					"request": {
						"method": "GET",
						"header": [
							{
								"key": "username",
								"value": "{{username}}",
								"type": "default"
							},
							{
								"key": "password",
								"value": "{{password}}",
								"type": "default"
							}
						],
						"url": {
							"raw": "{{baseUrl}}/api/policy-engine/preparations/policy?policyHeaderNumber={{policyHeaderExternalNumber}}",
							"host": [
								"{{baseUrl}}"
							],
							"path": [
								"api",
								"policy-engine",
								"preparations",
								"policy"
							],
							"query": [
								{
									"key": "policyHeaderNumber",
									"value": "{{policyHeaderExternalNumber}}"
								}
							]
						}
					},
					"response": []
				},
				{
					"name": "Create Endorsement",
					"event": [
						{
							"listen": "prerequest",
							"script": {
								"exec": [
									"pm.request.headers.add({\r",
									"    key : 'messageCorrelationId',\r",
									"    value :  pm.variables.get('messageCorrelationId')\r",
									"});\r",
									"\r",
									"const policy = pm.variables.get('policy');\r",
									"policy.status = { id : 10 };\r",
									"\r",
									"pm.variables.set('endorsementBodyRequest', JSON.stringify(policy));"
								],
								"type": "text/javascript"
							}
						},
						{
							"listen": "test",
							"script": {
								"exec": [
									"pm.test('Create Quote for endorsement', ()=> {\r",
									"    const quote = pm.response.json();\r",
									"    const externalID = quote.externalID;\r",
									"    pm.expect(pm.response.code).eqls(200);\r",
									"    pm.variables.set('proposalExternalID', quote.externalID);\r",
									"    tests[`Quote Number: ${externalID}`] = true;\r",
									"});"
								],
								"type": "text/javascript"
							}
						}
					],
					"request": {
						"method": "POST",
						"header": [
							{
								"key": "username",
								"value": "{{username}}",
								"type": "default"
							},
							{
								"key": "password",
								"value": "{{password}}",
								"type": "default"
							}
						],
						"body": {
							"mode": "raw",
							"raw": "{{endorsementBodyRequest}}",
							"options": {
								"raw": {
									"language": "json"
								}
							}
						},
						"url": {
							"raw": "{{baseUrl}}/api/policy/endorsement",
							"host": [
								"{{baseUrl}}"
							],
							"path": [
								"api",
								"policy",
								"endorsement"
							]
						}
					},
					"response": []
				},
				{
					"name": "Get Quote",
					"event": [
						{
							"listen": "test",
							"script": {
								"exec": [
									"pm.test('Get Quote', ()=>{\r",
									"    pm.expect(pm.response.code).eqls(200);\r",
									"});"
								],
								"type": "text/javascript"
							}
						}
					],
					"request": {
						"method": "GET",
						"header": [
							{
								"key": "username",
								"value": "{{username}}",
								"type": "default"
							},
							{
								"key": "password",
								"value": "{{password}}",
								"type": "default"
							}
						],
						"url": {
							"raw": "{{baseUrl}}/api/proposal/:proposalNumber",
							"host": [
								"{{baseUrl}}"
							],
							"path": [
								"api",
								"proposal",
								":proposalNumber"
							],
							"variable": [
								{
									"key": "proposalNumber",
									"value": "{{proposalExternalID}}"
								}
							]
						}
					},
					"response": []
				}
			]
		}
	]
}