{
	"info": {
		"_postman_id": "c153ef12-0811-4a3b-865e-98a7115bb34b",
		"name": "quote-psc-contact",
		"schema": "https://schema.getpostman.com/json/collection/v2.1.0/collection.json"
	},
	"item": [
		{
			"name": "api",
			"item": [
				{
					"name": "quote",
					"item": [
						{
							"name": "Create a contact",
							"event": [
								{
									"listen": "test",
									"script": {
										"exec": [
											"pm.test(\"Create a contact of the type legal entity\", ()=>{\r",
											"    const res = pm.response.json(); \r",
											"    pm.expect(pm.response.code).to.eql(201);\r",
											"    pm.variables.set(\"externalID\", res.externalID)\r",
											"    tests[`Contact External ID: ${res.externalID}`] = true;\r",
											"});"
										],
										"type": "text/javascript"
									}
								}
							],
							"request": {
								"method": "POST",
								"header": [
									{
										"key": "username",
										"value": "{{username}}",
										"type": "default"
									},
									{
										"key": "password",
										"value": "{{password}}",
										"type": "default"
									},
									{
										"key": "Cookie",
										"value": "{{cookie}}",
										"type": "default"
									}
								],
								"body": {
									"mode": "raw",
									"raw": "{\r\n  \"addresses\": [\r\n    {\r\n      \"@type\": \"interfaces:AddressIBO\",\r\n      \"zipCode\": \"80807\",\r\n      \"country\": {\r\n        \"id\": 77,\r\n        \"desc\": \"GERMANY\"\r\n      },\r\n      \"streetName\": \"Walter-Gropius-Str.\",\r\n      \"cityName\": \"MÜNCHEN\",\r\n      \"houseNr\": \"5\",\r\n      \"districtName\": \"Schwabing-Freimann\",\r\n      \"addressType\": {\r\n        \"id\": 6,\r\n        \"desc\": \"Correspondence address - commercial\"\r\n      }\r\n    }\r\n  ],\r\n  \"telephones\": [\r\n    {\r\n      \"@type\": \"interfaces:TelephoneIBO\",\r\n      \"telephoneNumber\": \"08931760\",\r\n      \"telephoneType\": {\r\n        \"id\": 1000002,\r\n        \"desc\": \"General Telephone\"\r\n      },\r\n      \"countryDialCode\": {\r\n        \"id\": 77,\r\n        \"desc\": \"49\"\r\n      }\r\n    }\r\n  ],\r\n  \"language\": {\r\n    \"id\": 1000000,\r\n    \"desc\": \"German - DE\"\r\n  },\r\n  \"channelType\": {\r\n    \"id\": 1,\r\n    \"desc\": \"IDIT_UI\"\r\n  },\r\n  \"preferredDeliveryType\": {\r\n    \"id\": 3,\r\n    \"desc\": \"Email\"\r\n  },\r\n  \"emails\": [\r\n    {\r\n      \"@type\": \"interfaces:EmailIBO\",\r\n      \"emailType\": {\r\n        \"id\": 1000000,\r\n        \"desc\": \"General\"\r\n      },\r\n      \"isPreferredDeliveryAddress\": true,\r\n      \"email\": \"{{$randomEmail}}\"\r\n    }\r\n  ],\r\n\r\n  \"legalFormVO\": {\r\n    \"id\": 1000040,\r\n    \"desc\": \"GmbH\"\r\n  },\r\n  \"entityType\": {\r\n    \"id\": 101,\r\n    \"desc\": \"Legal entity\"\r\n  },\r\n  \"name\": \"{{$randomCompanyName}}\"\r\n}",
									"options": {
										"raw": {
											"language": "json"
										}
									}
								},
								"url": {
									"raw": "{{baseUrl}}/api/contact",
									"host": [
										"{{baseUrl}}"
									],
									"path": [
										"api",
										"contact"
									]
								}
							},
							"response": []
						},
						{
							"name": "Create a quote",
							"event": [
								{
									"listen": "test",
									"script": {
										"exec": [
											"pm.test(\"Create a nonanonymous quote PSC\", ()=> {\r",
											"    const res = pm.response.json(); \r",
											"    pm.expect(pm.response.code).to.eql(200);\r",
											"    pm.variables.set(\"proposalExternalID\", res.externalID);\r",
											"    tests[`Quote External ID: ${res.externalID}`] = true;\r",
											"});"
										],
										"type": "text/javascript"
									}
								},
								{
									"listen": "prerequest",
									"script": {
										"exec": [
											"pm.variables.set('anonymousContactId', 7);"
										],
										"type": "text/javascript"
									}
								}
							],
							"request": {
								"method": "POST",
								"header": [
									{
										"key": "username",
										"value": "{{username}}",
										"type": "default"
									},
									{
										"key": "password",
										"value": "{{password}}",
										"type": "default"
									},
									{
										"key": "Cookie",
										"value": "{{cookie}}",
										"type": "default"
									}
								],
								"body": {
									"mode": "raw",
									"raw": "{\r\n    \"endDate\": \"2023-03-31T23:59:59\",\r\n    \"channel\": {\r\n        \"id\": 1000001,\r\n        \"desc\": \"Direct\"\r\n    },\r\n    \"quoteValidUntil\": \"2022-05-31T00:00:00\",\r\n    \"endorsStartDate\": \"2022-04-01T00:00:00\",\r\n    \"statusReason\": {\r\n        \"id\": 1000000,\r\n        \"desc\": \"Missing information\"\r\n    },\r\n    \"umbIndustryClass\": {\r\n        \"id\": 1000002,\r\n        \"desc\": \"Consultancy\"\r\n    },\r\n    \"endOfCommitmentDate\": \"2023-03-31T23:59:59\",\r\n    \"umbTotalTurnover\": 100000.0,\r\n    \"paymentTerm\": {\r\n        \"id\": 1000018,\r\n        \"desc\": \"1000018\"\r\n    },\r\n    \"startDate\": \"2022-04-01T00:00:00\",\r\n    \"status\": {\r\n        \"id\": 10,\r\n        \"desc\": \"Quote\"\r\n    },\r\n    \"umbProposition\": {\r\n        \"id\": 1000026,\r\n        \"desc\": \"Consult\"\r\n    },\r\n    \"umbRiskDescriptionIVOs\": [\r\n        {\r\n            \"umbRiskDescription\": {\r\n                \"id\": 1000002,\r\n                \"desc\": \"Unternehmens- und Personalberatungen\"\r\n            },\r\n            \"umbRiskPrimary\": true,\r\n            \"umbDocumentRiskDescription\": \"Unternehmens- und Personalberatungen\"\r\n        }\r\n    ],\r\n    \"customerDecision\": {\r\n        \"id\": 3,\r\n        \"desc\": \"Save Quote\"\r\n    },\r\n    \"insuredObjects\": [\r\n        {\r\n            \"assetType\": {\r\n                \"id\": 7,\r\n                \"desc\": \"Other\"\r\n            },\r\n            \"asset\": {\r\n                \"@type\": \"interfaces:AssetOtherIVO\",\r\n                \"mortgageVO\": [],\r\n                \"assetTypeVO\": {\r\n                    \"id\": 7,\r\n                    \"desc\": \"Other\"\r\n                },\r\n                \"assetIdentifierIVOs\": [],\r\n                \"mortgageFlag\": 0,\r\n                \"updateVersion\": 1,\r\n                \"assetDescription\": \"Floating Covers\",\r\n                \"claimHistoryVOs\": [],\r\n                \"assetBeneficiaryVOs\": [],\r\n                \"assetAdditionalData\": [],\r\n                \"assetItemVOs\": [],\r\n                \"assetRiskVOs\": []\r\n            },\r\n            \"lob\": {\r\n                \"id\": 1,\r\n                \"desc\": \"Property\"\r\n            },\r\n            \"status\": {\r\n                \"id\": 10,\r\n                \"desc\": \"Quote\"\r\n            },\r\n            \"covers\": [\r\n                {\r\n                    \"productLineType\": 3,\r\n                    \"excessAmount\": 0.00,\r\n                    \"coverAdjustmentTypeIBOs\": [\r\n                        {\r\n                            \"defaultAdjustmentPercent\": 5.0000000000,\r\n                            \"applyAtRenewal\": false,\r\n                            \"productDiscountType\": {\r\n                                \"id\": 1000003,\r\n                                \"desc\": \"1000003\"\r\n                            },\r\n                            \"discountAmount\": 0,\r\n                            \"adjustmentPercent\": 5.0000000000\r\n                        }\r\n                    ],\r\n                    \"productLineOptionType\": {\r\n                        \"id\": 1000000,\r\n                        \"desc\": \"Professional Indemnity\"\r\n                    },\r\n                    \"coverOptions\": [\r\n                        {\r\n                            \"optionNumber\": 10,\r\n                            \"description\": \"Professional Indemnity\",\r\n                            \"id\": 1000000\r\n                        }\r\n                    ],\r\n                    \"insuranceAmount\": 0.00,\r\n                    \"cost\": 0.00,\r\n                    \"productLineGroup\": 1000000,\r\n                    \"coverOptionName\": \"Professional Indemnity\",\r\n                    \"status\": {\r\n                        \"id\": 10,\r\n                        \"desc\": \"Quote\"\r\n                    }\r\n                },\r\n                {\r\n                    \"insuranceAmountLevel\": 3,\r\n                    \"productLineType\": 3,\r\n                    \"commissionForColl\": 0.00,\r\n                    \"excessAmount\": 100.00,\r\n                    \"coverAdjustmentTypeIBOs\": [\r\n                        {\r\n                            \"defaultAdjustmentPercent\": 5.0000000000,\r\n                            \"applyAtRenewal\": false,\r\n                            \"updateVersion\": 1,\r\n                            \"productDiscountType\": {\r\n                                \"id\": 1000003,\r\n                                \"desc\": \"1000003\"\r\n                            },\r\n                            \"discountAmount\": 0,\r\n                            \"id\": 62883,\r\n                            \"adjustmentPercent\": 5.0000000000\r\n                        }\r\n                    ],\r\n                    \"productLineOptionType\": {\r\n                        \"id\": 1000001,\r\n                        \"desc\": \"Core Professional Indemnity\"\r\n                    },\r\n                    \"coverOptions\": [\r\n                        {\r\n                            \"optionNumber\": 20,\r\n                            \"description\": \"Core Professional Indemnity\",\r\n                            \"id\": 1000001\r\n                        }\r\n                    ],\r\n                    \"included\": false,\r\n                    \"insuranceAmount\": 100000.00,\r\n                    \"productLineGroup\": 1000001,\r\n                    \"coverOptionName\": \"Core Professional Indemnity\",\r\n                    \"excessLevel\": 5,\r\n                    \"parentCoverExternalNumber\": \"Professional Indemnity\",\r\n                    \"status\": {\r\n                        \"id\": 10,\r\n                        \"desc\": \"Quote\"\r\n                    }\r\n                },\r\n                {\r\n                    \"insuranceAmountLevel\": 1,\r\n                    \"productLineType\": 3,\r\n                    \"excessAmount\": 0.00,\r\n                    \"coverAdjustmentTypeIBOs\": [\r\n                        {\r\n                            \"defaultAdjustmentPercent\": 5.0000000000,\r\n                            \"applyAtRenewal\": false,\r\n                            \"updateVersion\": 1,\r\n                            \"productDiscountType\": {\r\n                                \"id\": 1000003,\r\n                                \"desc\": \"1000003\"\r\n                            },\r\n                            \"discountAmount\": 0,\r\n                            \"id\": 62884,\r\n                            \"adjustmentPercent\": 5.0000000000\r\n                        }\r\n                    ],\r\n                    \"productLineOptionType\": {\r\n                        \"id\": 1000002,\r\n                        \"desc\": \"Core Professional Indemnity Additional Perils\"\r\n                    },\r\n                    \"coverOptions\": [\r\n                        {\r\n                            \"updateVersion\": 274,\r\n                            \"optionNumber\": 30,\r\n                            \"description\": \"Core Professional Indemnity Additional Perils\",\r\n                            \"id\": 1000002\r\n                        }\r\n                    ],\r\n                    \"included\": false,\r\n                    \"insuranceAmount\": 100000.00,\r\n                    \"cost\": 0.00,\r\n                    \"productLineGroup\": 1000002,\r\n                    \"coverOptionName\": \"Core Professional Indemnity Additional Perils\",\r\n                    \"parentCoverExternalNumber\": \"Professional Indemnity\",\r\n                    \"status\": {\r\n                        \"id\": 10,\r\n                        \"desc\": \"Quote\"\r\n                    }\r\n                }\r\n            ]\r\n        }\r\n    ],\r\n    \"collectionMethodVO\": {\r\n        \"id\": 1,\r\n        \"desc\": \"Direct Transfer\"\r\n    },\r\n    \"umbPropositionVrs\": {\r\n        \"id\": 1000045,\r\n        \"desc\": \"A.MANG.PF.1903\"\r\n    },\r\n    \"currency\": {\r\n        \"id\": 1,\r\n        \"desc\": \"Euro\"\r\n    },\r\n    \"policyHolderExternalNumber\": \"{{externalID}}\",\r\n    \"collectionMethod\": {\r\n        \"id\": 1,\r\n        \"desc\": \"Direct Transfer\"\r\n    },\r\n    \"product\": {\r\n        \"id\": 1000000,\r\n        \"desc\": \"PSC\"\r\n    },\r\n    \"isThreeYearsPolicy\": false,\r\n    \"methodOfPlacementVO\": {\r\n        \"id\": 1000006,\r\n        \"desc\": \"Pre Defined - Hiscox API\"\r\n    },\r\n    \"wordingVersionVO\": {\r\n        \"id\": 1000001,\r\n        \"desc\": \"Allgemeine Bedingungen 01/19\"\r\n    }\r\n}",
									"options": {
										"raw": {
											"language": "json"
										}
									}
								},
								"url": {
									"raw": "{{baseUrl}}/api/proposal",
									"host": [
										"{{baseUrl}}"
									],
									"path": [
										"api",
										"proposal"
									]
								}
							},
							"response": []
						},
						{
							"name": "Get quote",
							"event": [
								{
									"listen": "test",
									"script": {
										"exec": [
											"pm.test('Get anonymous quote', ()=>{\r",
											"    const proposal = pm.response.json();\r",
											"    pm.variables.set('proposal', proposal);\r",
											"    pm.expect(pm.response.code).eqls(200);\r",
											"});"
										],
										"type": "text/javascript"
									}
								}
							],
							"request": {
								"method": "GET",
								"header": [
									{
										"key": "username",
										"value": "{{username}}",
										"type": "default"
									},
									{
										"key": "password",
										"value": "{{password}}",
										"type": "default"
									}
								],
								"url": {
									"raw": "{{baseUrl}}/api/proposal/:proposalNumber",
									"host": [
										"{{baseUrl}}"
									],
									"path": [
										"api",
										"proposal",
										":proposalNumber"
									],
									"variable": [
										{
											"key": "proposalNumber",
											"value": "{{proposalExternalID}}"
										}
									]
								}
							},
							"response": []
						},
						{
							"name": "Prepare quote for Update",
							"event": [
								{
									"listen": "test",
									"script": {
										"exec": [
											"pm.test('Prepare quote for update', ()=>{\r",
											"    const proposal =  pm.response.json();\r",
											"    pm.expect(pm.response.code).eqls(200);\r",
											"    pm.variables.set(\"proposal\", proposal);\r",
											"    pm.variables.set('messageCorrelationId', pm.response.headers.get('messageCorrelationId'));\r",
											"});"
										],
										"type": "text/javascript"
									}
								}
							],
							"request": {
								"method": "GET",
								"header": [
									{
										"key": "username",
										"value": "{{username}}",
										"type": "default"
									},
									{
										"key": "password",
										"value": "{{password}}",
										"type": "default"
									}
								],
								"url": {
									"raw": "{{baseUrl}}/api/policy-engine/preparations/proposal?proposalNumber={{proposalExternalID}}",
									"host": [
										"{{baseUrl}}"
									],
									"path": [
										"api",
										"policy-engine",
										"preparations",
										"proposal"
									],
									"query": [
										{
											"key": "proposalNumber",
											"value": "{{proposalExternalID}}"
										}
									]
								}
							},
							"response": []
						},
						{
							"name": "Update quote- Add a new Cover",
							"event": [
								{
									"listen": "prerequest",
									"script": {
										"exec": [
											"\r",
											"const proposal = pm.variables.get('proposal');\r",
											"\r",
											"const requestBody = {\r",
											"    id: proposal.id,\r",
											"    insuredObjects : [ {\r",
											"        id : proposal.insuredObjects[0].id,\r",
											"        covers : [\r",
											"            {\r",
											"                    \"insuranceAmountLevel\": 2,\r",
											"                    \"productLineType\": 3,\r",
											"                    \"excessAmount\": 0.00,\r",
											"                    \"coverAdjustmentTypeIBOs\": [\r",
											"                        {\r",
											"                            \"defaultAdjustmentPercent\": 5.0000000000,\r",
											"                            \"applyAtRenewal\": false,\r",
											"                            \"productDiscountType\": {\r",
											"                                \"id\": 1000003,\r",
											"                                \"desc\": \"1000003\"\r",
											"                            },\r",
											"                            \"discountAmount\": 0,\r",
											"                            \"adjustmentPercent\": 5.0000000000\r",
											"                        }\r",
											"                    ],\r",
											"                    \"productLineOptionType\": {\r",
											"                        \"id\": 1000026,\r",
											"                        \"desc\": \"General Liability\"\r",
											"                    },\r",
											"                    \"coverOptions\": [\r",
											"                        {\r",
											"                            \"updateVersion\": 111,\r",
											"                            \"optionNumber\": 10,\r",
											"                            \"description\": \"General Liability\",\r",
											"                            \"id\": 1000026\r",
											"                        }\r",
											"                    ],\r",
											"                    \"included\": false,\r",
											"                    \"insuranceAmount\": 5000000.00,\r",
											"                    \"productLineGroup\": 1000027,\r",
											"                    \"excessOptions\": [],\r",
											"                    \"coverOptionName\": \"General Liability\",\r",
											"                    \"excessLevel\": 1,\r",
											"                    \"status\": {\r",
											"                        \"id\": 10,\r",
											"                        \"desc\": \"Quote\"\r",
											"                    }\r",
											"                }]\r",
											"        }]\r",
											"};\r",
											"\r",
											"pm.variables.set('requestBody', JSON.stringify(requestBody));\r",
											"\r",
											"pm.request.headers.upsert({\r",
											"    key: 'messageCorrelationId',\r",
											"    value: pm.variables.get('messageCorrelationId')\r",
											"});"
										],
										"type": "text/javascript"
									}
								},
								{
									"listen": "test",
									"script": {
										"exec": [
											"pm.test('Add a new cover to the quote', ()=>{\r",
											"    const proposal = pm.response.json();\r",
											"    pm.expect(pm.response.code).eqls(200);\r",
											"    pm.variables.set('proposalExternalID', proposal.externalID)\r",
											"     tests[`Quote External ID: ${proposal.externalID}`] = true;\r",
											"});"
										],
										"type": "text/javascript"
									}
								}
							],
							"request": {
								"method": "PUT",
								"header": [
									{
										"key": "username",
										"value": "{{username}}",
										"type": "default"
									},
									{
										"key": "password",
										"value": "{{password}}",
										"type": "default"
									}
								],
								"body": {
									"mode": "raw",
									"raw": "{{requestBody}}",
									"options": {
										"raw": {
											"language": "json"
										}
									}
								},
								"url": {
									"raw": "{{baseUrl}}/api/proposal/:proposalNumber",
									"host": [
										"{{baseUrl}}"
									],
									"path": [
										"api",
										"proposal",
										":proposalNumber"
									],
									"variable": [
										{
											"key": "proposalNumber",
											"value": "{{proposalExternalID}}"
										}
									]
								}
							},
							"response": []
						},
						{
							"name": "Get the new version of the quote",
							"event": [
								{
									"listen": "test",
									"script": {
										"exec": [
											"pm.test('Get anonymous quote', ()=>{\r",
											"    const proposal = pm.response.json();\r",
											"    pm.variables.set('proposal', proposal);\r",
											"    pm.expect(pm.response.code).eqls(200);\r",
											"});"
										],
										"type": "text/javascript"
									}
								}
							],
							"request": {
								"method": "GET",
								"header": [
									{
										"key": "username",
										"value": "{{username}}",
										"type": "default"
									},
									{
										"key": "password",
										"value": "{{password}}",
										"type": "default"
									}
								],
								"url": {
									"raw": "{{baseUrl}}/api/proposal/:proposalNumber",
									"host": [
										"{{baseUrl}}"
									],
									"path": [
										"api",
										"proposal",
										":proposalNumber"
									],
									"variable": [
										{
											"key": "proposalNumber",
											"value": "{{proposalExternalID}}"
										}
									]
								}
							},
							"response": []
						},
						{
							"name": "Quote calculations",
							"event": [
								{
									"listen": "prerequest",
									"script": {
										"exec": [
											"const proposal = pm.variables.get('proposal');\r",
											"pm.variables.set('totalYearlyPremium', proposal.totalYearlyPremium);\r",
											"const covers = proposal.insuredObjects[0].covers;\r",
											"proposal.insuredObjects[0].covers = covers.splice(0,2)\r",
											"pm.variables.set('requestBody', JSON.stringify(proposal));\r",
											"\r",
											""
										],
										"type": "text/javascript"
									}
								},
								{
									"listen": "test",
									"script": {
										"exec": [
											"pm.test('Calculate the quote premium after removing a cover', ()=>{\r",
											"    const totalYearlyPremium =  pm.variables.get('totalYearlyPremium');\r",
											"    const proposal = pm.response.json();\r",
											"    tests[`Total yearly premium before calculation: ${totalYearlyPremium}`] = true;\r",
											"    tests[`Total yearly premium after calculation: ${proposal.totalYearlyPremium}`] = true;\r",
											"    pm.expect(proposal.totalYearlyPremium).not.eqls(totalYearlyPremium);\r",
											"});"
										],
										"type": "text/javascript"
									}
								}
							],
							"request": {
								"method": "POST",
								"header": [
									{
										"key": "username",
										"value": "{{username}}",
										"type": "default"
									},
									{
										"key": "password",
										"value": "{{password}}",
										"type": "default"
									}
								],
								"body": {
									"mode": "raw",
									"raw": "{{requestBody}}",
									"options": {
										"raw": {
											"language": "json"
										}
									}
								},
								"url": {
									"raw": "{{baseUrl}}/api/policy-engine/calculations/standard/proposal",
									"host": [
										"{{baseUrl}}"
									],
									"path": [
										"api",
										"policy-engine",
										"calculations",
										"standard",
										"proposal"
									]
								}
							},
							"response": []
						},
						{
							"name": "Prepare quote to  convert to Policy",
							"event": [
								{
									"listen": "test",
									"script": {
										"exec": [
											"pm.test('Prepare quote to convert to Policy', ()=>{\r",
											"    const proposal =  pm.response.json();\r",
											"    pm.expect(pm.response.code).eqls(200);\r",
											"    pm.variables.set(\"proposal\", proposal);\r",
											"    pm.variables.set('messageCorrelationId', pm.response.headers.get('messageCorrelationId'));\r",
											"});"
										],
										"type": "text/javascript"
									}
								}
							],
							"request": {
								"method": "GET",
								"header": [
									{
										"key": "username",
										"value": "{{username}}",
										"type": "default"
									},
									{
										"key": "password",
										"value": "{{password}}",
										"type": "default"
									}
								],
								"url": {
									"raw": "{{baseUrl}}/api/policy-engine/preparations/proposal?proposalNumber={{proposalExternalID}}",
									"host": [
										"{{baseUrl}}"
									],
									"path": [
										"api",
										"policy-engine",
										"preparations",
										"proposal"
									],
									"query": [
										{
											"key": "proposalNumber",
											"value": "{{proposalExternalID}}"
										}
									]
								}
							},
							"response": []
						},
						{
							"name": "Create policy",
							"event": [
								{
									"listen": "prerequest",
									"script": {
										"exec": [
											"const proposal = pm.variables.get('proposal');\r",
											"\r",
											"proposal.status = { \"id\" : 20, \"desc\" : \"Policy\" };\r",
											"pm.variables.set('requestBody', JSON.stringify(proposal));\r",
											"\r",
											"pm.request.headers.add({\r",
											"     key: 'messageCorrelationId',\r",
											"     value: pm.variables.get(\"messageCorrelationId\")\r",
											"});"
										],
										"type": "text/javascript"
									}
								},
								{
									"listen": "test",
									"script": {
										"exec": [
											"pm.test('Create a new policy based on a quote', ()=> {\r",
											"    const policy = pm.response.json();\r",
											"    const externalID = policy.externalID;\r",
											"    pm.expect(pm.response.code).eqls(200);\r",
											"    pm.variables.set('policyExternalID', policy.externalID);\r",
											"    tests[`Policy Number: ${externalID}`] = true;\r",
											"});"
										],
										"type": "text/javascript"
									}
								}
							],
							"request": {
								"method": "POST",
								"header": [
									{
										"key": "username",
										"value": "{{username}}",
										"type": "default"
									},
									{
										"key": "password",
										"value": "{{password}}",
										"type": "default"
									}
								],
								"body": {
									"mode": "raw",
									"raw": "{{requestBody}}",
									"options": {
										"raw": {
											"language": "json"
										}
									}
								},
								"url": {
									"raw": "{{baseUrl}}/api/policy",
									"host": [
										"{{baseUrl}}"
									],
									"path": [
										"api",
										"policy"
									]
								}
							},
							"response": []
						}
					]
				}
			]
		}
	]
}