{
	"id": "a6565fda-95de-4fe7-912a-efb0ee6fcb0a",
	"name": "HXEU_CI_QA",
	"values": [
		{
			"key": "host",
			"value": "10.86.0.6",
			"enabled": true
		},
		{
			"key": "baseUrl",
			"value": "http://{{host}}:{{port}}/idit-web",
			"enabled": true
		},
		{
			"key": "port",
			"value": "9001",
			"enabled": true
		},
		{
			"key": "onBehalfOf",
			"value": null,
			"enabled": false
		},
		{
			"key": "username",
			"value": "Administrator",
			"enabled": true
		},
		{
			"key": "password",
			"value": "1111",
			"enabled": true
		},
		{
			"key": "contactExtNumber",
			"value": "",
			"enabled": false
		},
		{
			"key": "contactData",
			"value": "",
			"enabled": true
		},
		{
			"key": "agentMasterNumber",
			"value": "",
			"enabled": true
		},
		{
			"key": "masterNumber",
			"value": "",
			"enabled": true
		},
		{
			"key": "agentNumber",
			"value": "",
			"enabled": true
		},
		{
			"key": "contactExtNumber",
			"value": "",
			"enabled": true
		},
		{
			"key": "proposalNumber",
			"value": "",
			"type": "any",
			"enabled": true
		},
		{
			"key": "proposalVersion",
			"value": "",
			"type": "any",
			"enabled": true
		},
		{
			"key": "messageCorrelationId",
			"value": "",
			"type": "any",
			"enabled": true
		},
		{
			"key": "contactIdentifier",
			"value": "",
			"type": "any",
			"enabled": true
		}
	],
	"_postman_variable_scope": "environment",
	"_postman_exported_at": "2022-03-04T14:07:48.444Z",
	"_postman_exported_using": "Postman/9.14.9"
}