{
	"info": {
		"_postman_id": "590e8479-54e6-428b-848a-ec7e6ef8aade",
		"name": "policy-psc-endorsement-suspend-unsuspend-covers",
		"schema": "https://schema.getpostman.com/json/collection/v2.1.0/collection.json"
	},
	"item": [
		{
			"name": "api",
			"item": [
				{
					"name": "Endorsement",
					"item": [
						{
							"name": "Create a Contact - Legal entity",
							"event": [
								{
									"listen": "test",
									"script": {
										"exec": [
											"pm.test(\"Create Contact - PSC\", ()=>{\r",
											"    const res = pm.response.json(); \r",
											"    pm.expect(pm.response.code).to.eql(201);\r",
											"    pm.variables.set(\"externalID\", res.externalID)\r",
											"    tests[`Contact External ID: ${res.externalID}`] = true;\r",
											"});"
										],
										"type": "text/javascript"
									}
								}
							],
							"request": {
								"method": "POST",
								"header": [
									{
										"key": "username",
										"value": "{{username}}",
										"type": "default"
									},
									{
										"key": "password",
										"value": "{{password}}",
										"type": "default"
									},
									{
										"key": "Cookie",
										"value": "{{cookie}}",
										"type": "default"
									}
								],
								"body": {
									"mode": "raw",
									"raw": "{\r\n  \"addresses\": [\r\n    {\r\n      \"@type\": \"interfaces:AddressIBO\",\r\n      \"zipCode\": \"80807\",\r\n      \"country\": {\r\n        \"id\": 77,\r\n        \"desc\": \"GERMANY\"\r\n      },\r\n      \"streetName\": \"Walter-Gropius-Str.\",\r\n      \"cityName\": \"MÜNCHEN\",\r\n      \"houseNr\": \"5\",\r\n      \"districtName\": \"Schwabing-Freimann\",\r\n      \"addressType\": {\r\n        \"id\": 6,\r\n        \"desc\": \"Correspondence address - commercial\"\r\n      }\r\n    }\r\n  ],\r\n  \"telephones\": [\r\n    {\r\n      \"@type\": \"interfaces:TelephoneIBO\",\r\n      \"telephoneNumber\": \"08931760\",\r\n      \"telephoneType\": {\r\n        \"id\": 1000002,\r\n        \"desc\": \"General Telephone\"\r\n      },\r\n      \"countryDialCode\": {\r\n        \"id\": 77,\r\n        \"desc\": \"49\"\r\n      }\r\n    }\r\n  ],\r\n  \"language\": {\r\n    \"id\": 1000000,\r\n    \"desc\": \"German - DE\"\r\n  },\r\n  \"channelType\": {\r\n    \"id\": 1,\r\n    \"desc\": \"IDIT_UI\"\r\n  },\r\n  \"preferredDeliveryType\": {\r\n    \"id\": 3,\r\n    \"desc\": \"Email\"\r\n  },\r\n  \"emails\": [\r\n    {\r\n      \"@type\": \"interfaces:EmailIBO\",\r\n      \"emailType\": {\r\n        \"id\": 1000000,\r\n        \"desc\": \"General\"\r\n      },\r\n      \"isPreferredDeliveryAddress\": true,\r\n      \"email\": \"{{$randomEmail}}\"\r\n    }\r\n  ],\r\n\r\n  \"legalFormVO\": {\r\n    \"id\": 1000040,\r\n    \"desc\": \"GmbH\"\r\n  },\r\n  \"entityType\": {\r\n    \"id\": 101,\r\n    \"desc\": \"Legal entity\"\r\n  },\r\n  \"name\": \"{{$randomCompanyName}}\",\r\n \"contactBankAccounts\": [\r\n        {\r\n            \"country\": {\r\n                \"id\": 77,\r\n                \"desc\": \"Germany\"\r\n            },\r\n            \"updateVersion\": 2,\r\n            \"ibanReference\": \"DE89370400440532013000\",\r\n            \"bankAccountExternalNumber\": \"25313\",\r\n            \"bicCode\": \"AARBDE5W700\",\r\n            \"paymentChannel\": {\r\n                \"id\": 1,\r\n                \"desc\": \"Bank Accounts\"\r\n            },\r\n            \"directDebitMandate\": [\r\n                {\r\n\r\n                    \"mandateStatus\": {\r\n                        \"id\": 10001,\r\n                        \"desc\": \"New\"\r\n                    },\r\n                    \"approvalNumber\": \"4286\"\r\n                }\r\n            ],\r\n            \"onHoldForDirectDebitEu\": true,\r\n            \"bankAccountHolderName\": \"{{$randomBankAccountName}}\",\r\n            \"remarks\": \"Personal Loan Account\",\r\n            \"bankAccountHolderAddress\": \"Schloß Nymphenburg 1, 80638 MÜNCHEN\"\r\n        }\r\n    ]\r\n}",
									"options": {
										"raw": {
											"language": "json"
										}
									}
								},
								"url": {
									"raw": "{{baseUrl}}/api/contact",
									"host": [
										"{{baseUrl}}"
									],
									"path": [
										"api",
										"contact"
									]
								}
							},
							"response": []
						},
						{
							"name": "Create Quote - PSC",
							"event": [
								{
									"listen": "test",
									"script": {
										"exec": [
											"pm.test(\"Create Quote - PSC\", ()=>{\r",
											"    const res = pm.response.json(); \r",
											"    pm.expect(pm.response.code).to.eql(200);\r",
											"    pm.variables.set(\"proposalExternalID\", res.externalID)\r",
											"    pm.variables.set(\"messageCorrelationId\",  pm.response.headers.get(\"messageCorrelationId\"));\r",
											"    tests[`Quote External ID: ${res.externalID}`] = true;\r",
											"})"
										],
										"type": "text/javascript"
									}
								}
							],
							"request": {
								"method": "POST",
								"header": [
									{
										"key": "username",
										"value": "{{username}}",
										"type": "default"
									},
									{
										"key": "password",
										"value": "{{password}}",
										"type": "default"
									},
									{
										"key": "Cookie",
										"value": "{{cookie}}",
										"type": "default"
									}
								],
								"body": {
									"mode": "raw",
									"raw": "{\r\n    \"endDate\": \"2023-03-31T23:59:59\",\r\n    \"subsidiaryTurnoverBreakdownIVOs\": [\r\n        {\r\n            \"shareTurnoverAmount\": 100000.0000000000,\r\n            \"shareTurnoverPercent\": 100,\r\n            \"updateVersion\": 1,\r\n            \"contactExtNum\": \"{{externalID}}\"\r\n        }\r\n    ],\r\n    \"channel\": {\r\n        \"id\": 1000001,\r\n        \"desc\": \"Direct\"\r\n    },\r\n    \r\n    \"quoteValidUntil\": \"2022-05-31T00:00:00\",\r\n    \"endorsStartDate\": \"2022-04-01T00:00:00\",\r\n    \"statusReason\": {\r\n        \"id\": 1000000,\r\n        \"desc\": \"Missing information\"\r\n    },\r\n    \"umbIndustryClass\": {\r\n        \"id\": 1000002,\r\n        \"desc\": \"Consultancy\"\r\n    },\r\n    \"endOfCommitmentDate\": \"2023-03-31T23:59:59\",\r\n    \"umbTotalTurnover\": 100000.0,\r\n    \"paymentTerm\": {\r\n         \"id\": 1000005,\r\n        \"desc\": \"1000005\"\r\n    },\r\n    \"startDate\": \"2022-04-01T00:00:00\",\r\n    \"umbProposition\": {\r\n        \"id\": 1000026,\r\n        \"desc\": \"Consult\"\r\n    },\r\n    \"umbRiskDescriptionIVOs\": [\r\n        {\r\n            \"umbRiskDescription\": {\r\n                \"id\": 1000002,\r\n                \"desc\": \"Unternehmens- und Personalberatungen\"\r\n            },\r\n            \"umbRiskPrimary\": true,\r\n            \"updateVersion\": 1,\r\n            \"umbDocumentRiskDescription\": \"Unternehmens- und Personalberatungen\"\r\n        }\r\n    ],\r\n    \"customerDecision\": {\r\n        \"id\": 3,\r\n        \"desc\": \"Save Quote\"\r\n    },\r\n    \"insuredObjects\": [\r\n        {\r\n            \"insuranceAmount\": 6000000.00,\r\n            \"mortgageFlag\": false,\r\n            \"updateVersion\": -1,\r\n            \"activeCoversNetYearlyPremium\": 1609.40,\r\n            \"yearlyPremium\": 1915.19,\r\n            \"assetType\": {\r\n                \"id\": 7,\r\n                \"desc\": \"Other\"\r\n            },\r\n            \"policyItemUnderwritingAlertsIBO\": [],\r\n            \"clauseIBOs\": [],\r\n            \"riskObjectAdjustmentTypeIBOs\": [],\r\n            \"yearlyPremiumTax\": 305.79,\r\n            \"id\": -278187982,\r\n            \"loadingYearlyPremium\": 0.00,\r\n            \"asset\": {\r\n                \"@type\": \"interfaces:AssetOtherIVO\",\r\n                \"mortgageVO\": [],\r\n                \"assetTypeVO\": {\r\n                    \"id\": 7,\r\n                    \"desc\": \"Other\"\r\n                },\r\n                \"assetIdentifierIVOs\": [],\r\n                \"mortgageFlag\": 0,\r\n                \"updateVersion\": 1,\r\n                \"assetDescription\": \"Floating Covers\",\r\n                \"claimHistoryVOs\": [],\r\n                \"assetBeneficiaryVOs\": [],\r\n                \"assetAdditionalData\": [],\r\n                \"assetItemVOs\": [],\r\n                \"id\": 44519,\r\n                \"assetRiskVOs\": []\r\n            },\r\n            \"lob\": {\r\n                \"id\": 1,\r\n                \"desc\": \"Property\"\r\n            },\r\n            \"status\": {\r\n                \"id\": 10,\r\n                \"desc\": \"Quote\"\r\n            },\r\n            \"covers\": [\r\n                {\r\n                    \"productLineType\": 3,\r\n                    \"updateVersion\": -1,\r\n                    \"commissionForColl\": 0.00,\r\n                    \"excessAmount\": 0.00,\r\n                    \"coverAdjustmentTypeIBOs\": [\r\n                        {\r\n                            \"isUserAuthorized\": true,\r\n                            \"defaultAdjustmentPercent\": 5.0000000000,\r\n                            \"applyAtRenewal\": false,\r\n                            \"updateVersion\": -1,\r\n                            \"productDiscountType\": {\r\n                                \"id\": 1000003,\r\n                                \"desc\": \"1000003\"\r\n                            },\r\n                            \"discountAmount\": 0,\r\n                            \"id\": -484577445,\r\n                            \"adjustmentPercent\": 5.0000000000\r\n                        }\r\n                    ],\r\n                    \"loadingForColl\": 0.00,\r\n                    \"productLineOptionType\": {\r\n                        \"id\": 1000000,\r\n                        \"desc\": \"Professional Indemnity\"\r\n                    },\r\n                    \"id\": -345777921,\r\n                    \"premiumForColl\": 0.00,\r\n                    \"coverOptions\": [\r\n                        {\r\n                            \"updateVersion\": 12,\r\n                            \"optionNumber\": 10,\r\n                            \"description\": \"Professional Indemnity\",\r\n                            \"id\": 1000000\r\n                        }\r\n                    ],\r\n                    \"included\": false,\r\n                    \"insuranceAmount\": 0.00,\r\n                    \"cost\": 0.00,\r\n                    \"netPremiumForColl\": 0.00,\r\n                    \"productLineGroup\": 1000000,\r\n                    \"excessOptions\": [],\r\n                    \"taxForColl\": 0.00,\r\n                    \"policyItemUnderwritingAlertsIBO\": [],\r\n                    \"coverOptionName\": \"Professional Indemnity\",\r\n                    \"clauseIBOs\": [],\r\n                    \"insuranceAmountOptions\": [],\r\n                    \"status\": {\r\n                        \"id\": 10,\r\n                        \"desc\": \"Quote\"\r\n                    }\r\n                },\r\n                {\r\n                    \"insuranceAmountLevel\": 3,\r\n                    \"productLineType\": 3,\r\n                    \"updateVersion\": -1,\r\n                    \"commissionForColl\": 0.00,\r\n                    \"excessAmount\": 100.00,\r\n                    \"coverAdjustmentTypeIBOs\": [\r\n                        {\r\n                            \"defaultAdjustmentPercent\": 5.0000000000,\r\n                            \"applyAtRenewal\": false,\r\n                            \"updateVersion\": -1,\r\n                            \"productDiscountType\": {\r\n                                \"id\": 1000003,\r\n                                \"desc\": \"1000003\"\r\n                            },\r\n                            \"discountAmount\": 0,\r\n                            \"id\": -921079029,\r\n                            \"adjustmentPercent\": 5.0000000000\r\n                        }\r\n                    ],\r\n                    \"loadingForColl\": 0.00,\r\n                    \"productLineOptionType\": {\r\n                        \"id\": 1000001,\r\n                        \"desc\": \"Core Professional Indemnity\"\r\n                    },\r\n                    \"id\": -104251414,\r\n                    \"premiumForColl\": 0.00,\r\n                    \"coverOptions\": [\r\n                        {\r\n                            \"updateVersion\": 279,\r\n                            \"optionNumber\": 20,\r\n                            \"description\": \"Core Professional Indemnity\",\r\n                            \"id\": 1000001\r\n                        }\r\n                    ],\r\n                    \"included\": false,\r\n                    \"insuranceAmount\": 100000.00,\r\n                    \"cost\": 0.00,\r\n                    \"netPremiumForColl\": 0.00,\r\n                    \"productLineGroup\": 1000001,\r\n                    \"excessOptions\": [],\r\n                    \"taxForColl\": 0.00,\r\n                    \"policyItemUnderwritingAlertsIBO\": [],\r\n                    \"coverOptionName\": \"Core Professional Indemnity\",\r\n                    \"excessLevel\": 5,\r\n                    \"clauseIBOs\": [\r\n                        {\r\n                            \"updateVersion\": -1,\r\n                            \"lobClauseVO\": {\r\n                                \"id\": 1000042,\r\n                                \"desc\": \"Antrag Vereine\"\r\n                            },\r\n                            \"isExistedClause\": false,\r\n                            \"clauseVersionVO\": {\r\n                                \"id\": 1000599,\r\n                                \"desc\": \"Antrag Vereine\"\r\n                            },\r\n                            \"clauseTypeVO\": {\r\n                                \"id\": 1,\r\n                                \"desc\": \"Mandatory\"\r\n                            },\r\n                            \"id\": -297750959\r\n                        }\r\n                    ],\r\n                    \"insuranceAmountOptions\": [],\r\n                    \"status\": {\r\n                        \"id\": 10,\r\n                        \"desc\": \"Quote\"\r\n                    }\r\n                },\r\n                {\r\n                    \"insuranceAmountLevel\": 2,\r\n                    \"productLineType\": 3,\r\n                    \"updateVersion\": -1,\r\n                    \"commissionForColl\": 0.00,\r\n                    \"excessAmount\": 100.00,\r\n                    \"coverAdjustmentTypeIBOs\": [\r\n                        {\r\n                            \"isUserAuthorized\": true,\r\n                            \"defaultAdjustmentPercent\": 5.0000000000,\r\n                            \"applyAtRenewal\": false,\r\n                            \"updateVersion\": -1,\r\n                            \"productDiscountType\": {\r\n                                \"id\": 1000003,\r\n                                \"desc\": \"1000003\"\r\n                            },\r\n                            \"discountAmount\": 0,\r\n                            \"id\": -910905087,\r\n                            \"adjustmentPercent\": 5.0000000000\r\n                        }\r\n                    ],\r\n                    \"loadingForColl\": 0.00,\r\n                    \"productLineOptionType\": {\r\n                        \"id\": 1000026,\r\n                        \"desc\": \"General Liability\"\r\n                    },\r\n                    \"id\": -160489359,\r\n                    \"premiumForColl\": 0.00,\r\n                    \"coverOptions\": [\r\n                        {\r\n                            \"updateVersion\": 111,\r\n                            \"optionNumber\": 10,\r\n                            \"description\": \"General Liability\",\r\n                            \"id\": 1000026\r\n                        }\r\n                    ],\r\n                    \"included\": false,\r\n                    \"insuranceAmount\": 5000000.00,\r\n                    \"cost\": 0.00,\r\n                    \"netPremiumForColl\": 0.00,\r\n                    \"productLineGroup\": 1000027,\r\n                    \"excessOptions\": [],\r\n                    \"taxForColl\": 0.00,\r\n                    \"policyItemUnderwritingAlertsIBO\": [],\r\n                    \"coverOptionName\": \"General Liability\",\r\n                    \"excessLevel\": 2,\r\n                    \"clauseIBOs\": [\r\n                        {\r\n                            \"updateVersion\": -1,\r\n                            \"lobClauseVO\": {\r\n                                \"id\": 1000333,\r\n                                \"desc\": \"Räumlicher Geltungsbereich USA/Kanada\"\r\n                            },\r\n                            \"isExistedClause\": true,\r\n                            \"clauseVersionVO\": {\r\n                                \"id\": 1000620,\r\n                                \"desc\": \"Räumlicher Geltungsbereich USA/Kanada\"\r\n                            },\r\n                            \"clauseTypeVO\": {\r\n                                \"id\": 1,\r\n                                \"desc\": \"Mandatory\"\r\n                            },\r\n                            \"id\": -657389994\r\n                        },\r\n                        {\r\n                            \"updateVersion\": -1,\r\n                            \"lobClauseVO\": {\r\n                                \"id\": 1000309,\r\n                                \"desc\": \"Antrag Vereine\"\r\n                            },\r\n                            \"isExistedClause\": true,\r\n                            \"clauseVersionVO\": {\r\n                                \"id\": 1000600,\r\n                                \"desc\": \"Antrag Vereine\"\r\n                            },\r\n                            \"clauseTypeVO\": {\r\n                                \"id\": 1,\r\n                                \"desc\": \"Mandatory\"\r\n                            },\r\n                            \"id\": -587348529\r\n                        }\r\n                    ],\r\n                    \"insuranceAmountOptions\": [],\r\n                    \"status\": {\r\n                        \"id\": 10,\r\n                        \"desc\": \"Quote\"\r\n                    }\r\n                },\r\n                {\r\n                    \"productLineType\": 3,\r\n                    \"updateVersion\": -1,\r\n                    \"commissionForColl\": 0.00,\r\n                    \"excessAmount\": 0.00,\r\n                    \"coverAdjustmentTypeIBOs\": [\r\n                        {\r\n                            \"isUserAuthorized\": true,\r\n                            \"defaultAdjustmentPercent\": 5.0000000000,\r\n                            \"applyAtRenewal\": false,\r\n                            \"updateVersion\": -1,\r\n                            \"productDiscountType\": {\r\n                                \"id\": 1000003,\r\n                                \"desc\": \"1000003\"\r\n                            },\r\n                            \"discountAmount\": 0,\r\n                            \"id\": -740436132,\r\n                            \"adjustmentPercent\": 5.0000000000\r\n                        }\r\n                    ],\r\n                    \"loadingForColl\": 0.00,\r\n                    \"productLineOptionType\": {\r\n                        \"id\": 1000024,\r\n                        \"desc\": \"Cyber\"\r\n                    },\r\n                    \"id\": -455902602,\r\n                    \"premiumForColl\": 0.00,\r\n                    \"coverOptions\": [\r\n                        {\r\n                            \"updateVersion\": 5,\r\n                            \"optionNumber\": 10,\r\n                            \"description\": \"Cyber\",\r\n                            \"id\": 1000024\r\n                        }\r\n                    ],\r\n                    \"included\": false,\r\n                    \"insuranceAmount\": 0.00,\r\n                    \"cost\": 0.00,\r\n                    \"netPremiumForColl\": 0.00,\r\n                    \"productLineGroup\": 1000025,\r\n                    \"excessOptions\": [],\r\n                    \"taxForColl\": 0.00,\r\n                    \"policyItemUnderwritingAlertsIBO\": [],\r\n                    \"coverOptionName\": \"Cyber\",\r\n                    \"clauseIBOs\": [],\r\n                    \"insuranceAmountOptions\": [],\r\n                    \"status\": {\r\n                        \"id\": 10,\r\n                        \"desc\": \"Quote\"\r\n                    }\r\n                },\r\n                {\r\n                    \"insuranceAmountLevel\": 3,\r\n                    \"productLineType\": 3,\r\n                    \"updateVersion\": -1,\r\n                    \"commissionForColl\": 0.00,\r\n                    \"excessAmount\": 1000.00,\r\n                    \"coverAdjustmentTypeIBOs\": [\r\n                        {\r\n                            \"defaultAdjustmentPercent\": 5.0000000000,\r\n                            \"applyAtRenewal\": false,\r\n                            \"updateVersion\": -1,\r\n                            \"productDiscountType\": {\r\n                                \"id\": 1000003,\r\n                                \"desc\": \"1000003\"\r\n                            },\r\n                            \"discountAmount\": 0,\r\n                            \"id\": -377722077,\r\n                            \"adjustmentPercent\": 5.0000000000\r\n                        }\r\n                    ],\r\n                    \"loadingForColl\": 0.00,\r\n                    \"productLineOptionType\": {\r\n                        \"id\": 1000025,\r\n                        \"desc\": \"Core Cyber\"\r\n                    },\r\n                    \"id\": -989622144,\r\n                    \"premiumForColl\": 0.00,\r\n                    \"coverOptions\": [\r\n                        {\r\n                            \"updateVersion\": 81,\r\n                            \"optionNumber\": 10,\r\n                            \"description\": \"Core Cyber\",\r\n                            \"id\": 1000025\r\n                        }\r\n                    ],\r\n                    \"included\": false,\r\n                    \"insuranceAmount\": 250000.00,\r\n                    \"cost\": 0.00,\r\n                    \"netPremiumForColl\": 0.00,\r\n                    \"productLineGroup\": 1000026,\r\n                    \"excessOptions\": [],\r\n                    \"taxForColl\": 0.00,\r\n                    \"policyItemUnderwritingAlertsIBO\": [],\r\n                    \"coverOptionName\": \"Core Cyber\",\r\n                    \"excessLevel\": 20,\r\n                    \"clauseIBOs\": [\r\n                        {\r\n                            \"updateVersion\": -1,\r\n                            \"lobClauseVO\": {\r\n                                \"id\": 1000294,\r\n                                \"desc\": \"USA/KANADA AUSSCHLÜSSE\"\r\n                            },\r\n                            \"isExistedClause\": false,\r\n                            \"clauseVersionVO\": {\r\n                                \"id\": 1000267,\r\n                                \"desc\": \"USA/KANADA AUSSCHLÜSSE\"\r\n                            },\r\n                            \"clauseTypeVO\": {\r\n                                \"id\": 1,\r\n                                \"desc\": \"Mandatory\"\r\n                            },\r\n                            \"id\": -120313670\r\n                        }\r\n                    ],\r\n                    \"insuranceAmountOptions\": [],\r\n                    \"status\": {\r\n                        \"id\": 10,\r\n                        \"desc\": \"Quote\"\r\n                    }\r\n                },\r\n                {\r\n                    \"productLineType\": 3,\r\n                    \"updateVersion\": -1,\r\n                    \"commissionForColl\": 0.00,\r\n                    \"excessAmount\": 0.00,\r\n                    \"coverAdjustmentTypeIBOs\": [\r\n                        {\r\n                            \"isUserAuthorized\": true,\r\n                            \"defaultAdjustmentPercent\": 5.0000000000,\r\n                            \"applyAtRenewal\": false,\r\n                            \"updateVersion\": -1,\r\n                            \"productDiscountType\": {\r\n                                \"id\": 1000003,\r\n                                \"desc\": \"1000003\"\r\n                            },\r\n                            \"discountAmount\": 0,\r\n                            \"id\": -666866847,\r\n                            \"adjustmentPercent\": 5.0000000000\r\n                        }\r\n                    ],\r\n                    \"loadingForColl\": 0.00,\r\n                    \"productLineOptionType\": {\r\n                        \"id\": 1000027,\r\n                        \"desc\": \"Directors and Officers\"\r\n                    },\r\n                    \"id\": -926291143,\r\n                    \"premiumForColl\": 0.00,\r\n                    \"coverOptions\": [\r\n                        {\r\n                            \"updateVersion\": 7,\r\n                            \"optionNumber\": 10,\r\n                            \"description\": \"Directors and Officers\",\r\n                            \"id\": 1000027\r\n                        }\r\n                    ],\r\n                    \"included\": false,\r\n                    \"insuranceAmount\": 0.00,\r\n                    \"cost\": 0.00,\r\n                    \"netPremiumForColl\": 0.00,\r\n                    \"productLineGroup\": 1000028,\r\n                    \"excessOptions\": [],\r\n                    \"taxForColl\": 0.00,\r\n                    \"policyItemUnderwritingAlertsIBO\": [],\r\n                    \"coverOptionName\": \"Directors and Officers\",\r\n                    \"clauseIBOs\": [],\r\n                    \"insuranceAmountOptions\": [],\r\n                    \"status\": {\r\n                        \"id\": 10,\r\n                        \"desc\": \"Quote\"\r\n                    }\r\n                },\r\n                {\r\n                    \"insuranceAmountLevel\": 20,\r\n                    \"productLineType\": 3,\r\n                    \"updateVersion\": -1,\r\n                    \"commissionForColl\": 0.00,\r\n                    \"excessAmount\": 0.00,\r\n                    \"coverAdjustmentTypeIBOs\": [\r\n                        {\r\n                            \"defaultAdjustmentPercent\": 5.0000000000,\r\n                            \"applyAtRenewal\": false,\r\n                            \"updateVersion\": -1,\r\n                            \"productDiscountType\": {\r\n                                \"id\": 1000003,\r\n                                \"desc\": \"1000003\"\r\n                            },\r\n                            \"discountAmount\": 0,\r\n                            \"id\": -134001149,\r\n                            \"adjustmentPercent\": 5.0000000000\r\n                        }\r\n                    ],\r\n                    \"loadingForColl\": 0.00,\r\n                    \"productLineOptionType\": {\r\n                        \"id\": 1000028,\r\n                        \"desc\": \"Core Directors and Officers\"\r\n                    },\r\n                    \"id\": -251623940,\r\n                    \"premiumForColl\": 0.00,\r\n                    \"coverOptions\": [\r\n                        {\r\n                            \"updateVersion\": 52,\r\n                            \"optionNumber\": 10,\r\n                            \"description\": \"Core Directors and Officers\",\r\n                            \"id\": 1000028\r\n                        }\r\n                    ],\r\n                    \"included\": false,\r\n                    \"insuranceAmount\": 1000000.00,\r\n                    \"cost\": 0.00,\r\n                    \"netPremiumForColl\": 0.00,\r\n                    \"productLineGroup\": 1000029,\r\n                    \"excessOptions\": [],\r\n                    \"taxForColl\": 0.00,\r\n                    \"policyItemUnderwritingAlertsIBO\": [],\r\n                    \"coverOptionName\": \"Core Directors and Officers\",\r\n                    \"excessLevel\": 10,\r\n                    \"clauseIBOs\": [],\r\n                    \"insuranceAmountOptions\": [],\r\n                    \"status\": {\r\n                        \"id\": 10,\r\n                        \"desc\": \"Quote\"\r\n                    }\r\n                },\r\n                {\r\n                    \"insuranceAmountLevel\": 10,\r\n                    \"productLineType\": 3,\r\n                    \"updateVersion\": -1,\r\n                    \"commissionForColl\": 0.00,\r\n                    \"excessAmount\": 0.00,\r\n                    \"coverAdjustmentTypeIBOs\": [],\r\n                    \"loadingForColl\": 0.00,\r\n                    \"productLineOptionType\": {\r\n                        \"id\": 1000021,\r\n                        \"desc\": \"Criminal defence costs\"\r\n                    },\r\n                    \"id\": -34080893,\r\n                    \"premiumForColl\": 0.00,\r\n                    \"coverOptions\": [\r\n                        {\r\n                            \"updateVersion\": 9,\r\n                            \"optionNumber\": 10,\r\n                            \"description\": \"Criminal defence costs\",\r\n                            \"id\": 1000021\r\n                        }\r\n                    ],\r\n                    \"included\": false,\r\n                    \"insuranceAmount\": 1000000.00,\r\n                    \"cost\": 0.00,\r\n                    \"netPremiumForColl\": 0.00,\r\n                    \"productLineGroup\": 1000021,\r\n                    \"excessOptions\": [],\r\n                    \"taxForColl\": 0.00,\r\n                    \"policyItemUnderwritingAlertsIBO\": [],\r\n                    \"coverOptionName\": \"Criminal defence costs\",\r\n                    \"clauseIBOs\": [],\r\n                    \"insuranceAmountOptions\": [],\r\n                    \"status\": {\r\n                        \"id\": 10,\r\n                        \"desc\": \"Quote\"\r\n                    }\r\n                },\r\n                {\r\n                    \"productLineType\": 2,\r\n                    \"updateVersion\": -1,\r\n                    \"commissionForColl\": 0.00,\r\n                    \"excessAmount\": 0.00,\r\n                    \"coverAdjustmentTypeIBOs\": [],\r\n                    \"loadingForColl\": 0.00,\r\n                    \"productLineOptionType\": {\r\n                        \"id\": 1000022,\r\n                        \"desc\": \"Hiscox Business Academy\"\r\n                    },\r\n                    \"id\": -224509003,\r\n                    \"premiumForColl\": 0.00,\r\n                    \"coverOptions\": [\r\n                        {\r\n                            \"updateVersion\": 2,\r\n                            \"optionNumber\": 20,\r\n                            \"description\": \"Hiscox Business Academy\",\r\n                            \"id\": 1000022\r\n                        }\r\n                    ],\r\n                    \"included\": false,\r\n                    \"insuranceAmount\": 0.00,\r\n                    \"cost\": 0.00,\r\n                    \"netPremiumForColl\": 0.00,\r\n                    \"productLineGroup\": 1000022,\r\n                    \"excessOptions\": [],\r\n                    \"taxForColl\": 0.00,\r\n                    \"policyItemUnderwritingAlertsIBO\": [],\r\n                    \"coverOptionName\": \"Hiscox Business Academy\",\r\n                    \"clauseIBOs\": [],\r\n                    \"insuranceAmountOptions\": [],\r\n                    \"status\": {\r\n                        \"id\": 10,\r\n                        \"desc\": \"Quote\"\r\n                    }\r\n                }\r\n            ]\r\n        }\r\n    ],\r\n    \"collectionMethodVO\": {\r\n        \"id\": 2,\r\n        \"desc\": \"Direct Debit\"\r\n    },\r\n    \"processingStatusVO\": {\r\n        \"id\": 10000,\r\n        \"desc\": \"Available for the processing\"\r\n    },\r\n    \"umbPropositionVrs\": {\r\n        \"id\": 1000045,\r\n        \"desc\": \"A.MANG.PF.1903\"\r\n    },\r\n    \"totalPolicyCommission\": 0.00,\r\n    \"commissionYearlyAmount\": 0.00,\r\n    \"totalPolicyIPT\": 51.37,\r\n    \"currency\": {\r\n        \"id\": 1,\r\n        \"desc\": \"Euro\"\r\n    },\r\n    \"policyHolderExternalNumber\": \"{{externalID}}\",\r\n    \"collectionMethod\": {\r\n       \"id\": 2,\r\n       \"desc\": \"Direct Debit\"\r\n    },\r\n    \"product\": {\r\n        \"id\": 1000000,\r\n        \"desc\": \"PSC\"\r\n    },\r\n    \"netPremiumForColl\": 260.00,\r\n    \"writtenPolicyIPT\": 51.37,\r\n    \"isThreeYearsPolicy\": false,\r\n    \"methodOfPlacementVO\": {\r\n        \"id\": 1000006,\r\n        \"desc\": \"Pre Defined - Hiscox API\"\r\n    },\r\n    \"wordingVersionVO\": {\r\n        \"id\": 1000001,\r\n        \"desc\": \"Allgemeine Bedingungen 01/19\"\r\n    }\r\n}",
									"options": {
										"raw": {
											"language": "json"
										}
									}
								},
								"url": {
									"raw": "{{baseUrl}}/api/proposal",
									"host": [
										"{{baseUrl}}"
									],
									"path": [
										"api",
										"proposal"
									]
								}
							},
							"response": []
						},
						{
							"name": "Prepare quote to convert to Policy",
							"event": [
								{
									"listen": "test",
									"script": {
										"exec": [
											"pm.test('Prepare quote to convert to Policy', ()=>{\r",
											"    const proposal =  pm.response.json();\r",
											"    pm.expect(pm.response.code).eqls(200);\r",
											"    pm.variables.set(\"proposal\", proposal);\r",
											"    pm.variables.set('messageCorrelationId', pm.response.headers.get('messageCorrelationId'));\r",
											"});"
										],
										"type": "text/javascript"
									}
								}
							],
							"request": {
								"method": "GET",
								"header": [
									{
										"key": "username",
										"value": "{{username}}",
										"type": "default"
									},
									{
										"key": "password",
										"value": "{{password}}",
										"type": "default"
									}
								],
								"url": {
									"raw": "{{baseUrl}}/api/policy-engine/preparations/proposal?proposalNumber={{proposalExternalID}}",
									"host": [
										"{{baseUrl}}"
									],
									"path": [
										"api",
										"policy-engine",
										"preparations",
										"proposal"
									],
									"query": [
										{
											"key": "proposalNumber",
											"value": "{{proposalExternalID}}"
										}
									]
								}
							},
							"response": []
						},
						{
							"name": "Create Policy",
							"event": [
								{
									"listen": "prerequest",
									"script": {
										"exec": [
											"const proposal = pm.variables.get('proposal');\r",
											"proposal.status = { \"id\" : 20, \"desc\" : \"Policy\" };\r",
											"pm.variables.set('requestBody', JSON.stringify(proposal));\r",
											"\r",
											"pm.request.headers.add({\r",
											"     key: 'messageCorrelationId',\r",
											"     value: pm.variables.get(\"messageCorrelationId\")\r",
											"});"
										],
										"type": "text/javascript"
									}
								},
								{
									"listen": "test",
									"script": {
										"exec": [
											"pm.test('Create Policy', ()=> {\r",
											"    const policy = pm.response.json();\r",
											"    const externalID = policy.externalID;\r",
											"    pm.expect(pm.response.code).eqls(200);\r",
											"    pm.variables.set('policyExternalID', policy.externalID);\r",
											"    tests[`Policy Number: ${externalID}`] = true;\r",
											"});"
										],
										"type": "text/javascript"
									}
								}
							],
							"request": {
								"method": "POST",
								"header": [
									{
										"key": "username",
										"value": "{{username}}",
										"type": "default"
									},
									{
										"key": "password",
										"value": "{{password}}",
										"type": "default"
									}
								],
								"body": {
									"mode": "raw",
									"raw": "{{requestBody}}",
									"options": {
										"raw": {
											"language": "json"
										}
									}
								},
								"url": {
									"raw": "{{baseUrl}}/api/policy",
									"host": [
										"{{baseUrl}}"
									],
									"path": [
										"api",
										"policy"
									]
								}
							},
							"response": []
						},
						{
							"name": "Prepare policy for Endorsement",
							"event": [
								{
									"listen": "prerequest",
									"script": {
										"exec": [
											"const policyExternalID = pm.variables.get('policyExternalID');\r",
											"const index = policyExternalID.indexOf('/');\r",
											"const policyHeaderExternalNumber = parseInt(policyExternalID.slice(0,index).replace(/[^0-9]/g,''));\r",
											"console.log(policyHeaderExternalNumber);\r",
											"pm.variables.set('policyHeaderExternalNumber', policyHeaderExternalNumber);"
										],
										"type": "text/javascript"
									}
								},
								{
									"listen": "test",
									"script": {
										"exec": [
											"pm.test('Prepare policy for Endorsement', ()=> {\r",
											"    pm.expect(pm.response.code).to.eqls(200);\r",
											"    const policy  = pm.response.json();\r",
											"    pm.variables.set('policy', policy);\r",
											"    pm.variables.set('messageCorrelationId', pm.response.headers.get('messageCorrelationId'));\r",
											"});\r",
											""
										],
										"type": "text/javascript"
									}
								}
							],
							"request": {
								"method": "GET",
								"header": [
									{
										"key": "username",
										"value": "{{username}}",
										"type": "default"
									},
									{
										"key": "password",
										"value": "{{password}}",
										"type": "default"
									}
								],
								"url": {
									"raw": "{{baseUrl}}/api/policy-engine/preparations/policy?policyHeaderNumber={{policyHeaderExternalNumber}}",
									"host": [
										"{{baseUrl}}"
									],
									"path": [
										"api",
										"policy-engine",
										"preparations",
										"policy"
									],
									"query": [
										{
											"key": "policyHeaderNumber",
											"value": "{{policyHeaderExternalNumber}}"
										}
									]
								}
							},
							"response": []
						},
						{
							"name": "Create Endorsement - Suspend Covers",
							"event": [
								{
									"listen": "prerequest",
									"script": {
										"exec": [
											"pm.request.headers.add({\r",
											"    key : 'messageCorrelationId',\r",
											"    value :  pm.variables.get('messageCorrelationId')\r",
											"});\r",
											"\r",
											"const policy = pm.variables.get('policy');\r",
											"policy.insuredObjects[0].covers[2].status = { \"id\" : 13, \"desc\" : \"Suspend\" };\r",
											"policy.insuredObjects[0].covers[7].status = { \"id\" : 13, \"desc\" : \"Suspend\" };\r",
											"    \r",
											"pm.variables.set('requestBody', JSON.stringify(policy));"
										],
										"type": "text/javascript"
									}
								},
								{
									"listen": "test",
									"script": {
										"exec": [
											"pm.test('Create endorsement', ()=> {\r",
											"    pm.expect(pm.response.code).to.eqls(200);\r",
											"    const endorsement = pm.response.json();\r",
											"    pm.variables.set('policyExternalID', endorsement.externalID);\r",
											"})"
										],
										"type": "text/javascript"
									}
								}
							],
							"request": {
								"method": "POST",
								"header": [
									{
										"key": "username",
										"value": "{{username}}",
										"type": "default"
									},
									{
										"key": "password",
										"value": "{{password}}",
										"type": "default"
									}
								],
								"body": {
									"mode": "raw",
									"raw": "{{requestBody}}",
									"options": {
										"raw": {
											"language": "json"
										}
									}
								},
								"url": {
									"raw": "{{baseUrl}}/api/policy/endorsement",
									"host": [
										"{{baseUrl}}"
									],
									"path": [
										"api",
										"policy",
										"endorsement"
									]
								}
							},
							"response": []
						},
						{
							"name": "Get Policy - Check for 2 Suspended Covers",
							"event": [
								{
									"listen": "prerequest",
									"script": {
										"exec": [
											""
										],
										"type": "text/javascript"
									}
								},
								{
									"listen": "test",
									"script": {
										"exec": [
											"pm.test('Check for suspended covers', ()=>{\r",
											"    const policy = JSON.parse(responseBody);\r",
											"    let suspendedCovers = 0;\r",
											"\r",
											"    for(let i = 0; i < policy.insuredObjects[0].covers.length; i++){\r",
											"\r",
											"        const cover = policy.insuredObjects[0].covers[i];\r",
											"        \r",
											"        if (cover.status.id == 13){\r",
											"            suspendedCovers++;\r",
											"        }\r",
											"    }\r",
											"\r",
											"    pm.expect(pm.response.code).to.eqls(200);\r",
											"    pm.expect(suspendedCovers).to.eqls(2);\r",
											"    pm.variables.set('policy', policy);\r",
											"});"
										],
										"type": "text/javascript"
									}
								}
							],
							"request": {
								"auth": {
									"type": "noauth"
								},
								"method": "GET",
								"header": [
									{
										"key": "username",
										"value": "{{username}}",
										"type": "default"
									},
									{
										"key": "password",
										"value": "{{password}}",
										"type": "default"
									}
								],
								"url": {
									"raw": "{{baseUrl}}/api/policy/:policyNumber",
									"host": [
										"{{baseUrl}}"
									],
									"path": [
										"api",
										"policy",
										":policyNumber"
									],
									"variable": [
										{
											"key": "policyNumber",
											"value": "{{policyExternalID}}",
											"description": "(Required) Policy number of the policy that needs to be returned."
										}
									]
								},
								"description": "<h1>Get Policy By Policy Number</h1><h2>Description</h2>Returns the whole data set of the specified version of an existing policy, using the policy external number and version received with the request.<h2>Required Authorization</h2>Privilege to execute ACTION_ID= 32084.<h2>Internal Flow</h2><ol><li>Retrieve an existing policy according to the given policy number.</li><ol><li>Write the first policy found in the service response <i>PolicyInformationIBO</i>.</li><ol><li>Add a PolicyVO to cache.</li><li>Return the policy object <i>(PolicyInformationIBO)</i> and <i>messagecorrelation-id</i>.</li></ol>"
							},
							"response": [
								{
									"name": "Retrieved PolicyInformationIBO wrapped in JSON",
									"originalRequest": {
										"method": "GET",
										"header": [
											{
												"description": "Added as a part of security scheme: apikey",
												"key": "userName",
												"value": "<API Key>"
											}
										],
										"url": {
											"raw": "{{baseUrl}}/api/policy/:policyNumber/:policyVersion",
											"host": [
												"{{baseUrl}}"
											],
											"path": [
												"api",
												"policy",
												":policyNumber",
												":policyVersion"
											],
											"variable": [
												{
													"key": "host",
													"value": "{{host}}",
													"description": "set your host machine here"
												},
												{
													"key": "port",
													"value": "{{port}}"
												},
												{
													"key": "policyNumber",
													"value": "culpa Lorem ea",
													"description": "(Required) Policy number of the policy that needs to be returned."
												},
												{
													"key": "policyVersion",
													"value": "exercitation minim ipsum",
													"description": "(Required) "
												}
											]
										}
									},
									"status": "OK",
									"code": 200,
									"_postman_previewlanguage": "json",
									"header": [
										{
											"key": "Content-Type",
											"value": "application/json"
										}
									],
									"cookie": [],
									"body": "{\n \"channel\": {\n  \"value\": \"<Error: Too many levels of nesting to fake this schema>\"\n },\n \"insuredObjects\": [\n  {\n   \"assetType\": {\n    \"value\": \"<Error: Too many levels of nesting to fake this schema>\"\n   },\n   \"lob\": {\n    \"value\": \"<Error: Too many levels of nesting to fake this schema>\"\n   },\n   \"mortgageFlag\": {\n    \"value\": \"<Error: Too many levels of nesting to fake this schema>\"\n   },\n   \"updateVersion\": {\n    \"value\": \"<Error: Too many levels of nesting to fake this schema>\"\n   },\n   \"coverPlans\": {\n    \"value\": \"<Error: Too many levels of nesting to fake this schema>\"\n   },\n   \"originalLobAssetId\": {\n    \"value\": \"<Error: Too many levels of nesting to fake this schema>\"\n   },\n   \"coverPlanCode\": {\n    \"value\": \"<Error: Too many levels of nesting to fake this schema>\"\n   },\n   \"policyItemUnderwritingAlertsIBO\": {\n    \"value\": \"<Error: Too many levels of nesting to fake this schema>\"\n   },\n   \"clauseIBOs\": {\n    \"value\": \"<Error: Too many levels of nesting to fake this schema>\"\n   },\n   \"riskObjectAdjustmentTypeIBOs\": {\n    \"value\": \"<Error: Too many levels of nesting to fake this schema>\"\n   },\n   \"id\": {\n    \"value\": \"<Error: Too many levels of nesting to fake this schema>\"\n   },\n   \"asset\": {\n    \"value\": \"<Error: Too many levels of nesting to fake this schema>\"\n   },\n   \"status\": {\n    \"value\": \"<Error: Too many levels of nesting to fake this schema>\"\n   },\n   \"covers\": {\n    \"value\": \"<Error: Too many levels of nesting to fake this schema>\"\n   }\n  },\n  {\n   \"assetType\": {\n    \"value\": \"<Error: Too many levels of nesting to fake this schema>\"\n   },\n   \"lob\": {\n    \"value\": \"<Error: Too many levels of nesting to fake this schema>\"\n   },\n   \"mortgageFlag\": {\n    \"value\": \"<Error: Too many levels of nesting to fake this schema>\"\n   },\n   \"updateVersion\": {\n    \"value\": \"<Error: Too many levels of nesting to fake this schema>\"\n   },\n   \"coverPlans\": {\n    \"value\": \"<Error: Too many levels of nesting to fake this schema>\"\n   },\n   \"originalLobAssetId\": {\n    \"value\": \"<Error: Too many levels of nesting to fake this schema>\"\n   },\n   \"coverPlanCode\": {\n    \"value\": \"<Error: Too many levels of nesting to fake this schema>\"\n   },\n   \"policyItemUnderwritingAlertsIBO\": {\n    \"value\": \"<Error: Too many levels of nesting to fake this schema>\"\n   },\n   \"clauseIBOs\": {\n    \"value\": \"<Error: Too many levels of nesting to fake this schema>\"\n   },\n   \"riskObjectAdjustmentTypeIBOs\": {\n    \"value\": \"<Error: Too many levels of nesting to fake this schema>\"\n   },\n   \"id\": {\n    \"value\": \"<Error: Too many levels of nesting to fake this schema>\"\n   },\n   \"asset\": {\n    \"value\": \"<Error: Too many levels of nesting to fake this schema>\"\n   },\n   \"status\": {\n    \"value\": \"<Error: Too many levels of nesting to fake this schema>\"\n   },\n   \"covers\": {\n    \"value\": \"<Error: Too many levels of nesting to fake this schema>\"\n   }\n  }\n ],\n \"product\": {\n  \"value\": \"<Error: Too many levels of nesting to fake this schema>\"\n },\n \"updateVersion\": -49603949,\n \"endDate\": \"1942-10-20T11:41:57.760Z\",\n \"customerDecision\": {\n  \"value\": \"<Error: Too many levels of nesting to fake this schema>\"\n },\n \"policyNumber\": \"ut sint voluptate ut\",\n \"commissionForColl\": 91973766.35312268,\n \"policyAdjustmentTypeIBOs\": [\n  {\n   \"value\": \"<Error: Too many levels of nesting to fake this schema>\"\n  },\n  {\n   \"value\": \"<Error: Too many levels of nesting to fake this schema>\"\n  }\n ],\n \"processingStatusVO\": {\n  \"value\": \"<Error: Too many levels of nesting to fake this schema>\"\n },\n \"policyPeriod\": {\n  \"value\": \"<Error: Too many levels of nesting to fake this schema>\"\n },\n \"totalYearlyPremium\": -8851215.479133144,\n \"loadingForColl\": 79619073.12249398,\n \"quoteValidUntil\": \"1970-03-19T17:34:10.307Z\",\n \"endorsStartDate\": \"1965-09-15T03:16:15.715Z\",\n \"statusReason\": {\n  \"value\": \"<Error: Too many levels of nesting to fake this schema>\"\n },\n \"agentContactExternalNumber\": \"ipsum deserunt consequat sed\",\n \"commissionYearlyAmount\": -49715699.127714604,\n \"netYearlyPremium\": -12821350.071164384,\n \"currency\": {\n  \"value\": \"<Error: Too many levels of nesting to fake this schema>\"\n },\n \"id\": -60225281,\n \"marketingCampaignVO\": {\n  \"value\": \"<Error: Too many levels of nesting to fake this schema>\"\n },\n \"policyHolderExternalNumber\": \"nisi ex fugiat\",\n \"premiumForColl\": 25559548.200085253,\n \"endorsementNumber\": -69114050,\n \"productBundleVO\": {\n  \"value\": \"<Error: Too many levels of nesting to fake this schema>\"\n },\n \"groupCode\": \"magna Excepteur\",\n \"collectionMethod\": {\n  \"value\": \"<Error: Too many levels of nesting to fake this schema>\"\n },\n \"endorsementReason\": [\n  {\n   \"value\": \"<Error: Too many levels of nesting to fake this schema>\"\n  },\n  {\n   \"value\": \"<Error: Too many levels of nesting to fake this schema>\"\n  }\n ],\n \"netPremiumForColl\": 88134718.4764922,\n \"brandCompanyExternalNumber\": \"aliqua proident\",\n \"policyQuestionnaire\": [\n  {\n   \"answerId\": {\n    \"value\": \"<Error: Too many levels of nesting to fake this schema>\"\n   },\n   \"questionId\": {\n    \"value\": \"<Error: Too many levels of nesting to fake this schema>\"\n   },\n   \"answerValue\": {\n    \"value\": \"<Error: Too many levels of nesting to fake this schema>\"\n   },\n   \"updateVersion\": {\n    \"value\": \"<Error: Too many levels of nesting to fake this schema>\"\n   },\n   \"id\": {\n    \"value\": \"<Error: Too many levels of nesting to fake this schema>\"\n   }\n  },\n  {\n   \"answerId\": {\n    \"value\": \"<Error: Too many levels of nesting to fake this schema>\"\n   },\n   \"questionId\": {\n    \"value\": \"<Error: Too many levels of nesting to fake this schema>\"\n   },\n   \"answerValue\": {\n    \"value\": \"<Error: Too many levels of nesting to fake this schema>\"\n   },\n   \"updateVersion\": {\n    \"value\": \"<Error: Too many levels of nesting to fake this schema>\"\n   },\n   \"id\": {\n    \"value\": \"<Error: Too many levels of nesting to fake this schema>\"\n   }\n  }\n ],\n \"taxForColl\": -25801312.912418112,\n \"versionNumber\": -17136864,\n \"contractPeriod\": {\n  \"value\": \"<Error: Too many levels of nesting to fake this schema>\"\n },\n \"policyItemUnderwritingAlertsIBO\": [\n  {\n   \"value\": \"<Error: Too many levels of nesting to fake this schema>\"\n  },\n  {\n   \"value\": \"<Error: Too many levels of nesting to fake this schema>\"\n  }\n ],\n \"consents\": [\n  {\n   \"consentType\": {\n    \"value\": \"<Error: Too many levels of nesting to fake this schema>\"\n   },\n   \"consentTypeVO\": {\n    \"value\": \"<Error: Too many levels of nesting to fake this schema>\"\n   },\n   \"updateVersion\": {\n    \"value\": \"<Error: Too many levels of nesting to fake this schema>\"\n   },\n   \"endDate\": {\n    \"value\": \"<Error: Too many levels of nesting to fake this schema>\"\n   },\n   \"providedByContactId\": {\n    \"value\": \"<Error: Too many levels of nesting to fake this schema>\"\n   },\n   \"actionCode\": {\n    \"value\": \"<Error: Too many levels of nesting to fake this schema>\"\n   },\n   \"id\": {\n    \"value\": \"<Error: Too many levels of nesting to fake this schema>\"\n   },\n   \"startDate\": {\n    \"value\": \"<Error: Too many levels of nesting to fake this schema>\"\n   },\n   \"remarks\": {\n    \"value\": \"<Error: Too many levels of nesting to fake this schema>\"\n   },\n   \"consentModeVO\": {\n    \"value\": \"<Error: Too many levels of nesting to fake this schema>\"\n   }\n  },\n  {\n   \"consentType\": {\n    \"value\": \"<Error: Too many levels of nesting to fake this schema>\"\n   },\n   \"consentTypeVO\": {\n    \"value\": \"<Error: Too many levels of nesting to fake this schema>\"\n   },\n   \"updateVersion\": {\n    \"value\": \"<Error: Too many levels of nesting to fake this schema>\"\n   },\n   \"endDate\": {\n    \"value\": \"<Error: Too many levels of nesting to fake this schema>\"\n   },\n   \"providedByContactId\": {\n    \"value\": \"<Error: Too many levels of nesting to fake this schema>\"\n   },\n   \"actionCode\": {\n    \"value\": \"<Error: Too many levels of nesting to fake this schema>\"\n   },\n   \"id\": {\n    \"value\": \"<Error: Too many levels of nesting to fake this schema>\"\n   },\n   \"startDate\": {\n    \"value\": \"<Error: Too many levels of nesting to fake this schema>\"\n   },\n   \"remarks\": {\n    \"value\": \"<Error: Too many levels of nesting to fake this schema>\"\n   },\n   \"consentModeVO\": {\n    \"value\": \"<Error: Too many levels of nesting to fake this schema>\"\n   }\n  }\n ],\n \"loadingYearlyPremium\": -10304891.820979118,\n \"cacheObjectReference\": 40821604,\n \"paymentTerm\": {\n  \"value\": \"<Error: Too many levels of nesting to fake this schema>\"\n },\n \"startDate\": \"2010-10-18T04:14:03.097Z\",\n \"taxYearlyPremium\": 67387533.85073975,\n \"status\": {\n  \"value\": \"<Error: Too many levels of nesting to fake this schema>\"\n },\n \"preferredCollectionDay\": -12915968\n}"
								},
								{
									"name": "401 on Unauthorized access ; 422 on Business/Validation errors ; 500 on Technical/Unexpected errors",
									"originalRequest": {
										"method": "GET",
										"header": [
											{
												"description": "Added as a part of security scheme: apikey",
												"key": "userName",
												"value": "<API Key>"
											}
										],
										"url": {
											"raw": "{{baseUrl}}/api/policy/:policyNumber/:policyVersion",
											"host": [
												"{{baseUrl}}"
											],
											"path": [
												"api",
												"policy",
												":policyNumber",
												":policyVersion"
											],
											"variable": [
												{
													"key": "host",
													"value": "{{host}}",
													"description": "set your host machine here"
												},
												{
													"key": "port",
													"value": "{{port}}"
												},
												{
													"key": "policyNumber",
													"value": "culpa Lorem ea",
													"description": "(Required) Policy number of the policy that needs to be returned."
												},
												{
													"key": "policyVersion",
													"value": "exercitation minim ipsum",
													"description": "(Required) "
												}
											]
										}
									},
									"status": "Internal Server Error",
									"code": 500,
									"_postman_previewlanguage": "json",
									"header": [
										{
											"key": "Content-Type",
											"value": "application/json"
										}
									],
									"cookie": [],
									"body": "{\n \"instance\": \"veniam proident cupidatat\",\n \"updateVersion\": -83017863,\n \"invalid-params\": [\n  {\n   \"value\": \"<Error: Too many levels of nesting to fake this schema>\"\n  },\n  {\n   \"value\": \"<Error: Too many levels of nesting to fake this schema>\"\n  }\n ],\n \"scimType\": \"sit et\",\n \"id\": -1774462,\n \"detail\": \"id ipsum commodo\",\n \"type\": \"mollit\",\n \"title\": \"velit commodo\",\n \"status\": \"minim qui anim\"\n}"
								}
							]
						},
						{
							"name": "Prepare Policy For Endorsement Quote",
							"event": [
								{
									"listen": "prerequest",
									"script": {
										"exec": [
											"const policyExternalID = pm.variables.get('policyExternalID');\r",
											"const index = policyExternalID.indexOf('/');\r",
											"const policyHeaderExternalNumber = parseInt(policyExternalID.slice(0,index).replace(/[^0-9]/g,''));\r",
											"pm.variables.set('policyHeaderExternalNumber', policyHeaderExternalNumber);"
										],
										"type": "text/javascript"
									}
								},
								{
									"listen": "test",
									"script": {
										"exec": [
											"pm.test('Prepare Policy For Endorsement Quote', ()=> {\r",
											"    pm.expect(pm.response.code).to.eqls(200);\r",
											"    const policy = pm.response.json();\r",
											"    pm.variables.set('policy', policy);\r",
											"    pm.variables.set('messageCorrelationId', pm.response.headers.get('messageCorrelationId'));\r",
											"});"
										],
										"type": "text/javascript"
									}
								}
							],
							"request": {
								"method": "GET",
								"header": [
									{
										"key": "username",
										"value": "{{username}}",
										"type": "default"
									},
									{
										"key": "password",
										"value": "{{password}}",
										"type": "default"
									}
								],
								"url": {
									"raw": "{{baseUrl}}/api/policy-engine/preparations/policy?policyHeaderNumber={{policyHeaderExternalNumber}}",
									"host": [
										"{{baseUrl}}"
									],
									"path": [
										"api",
										"policy-engine",
										"preparations",
										"policy"
									],
									"query": [
										{
											"key": "policyHeaderNumber",
											"value": "{{policyHeaderExternalNumber}}"
										}
									]
								}
							},
							"response": []
						},
						{
							"name": "Create Endorsement - Unsuspend Covers",
							"event": [
								{
									"listen": "prerequest",
									"script": {
										"exec": [
											"pm.request.headers.add({\r",
											"    key : 'messageCorrelationId',\r",
											"    value :  pm.variables.get('messageCorrelationId')\r",
											"});\r",
											"\r",
											"const policy = pm.variables.get('policy');\r",
											"\r",
											"policy.insuredObjects[0].covers[2].status = { \"id\" : 20, \"desc\" : \"Policy\" };\r",
											"policy.insuredObjects[0].covers[7].status = { \"id\" : 20, \"desc\" : \"Policy\" };\r",
											"    \r",
											"pm.variables.set('requestBody', JSON.stringify(policy));"
										],
										"type": "text/javascript"
									}
								},
								{
									"listen": "test",
									"script": {
										"exec": [
											"pm.test('Create endorsement quote', ()=> {\r",
											"    const res = pm.response.json(); \r",
											"    pm.expect(pm.response.code).to.eql(200);\r",
											"    pm.variables.set(\"policyExternalID\", res.externalID)\r",
											"    tests[`Policy External ID: ${res.externalID}`] = true;\r",
											"});"
										],
										"type": "text/javascript"
									}
								}
							],
							"request": {
								"method": "POST",
								"header": [
									{
										"key": "username",
										"value": "{{username}}",
										"type": "default"
									},
									{
										"key": "password",
										"value": "{{password}}",
										"type": "default"
									}
								],
								"body": {
									"mode": "raw",
									"raw": "{{requestBody}}",
									"options": {
										"raw": {
											"language": "json"
										}
									}
								},
								"url": {
									"raw": "{{baseUrl}}/api/policy/endorsement",
									"host": [
										"{{baseUrl}}"
									],
									"path": [
										"api",
										"policy",
										"endorsement"
									]
								}
							},
							"response": []
						},
						{
							"name": "Get Policy - Check for 2 Unsuspended Covers",
							"event": [
								{
									"listen": "prerequest",
									"script": {
										"exec": [
											""
										],
										"type": "text/javascript"
									}
								},
								{
									"listen": "test",
									"script": {
										"exec": [
											"pm.test('Check for unsuspended covers', ()=>{\r",
											"    const policy = JSON.parse(responseBody);\r",
											"    let suspendedCovers = 0;\r",
											"\r",
											"    for(let i = 0; i < policy.insuredObjects[0].covers.length; i++){\r",
											"\r",
											"        const cover = policy.insuredObjects[0].covers[i];\r",
											"        \r",
											"        if (cover.status.id == 13){\r",
											"            suspendedCovers++;\r",
											"        }\r",
											"    }\r",
											"\r",
											"    pm.expect(pm.response.code).to.eqls(200);\r",
											"    pm.expect(suspendedCovers).to.eqls(0);\r",
											"    pm.variables.set('policy', policy);\r",
											"});"
										],
										"type": "text/javascript"
									}
								}
							],
							"request": {
								"auth": {
									"type": "noauth"
								},
								"method": "GET",
								"header": [
									{
										"key": "username",
										"value": "{{username}}",
										"type": "default"
									},
									{
										"key": "password",
										"value": "{{password}}",
										"type": "default"
									}
								],
								"url": {
									"raw": "{{baseUrl}}/api/policy/:policyNumber",
									"host": [
										"{{baseUrl}}"
									],
									"path": [
										"api",
										"policy",
										":policyNumber"
									],
									"variable": [
										{
											"key": "policyNumber",
											"value": "{{policyExternalID}}",
											"description": "(Required) Policy number of the policy that needs to be returned."
										}
									]
								},
								"description": "<h1>Get Policy By Policy Number</h1><h2>Description</h2>Returns the whole data set of the specified version of an existing policy, using the policy external number and version received with the request.<h2>Required Authorization</h2>Privilege to execute ACTION_ID= 32084.<h2>Internal Flow</h2><ol><li>Retrieve an existing policy according to the given policy number.</li><ol><li>Write the first policy found in the service response <i>PolicyInformationIBO</i>.</li><ol><li>Add a PolicyVO to cache.</li><li>Return the policy object <i>(PolicyInformationIBO)</i> and <i>messagecorrelation-id</i>.</li></ol>"
							},
							"response": [
								{
									"name": "Retrieved PolicyInformationIBO wrapped in JSON",
									"originalRequest": {
										"method": "GET",
										"header": [
											{
												"description": "Added as a part of security scheme: apikey",
												"key": "userName",
												"value": "<API Key>"
											}
										],
										"url": {
											"raw": "{{baseUrl}}/api/policy/:policyNumber/:policyVersion",
											"host": [
												"{{baseUrl}}"
											],
											"path": [
												"api",
												"policy",
												":policyNumber",
												":policyVersion"
											],
											"variable": [
												{
													"key": "host",
													"value": "{{host}}",
													"description": "set your host machine here"
												},
												{
													"key": "port",
													"value": "{{port}}"
												},
												{
													"key": "policyNumber",
													"value": "culpa Lorem ea",
													"description": "(Required) Policy number of the policy that needs to be returned."
												},
												{
													"key": "policyVersion",
													"value": "exercitation minim ipsum",
													"description": "(Required) "
												}
											]
										}
									},
									"status": "OK",
									"code": 200,
									"_postman_previewlanguage": "json",
									"header": [
										{
											"key": "Content-Type",
											"value": "application/json"
										}
									],
									"cookie": [],
									"body": "{\n \"channel\": {\n  \"value\": \"<Error: Too many levels of nesting to fake this schema>\"\n },\n \"insuredObjects\": [\n  {\n   \"assetType\": {\n    \"value\": \"<Error: Too many levels of nesting to fake this schema>\"\n   },\n   \"lob\": {\n    \"value\": \"<Error: Too many levels of nesting to fake this schema>\"\n   },\n   \"mortgageFlag\": {\n    \"value\": \"<Error: Too many levels of nesting to fake this schema>\"\n   },\n   \"updateVersion\": {\n    \"value\": \"<Error: Too many levels of nesting to fake this schema>\"\n   },\n   \"coverPlans\": {\n    \"value\": \"<Error: Too many levels of nesting to fake this schema>\"\n   },\n   \"originalLobAssetId\": {\n    \"value\": \"<Error: Too many levels of nesting to fake this schema>\"\n   },\n   \"coverPlanCode\": {\n    \"value\": \"<Error: Too many levels of nesting to fake this schema>\"\n   },\n   \"policyItemUnderwritingAlertsIBO\": {\n    \"value\": \"<Error: Too many levels of nesting to fake this schema>\"\n   },\n   \"clauseIBOs\": {\n    \"value\": \"<Error: Too many levels of nesting to fake this schema>\"\n   },\n   \"riskObjectAdjustmentTypeIBOs\": {\n    \"value\": \"<Error: Too many levels of nesting to fake this schema>\"\n   },\n   \"id\": {\n    \"value\": \"<Error: Too many levels of nesting to fake this schema>\"\n   },\n   \"asset\": {\n    \"value\": \"<Error: Too many levels of nesting to fake this schema>\"\n   },\n   \"status\": {\n    \"value\": \"<Error: Too many levels of nesting to fake this schema>\"\n   },\n   \"covers\": {\n    \"value\": \"<Error: Too many levels of nesting to fake this schema>\"\n   }\n  },\n  {\n   \"assetType\": {\n    \"value\": \"<Error: Too many levels of nesting to fake this schema>\"\n   },\n   \"lob\": {\n    \"value\": \"<Error: Too many levels of nesting to fake this schema>\"\n   },\n   \"mortgageFlag\": {\n    \"value\": \"<Error: Too many levels of nesting to fake this schema>\"\n   },\n   \"updateVersion\": {\n    \"value\": \"<Error: Too many levels of nesting to fake this schema>\"\n   },\n   \"coverPlans\": {\n    \"value\": \"<Error: Too many levels of nesting to fake this schema>\"\n   },\n   \"originalLobAssetId\": {\n    \"value\": \"<Error: Too many levels of nesting to fake this schema>\"\n   },\n   \"coverPlanCode\": {\n    \"value\": \"<Error: Too many levels of nesting to fake this schema>\"\n   },\n   \"policyItemUnderwritingAlertsIBO\": {\n    \"value\": \"<Error: Too many levels of nesting to fake this schema>\"\n   },\n   \"clauseIBOs\": {\n    \"value\": \"<Error: Too many levels of nesting to fake this schema>\"\n   },\n   \"riskObjectAdjustmentTypeIBOs\": {\n    \"value\": \"<Error: Too many levels of nesting to fake this schema>\"\n   },\n   \"id\": {\n    \"value\": \"<Error: Too many levels of nesting to fake this schema>\"\n   },\n   \"asset\": {\n    \"value\": \"<Error: Too many levels of nesting to fake this schema>\"\n   },\n   \"status\": {\n    \"value\": \"<Error: Too many levels of nesting to fake this schema>\"\n   },\n   \"covers\": {\n    \"value\": \"<Error: Too many levels of nesting to fake this schema>\"\n   }\n  }\n ],\n \"product\": {\n  \"value\": \"<Error: Too many levels of nesting to fake this schema>\"\n },\n \"updateVersion\": -49603949,\n \"endDate\": \"1942-10-20T11:41:57.760Z\",\n \"customerDecision\": {\n  \"value\": \"<Error: Too many levels of nesting to fake this schema>\"\n },\n \"policyNumber\": \"ut sint voluptate ut\",\n \"commissionForColl\": 91973766.35312268,\n \"policyAdjustmentTypeIBOs\": [\n  {\n   \"value\": \"<Error: Too many levels of nesting to fake this schema>\"\n  },\n  {\n   \"value\": \"<Error: Too many levels of nesting to fake this schema>\"\n  }\n ],\n \"processingStatusVO\": {\n  \"value\": \"<Error: Too many levels of nesting to fake this schema>\"\n },\n \"policyPeriod\": {\n  \"value\": \"<Error: Too many levels of nesting to fake this schema>\"\n },\n \"totalYearlyPremium\": -8851215.479133144,\n \"loadingForColl\": 79619073.12249398,\n \"quoteValidUntil\": \"1970-03-19T17:34:10.307Z\",\n \"endorsStartDate\": \"1965-09-15T03:16:15.715Z\",\n \"statusReason\": {\n  \"value\": \"<Error: Too many levels of nesting to fake this schema>\"\n },\n \"agentContactExternalNumber\": \"ipsum deserunt consequat sed\",\n \"commissionYearlyAmount\": -49715699.127714604,\n \"netYearlyPremium\": -12821350.071164384,\n \"currency\": {\n  \"value\": \"<Error: Too many levels of nesting to fake this schema>\"\n },\n \"id\": -60225281,\n \"marketingCampaignVO\": {\n  \"value\": \"<Error: Too many levels of nesting to fake this schema>\"\n },\n \"policyHolderExternalNumber\": \"nisi ex fugiat\",\n \"premiumForColl\": 25559548.200085253,\n \"endorsementNumber\": -69114050,\n \"productBundleVO\": {\n  \"value\": \"<Error: Too many levels of nesting to fake this schema>\"\n },\n \"groupCode\": \"magna Excepteur\",\n \"collectionMethod\": {\n  \"value\": \"<Error: Too many levels of nesting to fake this schema>\"\n },\n \"endorsementReason\": [\n  {\n   \"value\": \"<Error: Too many levels of nesting to fake this schema>\"\n  },\n  {\n   \"value\": \"<Error: Too many levels of nesting to fake this schema>\"\n  }\n ],\n \"netPremiumForColl\": 88134718.4764922,\n \"brandCompanyExternalNumber\": \"aliqua proident\",\n \"policyQuestionnaire\": [\n  {\n   \"answerId\": {\n    \"value\": \"<Error: Too many levels of nesting to fake this schema>\"\n   },\n   \"questionId\": {\n    \"value\": \"<Error: Too many levels of nesting to fake this schema>\"\n   },\n   \"answerValue\": {\n    \"value\": \"<Error: Too many levels of nesting to fake this schema>\"\n   },\n   \"updateVersion\": {\n    \"value\": \"<Error: Too many levels of nesting to fake this schema>\"\n   },\n   \"id\": {\n    \"value\": \"<Error: Too many levels of nesting to fake this schema>\"\n   }\n  },\n  {\n   \"answerId\": {\n    \"value\": \"<Error: Too many levels of nesting to fake this schema>\"\n   },\n   \"questionId\": {\n    \"value\": \"<Error: Too many levels of nesting to fake this schema>\"\n   },\n   \"answerValue\": {\n    \"value\": \"<Error: Too many levels of nesting to fake this schema>\"\n   },\n   \"updateVersion\": {\n    \"value\": \"<Error: Too many levels of nesting to fake this schema>\"\n   },\n   \"id\": {\n    \"value\": \"<Error: Too many levels of nesting to fake this schema>\"\n   }\n  }\n ],\n \"taxForColl\": -25801312.912418112,\n \"versionNumber\": -17136864,\n \"contractPeriod\": {\n  \"value\": \"<Error: Too many levels of nesting to fake this schema>\"\n },\n \"policyItemUnderwritingAlertsIBO\": [\n  {\n   \"value\": \"<Error: Too many levels of nesting to fake this schema>\"\n  },\n  {\n   \"value\": \"<Error: Too many levels of nesting to fake this schema>\"\n  }\n ],\n \"consents\": [\n  {\n   \"consentType\": {\n    \"value\": \"<Error: Too many levels of nesting to fake this schema>\"\n   },\n   \"consentTypeVO\": {\n    \"value\": \"<Error: Too many levels of nesting to fake this schema>\"\n   },\n   \"updateVersion\": {\n    \"value\": \"<Error: Too many levels of nesting to fake this schema>\"\n   },\n   \"endDate\": {\n    \"value\": \"<Error: Too many levels of nesting to fake this schema>\"\n   },\n   \"providedByContactId\": {\n    \"value\": \"<Error: Too many levels of nesting to fake this schema>\"\n   },\n   \"actionCode\": {\n    \"value\": \"<Error: Too many levels of nesting to fake this schema>\"\n   },\n   \"id\": {\n    \"value\": \"<Error: Too many levels of nesting to fake this schema>\"\n   },\n   \"startDate\": {\n    \"value\": \"<Error: Too many levels of nesting to fake this schema>\"\n   },\n   \"remarks\": {\n    \"value\": \"<Error: Too many levels of nesting to fake this schema>\"\n   },\n   \"consentModeVO\": {\n    \"value\": \"<Error: Too many levels of nesting to fake this schema>\"\n   }\n  },\n  {\n   \"consentType\": {\n    \"value\": \"<Error: Too many levels of nesting to fake this schema>\"\n   },\n   \"consentTypeVO\": {\n    \"value\": \"<Error: Too many levels of nesting to fake this schema>\"\n   },\n   \"updateVersion\": {\n    \"value\": \"<Error: Too many levels of nesting to fake this schema>\"\n   },\n   \"endDate\": {\n    \"value\": \"<Error: Too many levels of nesting to fake this schema>\"\n   },\n   \"providedByContactId\": {\n    \"value\": \"<Error: Too many levels of nesting to fake this schema>\"\n   },\n   \"actionCode\": {\n    \"value\": \"<Error: Too many levels of nesting to fake this schema>\"\n   },\n   \"id\": {\n    \"value\": \"<Error: Too many levels of nesting to fake this schema>\"\n   },\n   \"startDate\": {\n    \"value\": \"<Error: Too many levels of nesting to fake this schema>\"\n   },\n   \"remarks\": {\n    \"value\": \"<Error: Too many levels of nesting to fake this schema>\"\n   },\n   \"consentModeVO\": {\n    \"value\": \"<Error: Too many levels of nesting to fake this schema>\"\n   }\n  }\n ],\n \"loadingYearlyPremium\": -10304891.820979118,\n \"cacheObjectReference\": 40821604,\n \"paymentTerm\": {\n  \"value\": \"<Error: Too many levels of nesting to fake this schema>\"\n },\n \"startDate\": \"2010-10-18T04:14:03.097Z\",\n \"taxYearlyPremium\": 67387533.85073975,\n \"status\": {\n  \"value\": \"<Error: Too many levels of nesting to fake this schema>\"\n },\n \"preferredCollectionDay\": -12915968\n}"
								},
								{
									"name": "401 on Unauthorized access ; 422 on Business/Validation errors ; 500 on Technical/Unexpected errors",
									"originalRequest": {
										"method": "GET",
										"header": [
											{
												"description": "Added as a part of security scheme: apikey",
												"key": "userName",
												"value": "<API Key>"
											}
										],
										"url": {
											"raw": "{{baseUrl}}/api/policy/:policyNumber/:policyVersion",
											"host": [
												"{{baseUrl}}"
											],
											"path": [
												"api",
												"policy",
												":policyNumber",
												":policyVersion"
											],
											"variable": [
												{
													"key": "host",
													"value": "{{host}}",
													"description": "set your host machine here"
												},
												{
													"key": "port",
													"value": "{{port}}"
												},
												{
													"key": "policyNumber",
													"value": "culpa Lorem ea",
													"description": "(Required) Policy number of the policy that needs to be returned."
												},
												{
													"key": "policyVersion",
													"value": "exercitation minim ipsum",
													"description": "(Required) "
												}
											]
										}
									},
									"status": "Internal Server Error",
									"code": 500,
									"_postman_previewlanguage": "json",
									"header": [
										{
											"key": "Content-Type",
											"value": "application/json"
										}
									],
									"cookie": [],
									"body": "{\n \"instance\": \"veniam proident cupidatat\",\n \"updateVersion\": -83017863,\n \"invalid-params\": [\n  {\n   \"value\": \"<Error: Too many levels of nesting to fake this schema>\"\n  },\n  {\n   \"value\": \"<Error: Too many levels of nesting to fake this schema>\"\n  }\n ],\n \"scimType\": \"sit et\",\n \"id\": -1774462,\n \"detail\": \"id ipsum commodo\",\n \"type\": \"mollit\",\n \"title\": \"velit commodo\",\n \"status\": \"minim qui anim\"\n}"
								}
							]
						}
					]
				}
			]
		}
	]
}