{
	"info": {
		"_postman_id": "cc5c5d1d-08a9-4471-893b-060f80701f34",
		"name": "policy-psc-endorsement",
		"schema": "https://schema.getpostman.com/json/collection/v2.1.0/collection.json"
	},
	"item": [
		{
			"name": "api",
			"item": [
				{
					"name": "Endorsement",
					"item": [
						{
							"name": "Create a Contact - Legal entity",
							"event": [
								{
									"listen": "test",
									"script": {
										"exec": [
											"pm.test(\"Create Contact - PSC\", ()=>{\r",
											"    const res = pm.response.json(); \r",
											"    pm.expect(pm.response.code).to.eql(201);\r",
											"    pm.variables.set(\"externalID\", res.externalID)\r",
											"    tests[`Contact External ID: ${res.externalID}`] = true;\r",
											"});"
										],
										"type": "text/javascript"
									}
								}
							],
							"request": {
								"method": "POST",
								"header": [
									{
										"key": "username",
										"value": "{{username}}",
										"type": "default"
									},
									{
										"key": "password",
										"value": "{{password}}",
										"type": "default"
									},
									{
										"key": "Cookie",
										"value": "{{cookie}}",
										"type": "default"
									}
								],
								"body": {
									"mode": "raw",
									"raw": "{\r\n  \"addresses\": [\r\n    {\r\n      \"@type\": \"interfaces:AddressIBO\",\r\n      \"zipCode\": \"80807\",\r\n      \"country\": {\r\n        \"id\": 77,\r\n        \"desc\": \"GERMANY\"\r\n      },\r\n      \"streetName\": \"Walter-Gropius-Str.\",\r\n      \"cityName\": \"MÜNCHEN\",\r\n      \"houseNr\": \"5\",\r\n      \"districtName\": \"Schwabing-Freimann\",\r\n      \"addressType\": {\r\n        \"id\": 6,\r\n        \"desc\": \"Correspondence address - commercial\"\r\n      }\r\n    }\r\n  ],\r\n  \"telephones\": [\r\n    {\r\n      \"@type\": \"interfaces:TelephoneIBO\",\r\n      \"telephoneNumber\": \"08931760\",\r\n      \"telephoneType\": {\r\n        \"id\": 1000002,\r\n        \"desc\": \"General Telephone\"\r\n      },\r\n      \"countryDialCode\": {\r\n        \"id\": 77,\r\n        \"desc\": \"49\"\r\n      }\r\n    }\r\n  ],\r\n  \"language\": {\r\n    \"id\": 1000000,\r\n    \"desc\": \"German - DE\"\r\n  },\r\n  \"channelType\": {\r\n    \"id\": 1,\r\n    \"desc\": \"IDIT_UI\"\r\n  },\r\n  \"preferredDeliveryType\": {\r\n    \"id\": 3,\r\n    \"desc\": \"Email\"\r\n  },\r\n  \"emails\": [\r\n    {\r\n      \"@type\": \"interfaces:EmailIBO\",\r\n      \"emailType\": {\r\n        \"id\": 1000000,\r\n        \"desc\": \"General\"\r\n      },\r\n      \"isPreferredDeliveryAddress\": true,\r\n      \"email\": \"{{$randomEmail}}\"\r\n    }\r\n  ],\r\n\r\n  \"legalFormVO\": {\r\n    \"id\": 1000040,\r\n    \"desc\": \"GmbH\"\r\n  },\r\n  \"entityType\": {\r\n    \"id\": 101,\r\n    \"desc\": \"Legal entity\"\r\n  },\r\n  \"name\": \"{{$randomCompanyName}}\"\r\n}",
									"options": {
										"raw": {
											"language": "json"
										}
									}
								},
								"url": {
									"raw": "{{baseUrl}}/api/contact",
									"host": [
										"{{baseUrl}}"
									],
									"path": [
										"api",
										"contact"
									]
								}
							},
							"response": []
						},
						{
							"name": "Create Quote - PSC",
							"event": [
								{
									"listen": "test",
									"script": {
										"exec": [
											"pm.test(\"Create Quote - PSC\", ()=>{\r",
											"    const res = pm.response.json(); \r",
											"    pm.expect(pm.response.code).to.eql(200);\r",
											"    pm.variables.set(\"proposalExternalID\", res.externalID)\r",
											"    pm.variables.set(\"messageCorrelationId\",  pm.response.headers.get(\"messageCorrelationId\"));\r",
											"    tests[`Quote External ID: ${res.externalID}`] = true;\r",
											"})"
										],
										"type": "text/javascript"
									}
								}
							],
							"request": {
								"method": "POST",
								"header": [
									{
										"key": "username",
										"value": "{{username}}",
										"type": "default"
									},
									{
										"key": "password",
										"value": "{{password}}",
										"type": "default"
									},
									{
										"key": "Cookie",
										"value": "{{cookie}}",
										"type": "default"
									}
								],
								"body": {
									"mode": "raw",
									"raw": "{\r\n    \"endDate\": \"2023-03-31T23:59:59\",\r\n    \"channel\": {\r\n        \"id\": 1000001,\r\n        \"desc\": \"Direct\"\r\n    },\r\n    \"quoteValidUntil\": \"2022-05-31T00:00:00\",\r\n    \"endorsStartDate\": \"2022-04-01T00:00:00\",\r\n    \"statusReason\": {\r\n        \"id\": 1000000,\r\n        \"desc\": \"Missing information\"\r\n    },\r\n    \"umbIndustryClass\": {\r\n        \"id\": 1000002,\r\n        \"desc\": \"Consultancy\"\r\n    },\r\n    \"endOfCommitmentDate\": \"2023-03-31T23:59:59\",\r\n    \"umbTotalTurnover\": 100000.0,\r\n    \"paymentTerm\": {\r\n        \"id\": 1000018,\r\n        \"desc\": \"1000018\"\r\n    },\r\n    \"startDate\": \"2022-04-01T00:00:00\",\r\n    \"status\": {\r\n        \"id\": 10,\r\n        \"desc\": \"Quote\"\r\n    },\r\n    \"umbProposition\": {\r\n        \"id\": 1000026,\r\n        \"desc\": \"Consult\"\r\n    },\r\n    \"umbRiskDescriptionIVOs\": [\r\n        {\r\n            \"umbRiskDescription\": {\r\n                \"id\": 1000002,\r\n                \"desc\": \"Unternehmens- und Personalberatungen\"\r\n            },\r\n            \"umbRiskPrimary\": true,\r\n            \"umbDocumentRiskDescription\": \"Unternehmens- und Personalberatungen\"\r\n        }\r\n    ],\r\n    \"customerDecision\": {\r\n        \"id\": 3,\r\n        \"desc\": \"Save Quote\"\r\n    },\r\n    \"insuredObjects\": [\r\n        {\r\n            \"assetType\": {\r\n                \"id\": 7,\r\n                \"desc\": \"Other\"\r\n            },\r\n            \"asset\": {\r\n                \"@type\": \"interfaces:AssetOtherIVO\",\r\n                \"mortgageVO\": [],\r\n                \"assetTypeVO\": {\r\n                    \"id\": 7,\r\n                    \"desc\": \"Other\"\r\n                },\r\n                \"assetIdentifierIVOs\": [],\r\n                \"mortgageFlag\": 0,\r\n                \"updateVersion\": 1,\r\n                \"assetDescription\": \"Floating Covers\",\r\n                \"claimHistoryVOs\": [],\r\n                \"assetBeneficiaryVOs\": [],\r\n                \"assetAdditionalData\": [],\r\n                \"assetItemVOs\": [],\r\n                \"assetRiskVOs\": []\r\n            },\r\n            \"lob\": {\r\n                \"id\": 1,\r\n                \"desc\": \"Property\"\r\n            },\r\n            \"status\": {\r\n                \"id\": 10,\r\n                \"desc\": \"Quote\"\r\n            },\r\n            \"covers\": [\r\n                {\r\n                    \"productLineType\": 3,\r\n                    \"excessAmount\": 0.00,\r\n                    \"coverAdjustmentTypeIBOs\": [\r\n                        {\r\n                            \"defaultAdjustmentPercent\": 5.0000000000,\r\n                            \"applyAtRenewal\": false,\r\n                            \"productDiscountType\": {\r\n                                \"id\": 1000003,\r\n                                \"desc\": \"1000003\"\r\n                            },\r\n                            \"discountAmount\": 0,\r\n                            \"adjustmentPercent\": 5.0000000000\r\n                        }\r\n                    ],\r\n                    \"productLineOptionType\": {\r\n                        \"id\": 1000000,\r\n                        \"desc\": \"Professional Indemnity\"\r\n                    },\r\n                    \"coverOptions\": [\r\n                        {\r\n                            \"optionNumber\": 10,\r\n                            \"description\": \"Professional Indemnity\",\r\n                            \"id\": 1000000\r\n                        }\r\n                    ],\r\n                    \"insuranceAmount\": 0.00,\r\n                    \"cost\": 0.00,\r\n                    \"productLineGroup\": 1000000,\r\n                    \"coverOptionName\": \"Professional Indemnity\",\r\n                    \"status\": {\r\n                        \"id\": 10,\r\n                        \"desc\": \"Quote\"\r\n                    }\r\n                },\r\n                {\r\n                    \"insuranceAmountLevel\": 3,\r\n                    \"productLineType\": 3,\r\n                    \"commissionForColl\": 0.00,\r\n                    \"excessAmount\": 100.00,\r\n                    \"coverAdjustmentTypeIBOs\": [\r\n                        {\r\n                            \"defaultAdjustmentPercent\": 5.0000000000,\r\n                            \"applyAtRenewal\": false,\r\n                            \"updateVersion\": 1,\r\n                            \"productDiscountType\": {\r\n                                \"id\": 1000003,\r\n                                \"desc\": \"1000003\"\r\n                            },\r\n                            \"discountAmount\": 0,\r\n                            \"id\": 62883,\r\n                            \"adjustmentPercent\": 5.0000000000\r\n                        }\r\n                    ],\r\n                    \"productLineOptionType\": {\r\n                        \"id\": 1000001,\r\n                        \"desc\": \"Core Professional Indemnity\"\r\n                    },\r\n                    \"coverOptions\": [\r\n                        {\r\n                            \"optionNumber\": 20,\r\n                            \"description\": \"Core Professional Indemnity\",\r\n                            \"id\": 1000001\r\n                        }\r\n                    ],\r\n                    \"included\": false,\r\n                    \"insuranceAmount\": 100000.00,\r\n                    \"productLineGroup\": 1000001,\r\n                    \"coverOptionName\": \"Core Professional Indemnity\",\r\n                    \"excessLevel\": 5,\r\n                    \"parentCoverExternalNumber\": \"Professional Indemnity\",\r\n                    \"status\": {\r\n                        \"id\": 10,\r\n                        \"desc\": \"Quote\"\r\n                    }\r\n                },\r\n                {\r\n                    \"insuranceAmountLevel\": 1,\r\n                    \"productLineType\": 3,\r\n                    \"excessAmount\": 0.00,\r\n                    \"coverAdjustmentTypeIBOs\": [\r\n                        {\r\n                            \"defaultAdjustmentPercent\": 5.0000000000,\r\n                            \"applyAtRenewal\": false,\r\n                            \"updateVersion\": 1,\r\n                            \"productDiscountType\": {\r\n                                \"id\": 1000003,\r\n                                \"desc\": \"1000003\"\r\n                            },\r\n                            \"discountAmount\": 0,\r\n                            \"id\": 62884,\r\n                            \"adjustmentPercent\": 5.0000000000\r\n                        }\r\n                    ],\r\n                    \"productLineOptionType\": {\r\n                        \"id\": 1000002,\r\n                        \"desc\": \"Core Professional Indemnity Additional Perils\"\r\n                    },\r\n                    \"coverOptions\": [\r\n                        {\r\n                            \"updateVersion\": 274,\r\n                            \"optionNumber\": 30,\r\n                            \"description\": \"Core Professional Indemnity Additional Perils\",\r\n                            \"id\": 1000002\r\n                        }\r\n                    ],\r\n                    \"included\": false,\r\n                    \"insuranceAmount\": 100000.00,\r\n                    \"cost\": 0.00,\r\n                    \"productLineGroup\": 1000002,\r\n                    \"coverOptionName\": \"Core Professional Indemnity Additional Perils\",\r\n                    \"parentCoverExternalNumber\": \"Professional Indemnity\",\r\n                    \"status\": {\r\n                        \"id\": 10,\r\n                        \"desc\": \"Quote\"\r\n                    }\r\n                }\r\n            ]\r\n        }\r\n    ],\r\n    \"collectionMethodVO\": {\r\n        \"id\": 1,\r\n        \"desc\": \"Direct Transfer\"\r\n    },\r\n    \"umbPropositionVrs\": {\r\n        \"id\": 1000045,\r\n        \"desc\": \"A.MANG.PF.1903\"\r\n    },\r\n    \"currency\": {\r\n        \"id\": 1,\r\n        \"desc\": \"Euro\"\r\n    },\r\n    \"policyHolderExternalNumber\": \"{{externalID}}\",\r\n    \"collectionMethod\": {\r\n        \"id\": 1,\r\n        \"desc\": \"Direct Transfer\"\r\n    },\r\n    \"product\": {\r\n        \"id\": 1000000,\r\n        \"desc\": \"PSC\"\r\n    },\r\n    \"isThreeYearsPolicy\": false,\r\n    \"methodOfPlacementVO\": {\r\n        \"id\": 1000006,\r\n        \"desc\": \"Pre Defined - Hiscox API\"\r\n    },\r\n    \"wordingVersionVO\": {\r\n        \"id\": 1000001,\r\n        \"desc\": \"Allgemeine Bedingungen 01/19\"\r\n    }\r\n}",
									"options": {
										"raw": {
											"language": "json"
										}
									}
								},
								"url": {
									"raw": "{{baseUrl}}/api/proposal",
									"host": [
										"{{baseUrl}}"
									],
									"path": [
										"api",
										"proposal"
									]
								}
							},
							"response": []
						},
						{
							"name": "Prepare quote to convert to Policy",
							"event": [
								{
									"listen": "test",
									"script": {
										"exec": [
											"pm.test('Prepare quote to convert to Policy', ()=>{\r",
											"    const proposal =  pm.response.json();\r",
											"    pm.expect(pm.response.code).eqls(200);\r",
											"    pm.variables.set(\"proposal\", proposal);\r",
											"    pm.variables.set('messageCorrelationId', pm.response.headers.get('messageCorrelationId'));\r",
											"});"
										],
										"type": "text/javascript"
									}
								}
							],
							"request": {
								"method": "GET",
								"header": [
									{
										"key": "username",
										"value": "{{username}}",
										"type": "default"
									},
									{
										"key": "password",
										"value": "{{password}}",
										"type": "default"
									}
								],
								"url": {
									"raw": "{{baseUrl}}/api/policy-engine/preparations/proposal?proposalNumber={{proposalExternalID}}",
									"host": [
										"{{baseUrl}}"
									],
									"path": [
										"api",
										"policy-engine",
										"preparations",
										"proposal"
									],
									"query": [
										{
											"key": "proposalNumber",
											"value": "{{proposalExternalID}}"
										}
									]
								}
							},
							"response": []
						},
						{
							"name": "Create Policy",
							"event": [
								{
									"listen": "prerequest",
									"script": {
										"exec": [
											"const proposal = pm.variables.get('proposal');\r",
											"proposal.status = { \"id\" : 20, \"desc\" : \"Policy\" };\r",
											"pm.variables.set('requestBody', JSON.stringify(proposal));\r",
											"\r",
											"pm.request.headers.add({\r",
											"     key: 'messageCorrelationId',\r",
											"     value: pm.variables.get(\"messageCorrelationId\")\r",
											"});"
										],
										"type": "text/javascript"
									}
								},
								{
									"listen": "test",
									"script": {
										"exec": [
											"pm.test('Create Policy', ()=> {\r",
											"    const policy = pm.response.json();\r",
											"    const externalID = policy.externalID;\r",
											"    pm.expect(pm.response.code).eqls(200);\r",
											"    pm.variables.set('policyExternalID', policy.externalID);\r",
											"    tests[`Policy Number: ${externalID}`] = true;\r",
											"});"
										],
										"type": "text/javascript"
									}
								}
							],
							"request": {
								"method": "POST",
								"header": [
									{
										"key": "username",
										"value": "{{username}}",
										"type": "default"
									},
									{
										"key": "password",
										"value": "{{password}}",
										"type": "default"
									}
								],
								"body": {
									"mode": "raw",
									"raw": "{{requestBody}}",
									"options": {
										"raw": {
											"language": "json"
										}
									}
								},
								"url": {
									"raw": "{{baseUrl}}/api/policy",
									"host": [
										"{{baseUrl}}"
									],
									"path": [
										"api",
										"policy"
									]
								}
							},
							"response": []
						},
						{
							"name": "Prepare policy for Endorsement",
							"event": [
								{
									"listen": "prerequest",
									"script": {
										"exec": [
											"//const policyExternalID = pm.variables.get('policyExternalID');\r",
											"const policyExternalID = 'QTPL-PSC000048144/00';\r",
											"const index = policyExternalID.indexOf('/');\r",
											"const policyHeaderExternalNumber = parseInt(policyExternalID.slice(0,index).replace(/[^0-9]/g,''));\r",
											"console.log(policyHeaderExternalNumber);\r",
											"pm.variables.set('policyHeaderExternalNumber', policyHeaderExternalNumber);"
										],
										"type": "text/javascript"
									}
								},
								{
									"listen": "test",
									"script": {
										"exec": [
											"pm.test('Prepare policy for Endorsement', ()=> {\r",
											"    pm.expect(pm.response.code).to.eqls(200);\r",
											"    const policy  = pm.response.json();\r",
											"    pm.variables.set('policy', policy);\r",
											"    pm.variables.set('messageCorrelationId', pm.response.headers.get('messageCorrelationId'));\r",
											"});\r",
											""
										],
										"type": "text/javascript"
									}
								}
							],
							"request": {
								"method": "GET",
								"header": [
									{
										"key": "username",
										"value": "{{username}}",
										"type": "default"
									},
									{
										"key": "password",
										"value": "{{password}}",
										"type": "default"
									}
								],
								"url": {
									"raw": "{{baseUrl}}/api/policy-engine/preparations/policy?policyHeaderNumber={{policyHeaderExternalNumber}}",
									"host": [
										"{{baseUrl}}"
									],
									"path": [
										"api",
										"policy-engine",
										"preparations",
										"policy"
									],
									"query": [
										{
											"key": "policyHeaderNumber",
											"value": "{{policyHeaderExternalNumber}}"
										}
									]
								}
							},
							"response": []
						},
						{
							"name": "Create Endorsement",
							"event": [
								{
									"listen": "prerequest",
									"script": {
										"exec": [
											"pm.request.headers.add({\r",
											"    key : 'messageCorrelationId',\r",
											"    value :  pm.variables.get('messageCorrelationId')\r",
											"});\r",
											"\r",
											"const policy = pm.variables.get('policy');\r",
											"\r",
											"const covers =  [{\r",
											"          \"productLineType\": 3,\r",
											"          \"coverAdjustmentTypeIBOs\": [\r",
											"            {\r",
											"              \"defaultAdjustmentPercent\": 5,\r",
											"              \"applyAtRenewal\": false,\r",
											"              \"productDiscountType\": {\r",
											"                \"id\": 1000003,\r",
											"                \"desc\": \"1000003\"\r",
											"              },\r",
											"              \"discountAmount\": 0,\r",
											"              \"adjustmentPercent\": 5\r",
											"            }\r",
											"          ],\r",
											"          \"productLineOptionType\": {\r",
											"            \"id\": 1000024,\r",
											"            \"desc\": \"Cyber\"\r",
											"          },\r",
											"          \"coverOptions\": [\r",
											"            {\r",
											"              \"optionNumber\": 10,\r",
											"              \"description\": \"Cyber\",\r",
											"              \"id\": 1000024\r",
											"            }\r",
											"          ],\r",
											"          \"included\": false,\r",
											"          \"productLineGroup\": 1000025,\r",
											"          \"coverOptionName\": \"Cyber\",\r",
											"          \"status\": {\r",
											"            \"id\": 10,\r",
											"            \"desc\": \"Quote\"\r",
											"          }\r",
											"        },\r",
											"        {\r",
											"          \"productLineType\": 3,\r",
											"          \"coverAdjustmentTypeIBOs\": [\r",
											"            {\r",
											"              \"defaultAdjustmentPercent\": 5,\r",
											"              \"applyAtRenewal\": false,\r",
											"              \"productDiscountType\": {\r",
											"                \"id\": 1000003,\r",
											"                \"desc\": \"1000003\"\r",
											"              },\r",
											"              \"discountAmount\": 0,\r",
											"              \"adjustmentPercent\": 5\r",
											"            }\r",
											"          ],\r",
											"          \"productLineOptionType\": {\r",
											"            \"id\": 1000025,\r",
											"            \"desc\": \"Core Cyber\"\r",
											"          },\r",
											"          \"coverOptions\": [\r",
											"            {\r",
											"              \"optionNumber\": 10,\r",
											"              \"description\": \"Core Cyber\",\r",
											"              \"id\": 1000025\r",
											"            }\r",
											"          ],\r",
											"          \"included\": false,\r",
											"          \"productLineGroup\": 1000026,\r",
											"          \"coverOptionName\": \"Core Cyber\",\r",
											"          \"parentCoverExternalNumber\": \"Cyber\",\r",
											"          \"status\": {\r",
											"            \"id\": 10,\r",
											"            \"desc\": \"Quote\"\r",
											"          }\r",
											"        }];\r",
											"\r",
											"policy.insuredObjects[0].covers = policy.insuredObjects[0].covers.concat(covers);\r",
											"pm.variables.set('requestBody', JSON.stringify(policy));"
										],
										"type": "text/javascript"
									}
								},
								{
									"listen": "test",
									"script": {
										"exec": [
											"pm.test('Create endorsement', ()=> {\r",
											"    pm.expect(pm.response.code).to.eqls(200);\r",
											"    const endorsement = pm.response.json();\r",
											"    pm.variables.set('endorsementExternalId', endorsement.externalID);\r",
											"})"
										],
										"type": "text/javascript"
									}
								}
							],
							"request": {
								"method": "POST",
								"header": [
									{
										"key": "username",
										"value": "{{username}}",
										"type": "default"
									},
									{
										"key": "password",
										"value": "{{password}}",
										"type": "default"
									}
								],
								"body": {
									"mode": "raw",
									"raw": "{{requestBody}}",
									"options": {
										"raw": {
											"language": "json"
										}
									}
								},
								"url": {
									"raw": "{{baseUrl}}/api/policy/endorsement",
									"host": [
										"{{baseUrl}}"
									],
									"path": [
										"api",
										"policy",
										"endorsement"
									]
								}
							},
							"response": []
						},
						{
							"name": "Prepare Policy For Endorsement Quote",
							"event": [
								{
									"listen": "prerequest",
									"script": {
										"exec": [
											"const endorsementExternalId = pm.variables.get('endorsementExternalId');\r",
											"const index = endorsementExternalId.indexOf('/');\r",
											"const policyHeaderExternalNumber = parseInt(endorsementExternalId.slice(0,index).replace(/[^0-9]/g,''));\r",
											"pm.variables.set('policyHeaderExternalNumber', policyHeaderExternalNumber);"
										],
										"type": "text/javascript"
									}
								},
								{
									"listen": "test",
									"script": {
										"exec": [
											"pm.test('Prepare Policy For Endorsement Quote', ()=> {\r",
											"    pm.expect(pm.response.code).to.eqls(200);\r",
											"    const endorsement = pm.response.json();\r",
											"    pm.variables.set('endorsement', endorsement);\r",
											"    pm.variables.set('messageCorrelationId', pm.response.headers.get('messageCorrelationId'));\r",
											"});"
										],
										"type": "text/javascript"
									}
								}
							],
							"request": {
								"method": "GET",
								"header": [
									{
										"key": "username",
										"value": "{{username}}",
										"type": "default"
									},
									{
										"key": "password",
										"value": "{{password}}",
										"type": "default"
									}
								],
								"url": {
									"raw": "{{baseUrl}}/api/policy-engine/preparations/policy?policyHeaderNumber={{policyHeaderExternalNumber}}",
									"host": [
										"{{baseUrl}}"
									],
									"path": [
										"api",
										"policy-engine",
										"preparations",
										"policy"
									],
									"query": [
										{
											"key": "policyHeaderNumber",
											"value": "{{policyHeaderExternalNumber}}"
										}
									]
								}
							},
							"response": []
						},
						{
							"name": "Create Endorsement Quote",
							"event": [
								{
									"listen": "prerequest",
									"script": {
										"exec": [
											"pm.request.headers.add({\r",
											"    key : 'messageCorrelationId',\r",
											"    value :  pm.variables.get('messageCorrelationId')\r",
											"});\r",
											"\r",
											"const endorsement = pm.variables.get('endorsement');\r",
											"endorsement.status = { \"id\" : 10, \"desc\" : \"Quote\" };\r",
											"\r",
											"pm.variables.set('requestBody', JSON.stringify(endorsement));"
										],
										"type": "text/javascript"
									}
								},
								{
									"listen": "test",
									"script": {
										"exec": [
											"pm.test('Create endorsement quote', ()=> {\r",
											"    const res = pm.response.json(); \r",
											"    pm.expect(pm.response.code).to.eql(200);\r",
											"    pm.variables.set(\"proposalExternalID\", res.externalID)\r",
											"    tests[`Quote External ID: ${res.externalID}`] = true;\r",
											"});"
										],
										"type": "text/javascript"
									}
								}
							],
							"request": {
								"method": "POST",
								"header": [
									{
										"key": "username",
										"value": "{{username}}",
										"type": "default"
									},
									{
										"key": "password",
										"value": "{{password}}",
										"type": "default"
									}
								],
								"body": {
									"mode": "raw",
									"raw": "{{requestBody}}",
									"options": {
										"raw": {
											"language": "json"
										}
									}
								},
								"url": {
									"raw": "{{baseUrl}}/api/policy/endorsement",
									"host": [
										"{{baseUrl}}"
									],
									"path": [
										"api",
										"policy",
										"endorsement"
									]
								}
							},
							"response": []
						},
						{
							"name": "Prepare Quote For Update (to finalise the endorsement)",
							"event": [
								{
									"listen": "test",
									"script": {
										"exec": [
											"pm.test('Prepare Quote base on an endorsement for Update', () => {\r",
											"    pm.expect(pm.response.code).to.eqls(200);\r",
											"    pm.environment.set(\"messageCorrelationId\", pm.response.headers.get(\"messageCorrelationId\"));\r",
											"    const jsonData = JSON.parse(responseBody);\r",
											"    pm.environment.set(\"proposalExternalID\",jsonData.id);\r",
											"    pm.environment.set(\"proposalBasedOnEndorsement\", responseBody);\r",
											"});\r",
											""
										],
										"type": "text/javascript"
									}
								}
							],
							"request": {
								"method": "GET",
								"header": [
									{
										"key": "username",
										"value": "{{username}}",
										"type": "text"
									},
									{
										"key": "password",
										"value": "{{password}}",
										"type": "text"
									}
								],
								"url": {
									"raw": "{{baseUrl}}/api/policy-engine/preparations/proposal?proposalNumber={{proposalExternalID}}",
									"host": [
										"{{baseUrl}}"
									],
									"path": [
										"api",
										"policy-engine",
										"preparations",
										"proposal"
									],
									"query": [
										{
											"key": "proposalNumber",
											"value": "{{proposalExternalID}}"
										}
									]
								},
								"description": "<h1>Get Reproduced Proposal By Proposal Number For Update</h1><h2>Description</h2>This service retrieves an existing proposal version according to the proposal external number and returns a new, reproduced proposal as a response.<h2>Default Authorization</h2>The default core service behavior is that the user should have the right to execute ACTION_ID=32114.<h2>Internal Flow</h2><ol><li>Retrieve an existing proposal version according to the proposal external number.</li><li>Reproduce the proposal.</li><li>Remove all cancelled and expired covers and assets.</li><li>Change the default start date to the system date (if necessary).</li><li>Adjust all policy dates accordingly.</li><li>Return the new reproduced proposal as a response.</li></ol>"
							},
							"response": []
						},
						{
							"name": "Create Endorsement From Quote",
							"event": [
								{
									"listen": "prerequest",
									"script": {
										"exec": [
											"pm.request.headers.add({ key: 'messageCorrelationId', value: pm.environment.get(\"messageCorrelationId\") });\r",
											"\r",
											"const proposalBasedOnEndorsement = pm.environment.get(\"proposalBasedOnEndorsement\");\r",
											"proposalBasedOnEndorsement.status = { \"id\" : 20, \"desc\" : \"Policy\"};\r",
											"\r",
											"proposalBasedOnEndorsement.umbTotalTurnover *= 2; \r",
											"\r",
											"pm.environment.set(\"requestBody\", proposalBasedOnEndorsement);"
										],
										"type": "text/javascript"
									}
								},
								{
									"listen": "test",
									"script": {
										"exec": [
											"pm.test('Create Endorsement From Quote', ()=>{\r",
											"    const policy = pm.response.json();\r",
											"    const externalID = policy.externalID;\r",
											"    pm.expect(pm.response.code).eqls(200);\r",
											"    pm.variables.set('policyExternalID', policy.externalID);\r",
											"    tests[`Policy Number: ${externalID}`] = true;\r",
											"});"
										],
										"type": "text/javascript"
									}
								}
							],
							"request": {
								"method": "POST",
								"header": [
									{
										"key": "username",
										"value": "{{username}}",
										"type": "text"
									},
									{
										"key": "password",
										"value": "{{password}}",
										"type": "text"
									}
								],
								"body": {
									"mode": "raw",
									"raw": "{{requestBody}}",
									"options": {
										"raw": {
											"language": "json"
										}
									}
								},
								"url": {
									"raw": "{{baseUrl}}/api/policy/endorsement",
									"host": [
										"{{baseUrl}}"
									],
									"path": [
										"api",
										"policy",
										"endorsement"
									]
								},
								"description": "<h1>Update Proposal</h1><h2>Description</h2>This service updates a proposal, without limit until it is converted to a policy. The policy details must be obtained using the following service: GetReproducedProposalByProposalExtNumberForUpdate. All changes must be applied to the returned object (PolicyInformationIBO).<br/>Each time a proposal is updated it creates a proposal revision while retaining a full audit trail. Thus, the system keeps a history of changes in the policy (contact name, address). At the end of each revision, the customer is presented with the same decision points: approve, reject, or postpone. Each proposal revision is underwritten and rated from the beginning whilst maintaining and validating full data integrity.<br/>Once the proposal has been approved and converted to a policy, changes can be made via the CreateEndorsment service.<h2>Default Authorization</h2>The default core service behavior is that the user should have the right to execute ACTION_ID=32081.<h2>Internal Flow</h2>After applying the updates, the service:<ol><li>Activates a series of policy validations</li><li>Calculates an updated premium</li><li>Performs underwriting validations</li><li>Saves the new proposal to the data base</li><li>Initiates the workflow connected to this process</li></ol>"
							},
							"response": []
						}
					]
				}
			]
		}
	]
}