{
	"info": {
		"_postman_id": "948c3b6f-5fb9-4020-96eb-3c3a9614a44f",
		"name": "product",
		"schema": "https://schema.getpostman.com/json/collection/v2.1.0/collection.json"
	},
	"item": [
		{
			"name": "api",
			"item": [
				{
					"name": "product",
					"item": [
						{
							"name": "Create a Contact - Individual",
							"event": [
								{
									"listen": "prerequest",
									"script": {
										"exec": [
											"const firstName = pm.variables.replaceIn(\"{{$randomFirstName}}\");\r",
											"const lastName = pm.variables.replaceIn(\"{{$randomLastName}}\");\r",
											"const dateOfBirth =  new Date(pm.variables.replaceIn(\"{{$randomDatePast}}\")).toISOString();\r",
											"pm.variables.set(\"fullName\", `${firstName} ${lastName}`);\r",
											"pm.variables.set(\"firstName\", firstName);\r",
											"pm.variables.set(\"lastName\", lastName);\r",
											"pm.variables.set(\"dateOfBirth\", dateOfBirth)\r",
											"\r",
											""
										],
										"type": "text/javascript"
									}
								},
								{
									"listen": "test",
									"script": {
										"exec": [
											"pm.test(\"Create Contact\", ()=>{\r",
											"    const res = pm.response.json(); \r",
											"    pm.expect(pm.response.code).to.eql(201);\r",
											"    pm.collectionVariables.set(\"identifier\", res.identifier);\r",
											"    pm.collectionVariables.set(\"externalID\", res.externalID)\r",
											"});\r",
											""
										],
										"type": "text/javascript"
									}
								}
							],
							"request": {
								"method": "POST",
								"header": [
									{
										"key": "username",
										"value": "{{username}}",
										"type": "default"
									},
									{
										"key": "password",
										"value": "{{password}}",
										"type": "default"
									},
									{
										"key": "Cookie",
										"value": "{{cookie}}",
										"type": "default"
									}
								],
								"body": {
									"mode": "raw",
									"raw": "{\r\n    \"addresses\": [\r\n      {\r\n        \"zipCode\": \"80638\",\r\n        \"country\": {\r\n          \"id\": 77,\r\n          \"desc\": \"Germany\"\r\n        },\r\n        \"pob\": \"POB\",\r\n        \"districtName\": \"Neuhausen-Nymphenburg\",\r\n        \"updateVersion\": 0,\r\n        \"apartmentNr\": \"back\",\r\n        \"addressType\": {\r\n          \"id\": 1,\r\n          \"desc\": \"Correspondence address - private\"\r\n        },\r\n       \r\n        \"processingStatusVO\": {\r\n          \"id\": 10000,\r\n          \"desc\": \"Available for the processing\"\r\n        },\r\n        \r\n        \"streetName\": \"Schloß Nymphenburg\",\r\n        \"cityName\": \"MÜNCHEN\",\r\n        \"houseNr\": \"1\",\r\n        \"isPreferredDeliveryAddress\": true\r\n      }\r\n    ],\r\n    \"subscriptions\": [],\r\n    \"gender\": {\r\n      \"id\": 2,\r\n      \"desc\": \"Male\"\r\n    },\r\n    \"updateVersion\": 1,\r\n    \"entityType\": {\r\n      \"id\": 1,\r\n      \"desc\": \"Individual\"\r\n    },\r\n    \"identifiers\": [\r\n      {\r\n        \"country\": {\r\n          \"id\": 77,\r\n          \"desc\": \"Germany\"\r\n        },\r\n        \"idType\": {\r\n          \"id\": 1,\r\n          \"desc\": \"Fiscal Code\"\r\n        },\r\n        \"updateVersion\": 0,\r\n        \"idValue\": \"{{$randomAlphaNumeric}}\"\r\n        \r\n      }\r\n    ],\r\n    \"telephones\": [\r\n      {\r\n        \"telephoneNumber\": \"03332673034\",\r\n        \"updateVersion\": 0,\r\n        \"telephoneType\": {\r\n          \"id\": 1000002,\r\n          \"desc\": \"General Telephone\"\r\n        },\r\n        \"countryDialCode\": {\r\n          \"id\": 77,\r\n          \"desc\": \"49\"\r\n        }       \r\n      }\r\n    ],\r\n    \"dateOfBirth\": \"{{dateOfBirth}}\",\r\n    \"language\": {\r\n      \"id\": 1000000,\r\n      \"desc\": \"German - DE\"\r\n    },\r\n    \"channelType\": {\r\n      \"id\": 1,\r\n      \"desc\": \"IDIT_UI\"\r\n    },\r\n    \r\n    \"title\": {\r\n      \"id\": 1,\r\n      \"desc\": \"Mr.\"\r\n    },\r\n    \"processingStatusVO\": {\r\n      \"id\": 10000,\r\n      \"desc\": \"Available for the processing\"\r\n    },\r\n    \"emails\": [\r\n      {\r\n        \"emailType\": {\r\n          \"id\": 1000000,\r\n          \"desc\": \"General\"\r\n        },\r\n        \"isPreferredDeliveryAddress\": true,\r\n        \"email\": \"{{$randomEmail}}\"\r\n      }\r\n    ],\r\n    \"firstName\": \"{{firstName}}\",\r\n    \"nationality\": {\r\n      \"id\": 77,\r\n      \"desc\": \"Germany\"\r\n    },\r\n    \"name\": \"{{lastName}}\",\r\n    \r\n    \"consents\": [],\r\n    \"contactBankAccounts\": [\r\n        {\r\n            \"country\": {\r\n                \"id\": 77,\r\n                \"desc\": \"Germany\"\r\n            },\r\n            \"updateVersion\": 1,\r\n            \"ibanReference\": \"DE89370400440532013000\",\r\n            \"bankAccountExternalNumber\": \"25313\",\r\n            \"bicCode\": \"AARBDE5W700\",\r\n            \"paymentChannel\": {\r\n                \"id\": 1,\r\n                \"desc\": \"Bank Accounts\"\r\n            },\r\n            \"directDebitMandate\": [],\r\n            \"onHoldForDirectDebitEu\": false,\r\n            \"bankAccountHolderName\": \"{{fullName}}\",\r\n            \"remarks\": \"{{$randomBankAccountName}}\",\r\n            \"bankAccountHolderAddress\": \"Schloß Nymphenburg 1, 80638 MÜNCHEN\"\r\n        }\r\n    ]\r\n  }",
									"options": {
										"raw": {
											"language": "json"
										}
									}
								},
								"url": {
									"raw": "{{baseUrl}}/api/contact",
									"host": [
										"{{baseUrl}}"
									],
									"path": [
										"api",
										"contact"
									]
								}
							},
							"response": []
						},
						{
							"name": "Get Product - List",
							"event": [
								{
									"listen": "test",
									"script": {
										"exec": [
											"pm.test('List of Products', ()=>{\r",
											"    const list = pm.response.json() || [];\r",
											"    pm.expect(pm.response.code).to.eqls(200);\r",
											"    tests[` ${list.length} ${list.length > 1 ? 'items' : 'item'} found`] = true;\r",
											"});"
										],
										"type": "text/javascript"
									}
								}
							],
							"request": {
								"method": "GET",
								"header": [
									{
										"key": "username",
										"value": "{{username}}",
										"type": "default"
									},
									{
										"key": "password",
										"value": "{{password}}",
										"type": "default"
									},
									{
										"key": "Cookie",
										"value": "{{cookie}}",
										"type": "default"
									}
								],
								"url": {
									"raw": "{{baseUrl}}/api/policy/product-list?contactID={{externalID}}&userID=1",
									"host": [
										"{{baseUrl}}"
									],
									"path": [
										"api",
										"policy",
										"product-list"
									],
									"query": [
										{
											"key": "contactID",
											"value": "{{externalID}}"
										},
										{
											"key": "userID",
											"value": "1"
										}
									]
								}
							},
							"response": []
						},
						{
							"name": "Get Product - Detail",
							"event": [
								{
									"listen": "test",
									"script": {
										"exec": [
											"pm.test('Product Detail', ()=>{\r",
											"    pm.expect(pm.response.code).to.eqls(200);\r",
											"});"
										],
										"type": "text/javascript"
									}
								}
							],
							"request": {
								"method": "GET",
								"header": [
									{
										"key": "username",
										"value": "{{username}}",
										"type": "default"
									},
									{
										"key": "password",
										"value": "{{password}}",
										"type": "default"
									},
									{
										"key": "Cookie",
										"value": "{{cookie}}",
										"type": "default"
									}
								],
								"url": {
									"raw": "{{baseUrl}}/api/product/:productId",
									"host": [
										"{{baseUrl}}"
									],
									"path": [
										"api",
										"product",
										":productId"
									],
									"variable": [
										{
											"key": "productId",
											"value": "1000000"
										}
									]
								}
							},
							"response": []
						}
					]
				}
			]
		}
	],
	"event": [
		{
			"listen": "prerequest",
			"script": {
				"type": "text/javascript",
				"exec": [
					""
				]
			}
		},
		{
			"listen": "test",
			"script": {
				"type": "text/javascript",
				"exec": [
					""
				]
			}
		}
	],
	"variable": [
		{
			"key": "baseUrl",
			"value": ""
		},
		{
			"key": "username",
			"value": ""
		},
		{
			"key": "password",
			"value": ""
		},
		{
			"key": "Cookie",
			"value": ""
		},
		{
			"key": "cookie",
			"value": ""
		},
		{
			"key": "externalID",
			"value": ""
		},
		{
			"key": "identifier",
			"value": ""
		},
		{
			"key": "messageCorrelationId",
			"value": ""
		},
		{
			"key": "getResult",
			"value": ""
		},
		{
			"key": "dateOfBirth",
			"value": ""
		},
		{
			"key": "contactBankAccountid",
			"value": ""
		}
	]
}